cpu-clock;task-clock;context-switches;cpu-migrations;page-faults;cycles;stalled-cycles-frontend;instructions;branches;branch-misses;L1-dcache-loads;L1-dcache-load-misses;L1-dcache-stores;LLC-loads;LLC-load-misses;LLC-stores;LLC-prefetches;cache-references;cache-misses;bus-cycles;dTLB-loads;dTLB-load-misses;dTLB-prefetch-misses;executable;matrix_size
1575,60;1575,60;1;0;10025;4030375826;<not supported>;8927704599;1115644657;1771739;2229632256;280258907;1113235948;166087162;46139856;6615;<not supported>;169805753;46701099;155965794;2236477557;1010103;<not supported>;mmul_cont_with_indir;1300
1520,86;1520,86;3;0;10025;3855134815;<not supported>;8797262332;1096020446;1747704;2212830696;278148691;1101410297;171954512;48123374;5369;<not supported>;172683744;46997209;150827515;2242258830;1030244;<not supported>;mmul_cont_with_indir;1300
1528,13;1528,12;17;0;10026;3897980691;<not supported>;8855111061;1094997969;1760465;2215377312;279545236;1095247499;164177775;43321045;11959;<not supported>;163026399;42052078;151455116;2266122720;1215269;<not supported>;mmul_cont_with_indir;1300
1528,15;1528,15;6;0;10026;3905799359;<not supported>;8840331363;1092404812;1737907;2199002683;278089292;1097101273;169922500;47699673;6008;<not supported>;172937504;48133900;151399754;2266640436;1075929;<not supported>;mmul_cont_with_indir;1300
1528,04;1528,04;2;0;10026;3913553735;<not supported>;8908909910;1105990027;1755188;2213698380;279906253;1117597839;162400190;41204117;10310;<not supported>;165657407;43641269;151449802;2248157852;1364423;<not supported>;mmul_cont_with_indir;1300
1519,00;1519,00;3;0;10026;3877117228;<not supported>;8848733232;1104914418;1753380;2211131543;275113500;1103211217;172733107;47762668;5416;<not supported>;171403435;47663621;150655163;2261555238;1219308;<not supported>;mmul_cont_with_indir;1300
1530,44;1530,44;13;0;10025;3918656482;<not supported>;8858646615;1107036518;1753229;2213165465;279494820;1106318009;162391922;42248532;9448;<not supported>;165827200;43540350;151794145;2250643061;1351445;<not supported>;mmul_cont_with_indir;1300
