Timer - Multiplication;Ret;executable;matrix_size
243;0;mmul_-DIKJ_OPT_-DNESTED_VECTOR_openmp;1100
226;0;mmul_-DIKJ_OPT_-DNESTED_VECTOR_openmp;1100
226;0;mmul_-DIKJ_OPT_-DNESTED_VECTOR_openmp;1100
228;0;mmul_-DIKJ_OPT_-DNESTED_VECTOR_openmp;1100
226;0;mmul_-DIKJ_OPT_-DNESTED_VECTOR_openmp;1100
226;0;mmul_-DIKJ_OPT_-DNESTED_VECTOR_openmp;1100
227;0;mmul_-DIKJ_OPT_-DNESTED_VECTOR_openmp;1100
