Timer - Multiplication;Ret;executable;matrix_size
11045;0;mmul_-DIJK_OPT_-DNESTED_VECTOR;1400
10545;0;mmul_-DIJK_OPT_-DNESTED_VECTOR;1400
10284;0;mmul_-DIJK_OPT_-DNESTED_VECTOR;1400
10587;0;mmul_-DIJK_OPT_-DNESTED_VECTOR;1400
10356;0;mmul_-DIJK_OPT_-DNESTED_VECTOR;1400
10625;0;mmul_-DIJK_OPT_-DNESTED_VECTOR;1400
10274;0;mmul_-DIJK_OPT_-DNESTED_VECTOR;1400
