Timer - Multiplication;Ret;executable;matrix_size
8903;0;mmul_-DIJK_-DNESTED_VECTOR_openmp;1500
8991;0;mmul_-DIJK_-DNESTED_VECTOR_openmp;1500
8847;0;mmul_-DIJK_-DNESTED_VECTOR_openmp;1500
9168;0;mmul_-DIJK_-DNESTED_VECTOR_openmp;1500
9296;0;mmul_-DIJK_-DNESTED_VECTOR_openmp;1500
8941;0;mmul_-DIJK_-DNESTED_VECTOR_openmp;1500
9118;0;mmul_-DIJK_-DNESTED_VECTOR_openmp;1500
