Timer - Multiplication;Ret;executable;matrix_size
7;0;mmul_-DIJK_OPT_-DNESTED_VECTOR_openmp;200
5;0;mmul_-DIJK_OPT_-DNESTED_VECTOR_openmp;200
4;0;mmul_-DIJK_OPT_-DNESTED_VECTOR_openmp;200
4;0;mmul_-DIJK_OPT_-DNESTED_VECTOR_openmp;200
4;0;mmul_-DIJK_OPT_-DNESTED_VECTOR_openmp;200
2;0;mmul_-DIJK_OPT_-DNESTED_VECTOR_openmp;200
5;0;mmul_-DIJK_OPT_-DNESTED_VECTOR_openmp;200
