Timer - Multiplication;Ret;executable;matrix_size
491;0;mmul_-DIKJ_OPT_-DNESTED_VECTOR_openmp;1400
471;0;mmul_-DIKJ_OPT_-DNESTED_VECTOR_openmp;1400
472;0;mmul_-DIKJ_OPT_-DNESTED_VECTOR_openmp;1400
473;0;mmul_-DIKJ_OPT_-DNESTED_VECTOR_openmp;1400
473;0;mmul_-DIKJ_OPT_-DNESTED_VECTOR_openmp;1400
482;0;mmul_-DIKJ_OPT_-DNESTED_VECTOR_openmp;1400
473;0;mmul_-DIKJ_OPT_-DNESTED_VECTOR_openmp;1400
