Timer - Multiplication;Ret;executable;matrix_size
1196;0;mmul_-DIJK_OPT_-DNESTED_VECTOR;800
1211;0;mmul_-DIJK_OPT_-DNESTED_VECTOR;800
1157;0;mmul_-DIJK_OPT_-DNESTED_VECTOR;800
1194;0;mmul_-DIJK_OPT_-DNESTED_VECTOR;800
1208;0;mmul_-DIJK_OPT_-DNESTED_VECTOR;800
1193;0;mmul_-DIJK_OPT_-DNESTED_VECTOR;800
1169;0;mmul_-DIJK_OPT_-DNESTED_VECTOR;800
