Timer - Multiplication;Ret;executable;matrix_size
8151;0;mmul_-DIJK_-DNESTED_VECTOR;1000
8111;0;mmul_-DIJK_-DNESTED_VECTOR;1000
8711;0;mmul_-DIJK_-DNESTED_VECTOR;1000
8256;0;mmul_-DIJK_-DNESTED_VECTOR;1000
8076;0;mmul_-DIJK_-DNESTED_VECTOR;1000
8214;0;mmul_-DIJK_-DNESTED_VECTOR;1000
8521;0;mmul_-DIJK_-DNESTED_VECTOR;1000
