Timer - Multiplication;Ret;executable;matrix_size
673;0;mmul_-DIKJ_-DNESTED_VECTOR_openmp;1500
653;0;mmul_-DIKJ_-DNESTED_VECTOR_openmp;1500
645;0;mmul_-DIKJ_-DNESTED_VECTOR_openmp;1500
671;0;mmul_-DIKJ_-DNESTED_VECTOR_openmp;1500
678;0;mmul_-DIKJ_-DNESTED_VECTOR_openmp;1500
657;0;mmul_-DIKJ_-DNESTED_VECTOR_openmp;1500
652;0;mmul_-DIKJ_-DNESTED_VECTOR_openmp;1500
