Timer - Multiplication;Ret;executable;matrix_size
23;0;mmul_-DIJK_OPT_-DNESTED_VECTOR;300
25;0;mmul_-DIJK_OPT_-DNESTED_VECTOR;300
26;0;mmul_-DIJK_OPT_-DNESTED_VECTOR;300
25;0;mmul_-DIJK_OPT_-DNESTED_VECTOR;300
26;0;mmul_-DIJK_OPT_-DNESTED_VECTOR;300
27;0;mmul_-DIJK_OPT_-DNESTED_VECTOR;300
25;0;mmul_-DIJK_OPT_-DNESTED_VECTOR;300
