Timer - Multiplication;Ret;executable;matrix_size
18;0;mmul_-DIKJ_-DNESTED_VECTOR;300
24;0;mmul_-DIKJ_-DNESTED_VECTOR;300
19;0;mmul_-DIKJ_-DNESTED_VECTOR;300
20;0;mmul_-DIKJ_-DNESTED_VECTOR;300
18;0;mmul_-DIKJ_-DNESTED_VECTOR;300
19;0;mmul_-DIKJ_-DNESTED_VECTOR;300
17;0;mmul_-DIKJ_-DNESTED_VECTOR;300
