Timer - Multiplication;Ret;executable;matrix_size
363;0;mmul_-DIKJ_-DNESTED_VECTOR_openmp;1200
316;0;mmul_-DIKJ_-DNESTED_VECTOR_openmp;1200
334;0;mmul_-DIKJ_-DNESTED_VECTOR_openmp;1200
320;0;mmul_-DIKJ_-DNESTED_VECTOR_openmp;1200
317;0;mmul_-DIKJ_-DNESTED_VECTOR_openmp;1200
314;0;mmul_-DIKJ_-DNESTED_VECTOR_openmp;1200
319;0;mmul_-DIKJ_-DNESTED_VECTOR_openmp;1200
