Timer - Multiplication;Ret;executable;matrix_size
586;0;mmul_-DIKJ_OPT_-DNESTED_VECTOR;1000
557;0;mmul_-DIKJ_OPT_-DNESTED_VECTOR;1000
557;0;mmul_-DIKJ_OPT_-DNESTED_VECTOR;1000
548;0;mmul_-DIKJ_OPT_-DNESTED_VECTOR;1000
551;0;mmul_-DIKJ_OPT_-DNESTED_VECTOR;1000
560;0;mmul_-DIKJ_OPT_-DNESTED_VECTOR;1000
558;0;mmul_-DIKJ_OPT_-DNESTED_VECTOR;1000
