Timer - Multiplication;Ret;executable;matrix_size
2026;0;mmul_-DIJK_OPT_-DNESTED_VECTOR;900
2012;0;mmul_-DIJK_OPT_-DNESTED_VECTOR;900
2023;0;mmul_-DIJK_OPT_-DNESTED_VECTOR;900
2013;0;mmul_-DIJK_OPT_-DNESTED_VECTOR;900
2026;0;mmul_-DIJK_OPT_-DNESTED_VECTOR;900
2028;0;mmul_-DIJK_OPT_-DNESTED_VECTOR;900
2044;0;mmul_-DIJK_OPT_-DNESTED_VECTOR;900
