Timer - Multiplication;Ret;executable;matrix_size
24793;0;mmul_-DIJK_-DNESTED_VECTOR;1400
23849;0;mmul_-DIJK_-DNESTED_VECTOR;1400
23599;0;mmul_-DIJK_-DNESTED_VECTOR;1400
23427;0;mmul_-DIJK_-DNESTED_VECTOR;1400
23900;0;mmul_-DIJK_-DNESTED_VECTOR;1400
23304;0;mmul_-DIJK_-DNESTED_VECTOR;1400
23321;0;mmul_-DIJK_-DNESTED_VECTOR;1400
