Timer - Multiplication;Ret;executable;matrix_size
130;0;mmul_-DIKJ_OPT_-DNESTED_VECTOR_openmp;900
120;0;mmul_-DIKJ_OPT_-DNESTED_VECTOR_openmp;900
121;0;mmul_-DIKJ_OPT_-DNESTED_VECTOR_openmp;900
120;0;mmul_-DIKJ_OPT_-DNESTED_VECTOR_openmp;900
123;0;mmul_-DIKJ_OPT_-DNESTED_VECTOR_openmp;900
121;0;mmul_-DIKJ_OPT_-DNESTED_VECTOR_openmp;900
124;0;mmul_-DIKJ_OPT_-DNESTED_VECTOR_openmp;900
