Timer - Multiplication;Ret;executable;matrix_size
198;0;mmul_-DIKJ_-DNESTED_VECTOR;700
187;0;mmul_-DIKJ_-DNESTED_VECTOR;700
186;0;mmul_-DIKJ_-DNESTED_VECTOR;700
181;0;mmul_-DIKJ_-DNESTED_VECTOR;700
184;0;mmul_-DIKJ_-DNESTED_VECTOR;700
183;0;mmul_-DIKJ_-DNESTED_VECTOR;700
189;0;mmul_-DIKJ_-DNESTED_VECTOR;700
