Timer - Multiplication;Ret;executable;matrix_size
191;0;mmul_-DIKJ_OPT_-DNESTED_VECTOR;700
183;0;mmul_-DIKJ_OPT_-DNESTED_VECTOR;700
181;0;mmul_-DIKJ_OPT_-DNESTED_VECTOR;700
183;0;mmul_-DIKJ_OPT_-DNESTED_VECTOR;700
179;0;mmul_-DIKJ_OPT_-DNESTED_VECTOR;700
177;0;mmul_-DIKJ_OPT_-DNESTED_VECTOR;700
182;0;mmul_-DIKJ_OPT_-DNESTED_VECTOR;700
