Timer - Multiplication: 11045 ms 
Ret: 0
Timer - Multiplication: 10545 ms 
Ret: 0
Timer - Multiplication: 10284 ms 
Ret: 0
Timer - Multiplication: 10587 ms 
Ret: 0
Timer - Multiplication: 10356 ms 
Ret: 0
Timer - Multiplication: 10625 ms 
Ret: 0
Timer - Multiplication: 10274 ms 
Ret: 0
