Timer - Multiplication;Ret;executable;matrix_size
1546;0;mmul_nested_vec;1300
1514;0;mmul_nested_vec;1300
1509;0;mmul_nested_vec;1300
1531;0;mmul_nested_vec;1300
1521;0;mmul_nested_vec;1300
1516;0;mmul_nested_vec;1300
1516;0;mmul_nested_vec;1300
