Timer - Multiplication;Ret;executable;matrix_size
2354;0;mmul_cont_with_indir;1500
2326;0;mmul_cont_with_indir;1500
2332;0;mmul_cont_with_indir;1500
2340;0;mmul_cont_with_indir;1500
2331;0;mmul_cont_with_indir;1500
2345;0;mmul_cont_with_indir;1500
2341;0;mmul_cont_with_indir;1500
