Timer - Multiplication;Ret;executable;matrix_size
96;0;mmul_cont_with_mult;400
69;0;mmul_cont_with_mult;400
75;0;mmul_cont_with_mult;400
80;0;mmul_cont_with_mult;400
82;0;mmul_cont_with_mult;400
70;0;mmul_cont_with_mult;400
70;0;mmul_cont_with_mult;400
