Timer - Multiplication;Ret;executable;matrix_size
3188;0;mmul_cont_with_mult;1400
3131;0;mmul_cont_with_mult;1400
3154;0;mmul_cont_with_mult;1400
3133;0;mmul_cont_with_mult;1400
3153;0;mmul_cont_with_mult;1400
3146;0;mmul_cont_with_mult;1400
3138;0;mmul_cont_with_mult;1400
