Timer - Multiplication;Ret;executable;matrix_size
1939;0;mmul_nested_vec;1400
1905;0;mmul_nested_vec;1400
1904;0;mmul_nested_vec;1400
2019;0;mmul_nested_vec;1400
1906;0;mmul_nested_vec;1400
1902;0;mmul_nested_vec;1400
1897;0;mmul_nested_vec;1400
