Timer - Multiplication;Ret;executable;matrix_size
8;0;mmul_nested_vec;200
8;0;mmul_nested_vec;200
5;0;mmul_nested_vec;200
8;0;mmul_nested_vec;200
8;0;mmul_nested_vec;200
4;0;mmul_nested_vec;200
4;0;mmul_nested_vec;200
