Timer - Multiplication;Ret;executable;matrix_size
35;0;mmul_nested_vec;400
34;0;mmul_nested_vec;400
58;0;mmul_nested_vec;400
39;0;mmul_nested_vec;400
35;0;mmul_nested_vec;400
45;0;mmul_nested_vec;400
38;0;mmul_nested_vec;400
