Timer - Multiplication;Ret;executable;matrix_size
1603;0;mmul_cont_with_mult;1100
1794;0;mmul_cont_with_mult;1100
1563;0;mmul_cont_with_mult;1100
1551;0;mmul_cont_with_mult;1100
1523;0;mmul_cont_with_mult;1100
1532;0;mmul_cont_with_mult;1100
1525;0;mmul_cont_with_mult;1100
