Timer - Multiplication;Ret;executable;matrix_size
67;0;mmul_nested_vec;500
95;0;mmul_nested_vec;500
73;0;mmul_nested_vec;500
71;0;mmul_nested_vec;500
74;0;mmul_nested_vec;500
74;0;mmul_nested_vec;500
77;0;mmul_nested_vec;500
