Timer - Multiplication;Ret;executable;matrix_size
1331;0;mmul_cont_with_indir;1200
1187;0;mmul_cont_with_indir;1200
1188;0;mmul_cont_with_indir;1200
1170;0;mmul_cont_with_indir;1200
1176;0;mmul_cont_with_indir;1200
1183;0;mmul_cont_with_indir;1200
1180;0;mmul_cont_with_indir;1200
