Timer - Multiplication;Ret;executable;matrix_size
1555;0;mmul_cont_with_indir;1300
1500;0;mmul_cont_with_indir;1300
1507;0;mmul_cont_with_indir;1300
1507;0;mmul_cont_with_indir;1300
1507;0;mmul_cont_with_indir;1300
1498;0;mmul_cont_with_indir;1300
1510;0;mmul_cont_with_indir;1300
