executable;matrix_size;L1-dcache-load-misses;L1-dcache-loads;L1-dcache-stores;LLC-load-misses;LLC-loads;LLC-prefetches;LLC-stores;branch-misses;branches;bus-cycles;cache-misses;cache-references;context-switches;cpu-clock;cpu-migrations;cycles;dTLB-load-misses;dTLB-loads;dTLB-prefetch-misses;instructions;page-faults;stalled-cycles-frontend;task-clock
mmul_cont_with_indir;100;<not counted>;<not counted>;<not counted>;<not counted>;<not counted>;<not supported>;<not counted>;26506;1149040;<not counted>;<not counted>;<not counted>;0;1.93;0;3951246;<not counted>;<not counted>;<not supported>;7746096;173;<not supported>;1.93
mmul_cont_with_indir;200;<not counted>;<not counted>;<not counted>;<not counted>;<not counted>;<not supported>;<not counted>;57995;5032956;<not counted>;<not counted>;<not counted>;0;6.15;0;12942684;<not counted>;<not counted>;<not supported>;35466244;352;<not supported>;6.15
mmul_cont_with_indir;300;3377207;29214931;10173125;<not counted>;<not counted>;<not supported>;<not counted>;105256;13265553;<not counted>;<not counted>;<not counted>;0;17.07;0;38450637;<not counted>;<not counted>;<not supported>;76741678;644;<not supported>;17.07
mmul_cont_with_indir;400;6364321;63743360;30550641;7327;1506233;<not supported>;67;153408;13513102;3614622;49983;1182049;0;37.25;0;75148762;1136;56884051;<not supported>;64303796;1057;<not supported>;37.25
mmul_cont_with_indir;500;13693597;122749953;53769378;154113;4092848;<not supported>;136;255527;48820346;7155058;166302;4088885;0;71.96;0;179901360;697;69299620;<not supported>;337799285;1584;<not supported>;71.96
mmul_cont_with_indir;600;25591247;229127999;87797426;1164008;9518857;<not supported>;437;378091;102894461;12799998;1232975;9720897;0;129.48;0;328456794;1747;226304242;<not supported>;806182563;2230;<not supported>;129.48
mmul_cont_with_indir;700;43421010;336937825;180345945;3360122;19791770;<not supported>;816;494286;149681460;22083735;3380135;19604802;0;222.44;0;542028055;25006;353928327;<not supported>;1166634938;2994;<not supported>;222.44
mmul_cont_with_indir;800;63518283;508522807;251442097;7388839;35375752;<not supported>;1275;645715;238333296;34468753;7443508;35189730;0;346.74;0;876511243;161913;529017428;<not supported>;1951183669;3872;<not supported>;346.74
mmul_cont_with_indir;900;92022186;720341625;372376764;12134457;53185412;<not supported>;1961;821397;347688446;49932460;12221686;52676073;0;503.36;0;1266316762;228828;759877617;<not supported>;2792769114;4870;<not supported>;503.36
mmul_cont_with_indir;1000;126759777;988551040;510527899;17263930;71642767;<not supported>;5875;1026905;484954239;68564136;17720019;71976385;0;691.21;0;1749883509;302388;1009737362;<not supported>;3942659431;5981;<not supported>;691.21
mmul_cont_with_indir;1100;168012348;1326201264;661752884;24558991;97746904;<not supported>;3606;1240407;652281342;91255723;24509799;97189319;1;920.3;0;2338347185;425021;1351485805;<not supported>;5215860921;7213;<not supported>;920.3
mmul_cont_with_indir;1200;215821047;1724335144;868011338;31761678;126492357;<not supported>;4426;1487951;854237959;117764770;33208352;128071877;1;1187.99;0;3037815957;719822;1763571649;<not supported>;6916677649;8560;<not supported>;1187.99
mmul_cont_with_indir;1300;275113500;2199002683;1095247499;41204117;162391922;<not supported>;5369;1737907;1092404812;150655163;42052078;163026399;1;1519.0;0;3855134815;1010103;2236477557;<not supported>;8797262332;10025;<not supported>;1519.0
mmul_cont_with_indir;1400;346271705;2764733033;1359011555;51446533;198662301;<not supported>;8894;2028374;1371794312;189612208;52816067;203651435;2;1912.84;0;4884763575;1687143;2796349996;<not supported>;10970230851;11610;<not supported>;1912.83
mmul_cont_with_indir;1500;427267466;3395305961;1661673233;62618849;244995052;<not supported>;13000;2318246;1687942716;233217878;65870262;250310198;3;2354.15;0;6019447181;1891437;3434754247;<not supported>;13570617142;13307;<not supported>;2354.15
mmul_cont_with_mult;100;<not counted>;<not counted>;<not counted>;<not counted>;<not counted>;<not supported>;<not counted>;26888;1644778;<not counted>;<not counted>;<not counted>;0;2.42;0;5135036;<not counted>;<not counted>;<not supported>;13641306;173;<not supported>;2.42
mmul_cont_with_mult;200;<not counted>;19430209;<not counted>;<not counted>;<not counted>;<not supported>;<not counted>;58081;8392731;<not counted>;<not counted>;<not counted>;0;11.14;0;21032551;<not counted>;<not counted>;<not supported>;68284780;351;<not supported>;11.14
mmul_cont_with_mult;300;3151346;84999985;24309115;520;81811;<not supported>;1386;107858;20123306;3078922;29613;166003;0;32.51;0;56171780;<not counted>;<not counted>;<not supported>;133928215;641;<not supported>;32.51
mmul_cont_with_mult;400;6673491;144583698;59873676;3056;177494;<not supported>;137;170393;53833198;7208552;3183;183895;0;72.97;0;184463642;55;177625049;<not supported>;518370661;1052;<not supported>;72.97
mmul_cont_with_mult;500;14438102;356556230;121792773;23763;463052;<not supported>;262;277614;119859046;13871171;22580;391676;0;139.62;0;354508407;120;375000815;<not supported>;1171019848;1580;<not supported>;139.61
mmul_cont_with_mult;600;26277557;627987514;197633929;396475;3190518;<not supported>;630;388323;198422678;24692804;412864;3169878;0;248.51;0;626040194;1561;652196928;<not supported>;1955645976;2225;<not supported>;248.51
mmul_cont_with_mult;700;43627774;1032078121;348216972;1572597;9261645;<not supported>;1057;529351;330826535;39524802;1699294;9640085;0;398.57;0;1009140808;6120;1025070262;<not supported>;3274158902;2988;<not supported>;398.57
mmul_cont_with_mult;800;64591371;1510836031;512808900;2505497;17816264;<not supported>;2188;675445;485879158;60264956;2466288;18148713;0;608.88;0;1536944354;56799;1509852682;<not supported>;4922043218;3867;<not supported>;608.88
mmul_cont_with_mult;900;92880653;2178474765;734051210;3975588;27819210;<not supported>;2923;863905;714129063;84163575;4275979;28006160;1;848.21;0;2136218942;33361;2162241691;<not supported>;7127443797;4862;<not supported>;848.21
mmul_cont_with_mult;1000;126572599;2942762432;1006727924;5846330;39191292;<not supported>;3304;1058147;989123995;115547359;5933702;39338829;2;1165.76;0;2950106194;43687;3026005860;<not supported>;9807884590;5977;<not supported>;1165.77
mmul_cont_with_mult;1100;170378599;3959766699;1334079250;7231253;52807425;<not supported>;4649;1278054;1319418047;152483817;7457163;52962094;3;1538.21;0;3928155788;50766;4015212341;<not supported>;13160318917;7206;<not supported>;1538.21
mmul_cont_with_mult;1200;219411140;5132602889;1745987692;10587664;69289958;<not supported>;4978;1507341;1701800612;196731187;10805597;69213599;4;1985.14;0;5071253237;83269;5196329619;<not supported>;17122600005;8554;<not supported>;1985.14
mmul_cont_with_mult;1300;279618610;6549221668;2214995659;12308589;88607643;<not supported>;6358;1763912;2192883260;250491921;12526497;88340717;4;2525.72;0;6456270677;73764;6632345663;<not supported>;21856685920;10016;<not supported>;2525.72
mmul_cont_with_mult;1400;350287976;8231715756;2734224582;17562052;111163092;<not supported>;11059;2048198;2739615602;312647943;17847342;110613991;4;3152.82;0;8048267521;94566;8271664144;<not supported>;27304453399;11600;<not supported>;3152.81
mmul_cont_with_mult;1500;432274757;10103070639;3373033532;19643076;135184800;<not supported>;11681;2345760;3368992684;384824678;19783907;138982230;6;3879.73;0;9938430444;119861;10182502123;<not supported>;33664089582;13299;<not supported>;3879.72
mmul_nested_vec;100;<not counted>;<not counted>;<not counted>;<not counted>;<not counted>;<not supported>;<not counted>;26622;1184906;<not counted>;<not counted>;<not counted>;0;1.98;0;4527041;<not counted>;<not counted>;<not supported>;7935429;177;<not supported>;1.98
mmul_nested_vec;200;<not counted>;11091476;<not counted>;<not counted>;<not counted>;<not supported>;<not counted>;58302;4842120;<not counted>;<not counted>;<not counted>;0;6.46;0;14454486;<not counted>;<not counted>;<not supported>;31848721;355;<not supported>;6.46
mmul_nested_vec;300;3351282;26889978;14754009;294612;628898;<not supported>;3163;98711;9195043;<not counted>;135994;1364868;0;16.77;0;37866943;<not counted>;<not counted>;<not supported>;37586269;651;<not supported>;16.77
mmul_nested_vec;400;6193548;56240874;22941483;6822;1651667;<not supported>;58;157493;19364244;3656154;29732;1949460;0;37.46;0;81144428;14798;73672543;<not supported>;121134493;1063;<not supported>;37.46
mmul_nested_vec;500;13327186;109180149;54937740;70055;4099289;<not supported>;197;251259;48637504;7130949;51074;3727100;0;71.98;0;177863097;652;102599903;<not supported>;371225724;1593;<not supported>;71.98
mmul_nested_vec;600;26265007;220425672;96909271;1694109;10550568;<not supported>;424;379478;100454292;12977358;1714500;10808034;0;130.53;0;327038462;1150;214956416;<not supported>;796531848;2242;<not supported>;130.53
mmul_nested_vec;700;43926186;327988727;172337527;3456308;20640573;<not supported>;835;484445;147835642;22301543;3556142;20306945;0;224.64;0;549654945;28862;332117389;<not supported>;1116453409;3006;<not supported>;224.64
mmul_nested_vec;800;65883995;504129778;263945151;7192264;34638733;<not supported>;1339;647564;233866742;35200142;7293423;35060807;0;355.18;0;887900371;149372;506937143;<not supported>;1843272259;3887;<not supported>;355.18
mmul_nested_vec;900;94326741;730986762;375292718;11564566;50949567;<not supported>;2120;836554;348124234;50361330;11514911;50171788;0;508.0;0;1280485686;183575;745365227;<not supported>;2839201856;4886;<not supported>;508.0
mmul_nested_vec;1000;129250586;1008544711;502688654;16781675;70367014;<not supported>;3055;1025203;481028966;68972199;16992305;70280652;1;696.12;0;1763614462;338096;1016641352;<not supported>;3913842520;6003;<not supported>;696.12
mmul_nested_vec;1100;168892004;1315695579;663542562;23779774;97350144;<not supported>;5727;1249908;652938578;91440802;23823684;95871926;1;922.79;0;2331575548;499630;1359555026;<not supported>;5261667252;7236;<not supported>;922.79
mmul_nested_vec;1200;215247332;1712822438;863902903;31293377;128248281;<not supported>;4578;1496742;860538939;119897466;32771962;126918862;2;1209.64;0;3082586404;873703;1780986092;<not supported>;6932354902;8586;<not supported>;1209.64
mmul_nested_vec;1300;278267088;2201359876;1104439617;40849057;162366286;<not supported>;10402;1750984;1091122727;151857677;41678831;162800500;3;1530.77;0;3906457288;1003424;2235354525;<not supported>;8754382476;10055;<not supported>;1530.77
mmul_nested_vec;1400;349666233;2759409248;1372699030;51682147;202085987;<not supported>;11257;2054505;1387275026;190349745;51868743;204388087;3;1921.19;0;4892752353;1508794;2789171859;<not supported>;11020577267;11640;<not supported>;1921.19
mmul_nested_vec;1500;426364880;3382675948;1681791302;63657027;247190608;<not supported>;13445;2322493;1683524397;234830004;64862239;253380609;4;2366.47;0;6014122732;2000444;3427126663;<not supported>;13502332453;13342;<not supported>;2366.46
