cpu-clock;task-clock;context-switches;cpu-migrations;page-faults;cycles;stalled-cycles-frontend;instructions;branches;branch-misses;L1-dcache-loads;L1-dcache-load-misses;L1-dcache-stores;LLC-loads;LLC-load-misses;LLC-stores;LLC-prefetches;cache-references;cache-misses;bus-cycles;dTLB-loads;dTLB-load-misses;dTLB-prefetch-misses;executable;matrix_size
1103,75;1103,76;20;0;11412;2818403757;<not supported>;7881775688;864005183;1546113;2585570507;114801326;789507542;41592349;17108091;6778;<not supported>;44035367;17322467;109248119;2755497381;1406699;<not supported>;mmul_-DIKJ_OPT_-DNESTED_VECTOR;1200
1103,76;1103,76;20;0;11412;2805936374;<not supported>;8052769393;878959625;1449945;2630036342;118208085;892114387;44562866;17193517;5718;<not supported>;44919390;17298649;109352081;2703752565;1439336;<not supported>;mmul_-DIKJ_OPT_-DNESTED_VECTOR;1200
1054,15;1054,14;11;0;11413;2666902428;<not supported>;7777437836;855078399;1531758;2567387403;113495417;872261453;47388762;17845883;3191;<not supported>;47086195;18479032;104296074;2689724384;1364369;<not supported>;mmul_-DIKJ_OPT_-DNESTED_VECTOR;1200
1054,16;1054,14;11;0;11413;2652116432;<not supported>;7759059977;865604646;1441328;2623919514;117711748;891405151;49515813;18620282;25223;<not supported>;48775141;18801560;104468233;2691286703;1387506;<not supported>;mmul_-DIKJ_OPT_-DNESTED_VECTOR;1200
1068,65;1068,65;2;0;11411;2719741631;<not supported>;7765237701;853574013;1536227;2577809111;116420742;858913524;42213283;17180774;6130;<not supported>;44235219;17260536;105950716;2657887201;1357253;<not supported>;mmul_-DIKJ_OPT_-DNESTED_VECTOR;1200
1068,65;1068,65;2;0;11411;2721362223;<not supported>;7665776889;865200799;1422843;2577038421;117927686;898285048;44260487;17128019;5833;<not supported>;43962012;17303282;105932288;2618657474;1392143;<not supported>;mmul_-DIKJ_OPT_-DNESTED_VECTOR;1200
1068,35;1068,33;9;0;11413;2748716408;<not supported>;7834216821;853707259;1545132;2565319985;114983585;858414952;42168457;17269362;5726;<not supported>;44334273;17288510;105731183;2704655088;1398419;<not supported>;mmul_-DIKJ_OPT_-DNESTED_VECTOR;1200
1068,35;1068,33;9;0;11413;2730567277;<not supported>;7822099756;868862450;1439490;2584947220;118243389;896876430;44059097;17249851;5372;<not supported>;43372429;17060442;105889890;2638383957;1404172;<not supported>;mmul_-DIKJ_OPT_-DNESTED_VECTOR;1200
1065,52;1065,52;1;0;11411;2723760038;<not supported>;7842420757;856851617;1540311;2584079527;115231196;853640250;42269792;17154288;6036;<not supported>;43633154;17153738;105513008;2646348845;1368087;<not supported>;mmul_-DIKJ_OPT_-DNESTED_VECTOR;1200
1065,52;1065,52;1;0;11411;2703711398;<not supported>;7706124093;866287830;1432982;2606470545;119494698;901341631;44086352;17132475;5372;<not supported>;44392127;17383294;105674812;2633678947;1406110;<not supported>;mmul_-DIKJ_OPT_-DNESTED_VECTOR;1200
1065,28;1065,28;10;0;11414;2738956382;<not supported>;7882655598;863555459;1543168;2595162679;116047564;858060958;41747892;17180150;6746;<not supported>;43764258;17161205;105603581;2630533344;1363177;<not supported>;mmul_-DIKJ_OPT_-DNESTED_VECTOR;1200
1065,29;1065,28;10;0;11414;2699446087;<not supported>;7751468516;870786060;1448618;2595195790;115288068;882760590;43794146;17021266;5755;<not supported>;43753749;17234023;105611324;2636283471;1413028;<not supported>;mmul_-DIKJ_OPT_-DNESTED_VECTOR;1200
1062,72;1062,72;10;0;11411;2726936763;<not supported>;7779455085;852568114;1536811;2588889289;115967098;869021349;42556950;16962142;5594;<not supported>;43698760;17004141;105424685;2674384266;1381438;<not supported>;mmul_-DIKJ_OPT_-DNESTED_VECTOR;1200
1062,76;1062,72;10;0;11411;2696883103;<not supported>;7891580123;884120733;1454515;2624386980;117488868;888053672;42636385;16700657;10201;<not supported>;43731179;16932709;105205832;2597640712;1427437;<not supported>;mmul_-DIKJ_OPT_-DNESTED_VECTOR;1200
