cpu-clock;task-clock;context-switches;cpu-migrations;page-faults;cycles;stalled-cycles-frontend;instructions;branches;branch-misses;L1-dcache-loads;L1-dcache-load-misses;L1-dcache-stores;LLC-loads;LLC-load-misses;LLC-stores;LLC-prefetches;cache-references;cache-misses;bus-cycles;dTLB-loads;dTLB-load-misses;dTLB-prefetch-misses;executable;matrix_size
47,88;47,88;26;4;857;116647786;<not supported>;62330451;17788368;134645;31759708;3055106;18899643;1304804;<not counted>;<not counted>;<not supported>;<not counted>;<not counted>;<not counted>;<not counted>;<not counted>;<not supported>;mmul_-DIKJ_-DNESTED_VECTOR_openmp;300
47,86;47,88;26;4;857;<not counted>;<not supported>;<not counted>;<not counted>;<not counted>;<not counted>;<not counted>;<not counted>;<not counted>;<not counted>;<not counted>;<not supported>;<not counted>;<not counted>;<not counted>;<not counted>;<not counted>;<not supported>;mmul_-DIKJ_-DNESTED_VECTOR_openmp;300
43,10;43,10;18;3;853;98396877;<not supported>;65719404;17640107;113332;31782616;4978334;25936568;<not counted>;<not counted>;<not counted>;<not supported>;<not counted>;<not counted>;<not counted>;<not counted>;<not counted>;<not supported>;mmul_-DIKJ_-DNESTED_VECTOR_openmp;300
43,09;43,10;18;3;853;<not counted>;<not supported>;<not counted>;<not counted>;<not counted>;<not counted>;<not counted>;<not counted>;<not counted>;<not counted>;<not counted>;<not supported>;<not counted>;<not counted>;<not counted>;<not counted>;<not counted>;<not supported>;mmul_-DIKJ_-DNESTED_VECTOR_openmp;300
49,95;49,95;18;2;854;113602391;<not supported>;101988903;20946216;116522;32323972;6580671;6878328;<not counted>;<not counted>;<not counted>;<not supported>;<not counted>;<not counted>;<not counted>;<not counted>;<not counted>;<not supported>;mmul_-DIKJ_-DNESTED_VECTOR_openmp;300
49,94;49,95;18;2;854;<not counted>;<not supported>;<not counted>;<not counted>;<not counted>;<not counted>;<not counted>;<not counted>;<not counted>;<not counted>;<not counted>;<not supported>;<not counted>;<not counted>;<not counted>;<not counted>;<not counted>;<not supported>;mmul_-DIKJ_-DNESTED_VECTOR_openmp;300
32,79;32,79;5;0;856;57160828;<not supported>;105172235;16168962;116568;26715176;<not counted>;<not counted>;<not counted>;<not counted>;<not counted>;<not supported>;<not counted>;<not counted>;<not counted>;<not counted>;<not counted>;<not supported>;mmul_-DIKJ_-DNESTED_VECTOR_openmp;300
32,79;32,79;5;0;856;<not counted>;<not supported>;<not counted>;<not counted>;<not counted>;<not counted>;<not counted>;<not counted>;<not counted>;<not counted>;<not counted>;<not supported>;<not counted>;<not counted>;<not counted>;<not counted>;<not counted>;<not supported>;mmul_-DIKJ_-DNESTED_VECTOR_openmp;300
38,98;38,98;10;3;856;78899616;<not supported>;142862111;19040762;118056;7274289;<not counted>;<not counted>;<not counted>;<not counted>;<not counted>;<not supported>;<not counted>;<not counted>;<not counted>;<not counted>;<not counted>;<not supported>;mmul_-DIKJ_-DNESTED_VECTOR_openmp;300
38,98;38,98;10;3;856;<not counted>;<not supported>;<not counted>;<not counted>;<not counted>;<not counted>;<not counted>;<not counted>;<not counted>;<not counted>;<not counted>;<not supported>;<not counted>;<not counted>;<not counted>;<not counted>;<not counted>;<not supported>;mmul_-DIKJ_-DNESTED_VECTOR_openmp;300
37,46;37,46;15;0;857;84519096;<not supported>;135529908;18198981;118663;4574297;<not counted>;<not counted>;<not counted>;<not counted>;<not counted>;<not supported>;<not counted>;<not counted>;<not counted>;<not counted>;<not counted>;<not supported>;mmul_-DIKJ_-DNESTED_VECTOR_openmp;300
37,45;37,46;15;0;857;<not counted>;<not supported>;<not counted>;<not counted>;<not counted>;<not counted>;<not counted>;<not counted>;<not counted>;<not counted>;<not counted>;<not supported>;<not counted>;<not counted>;<not counted>;<not counted>;<not counted>;<not supported>;mmul_-DIKJ_-DNESTED_VECTOR_openmp;300
38,36;38,36;16;3;853;85355585;<not supported>;131827083;19038042;124708;19643175;1357207;<not counted>;<not counted>;<not counted>;<not counted>;<not supported>;<not counted>;<not counted>;<not counted>;<not counted>;<not counted>;<not supported>;mmul_-DIKJ_-DNESTED_VECTOR_openmp;300
38,36;38,36;16;3;853;<not counted>;<not supported>;<not counted>;<not counted>;<not counted>;<not counted>;<not counted>;<not counted>;<not counted>;<not counted>;<not counted>;<not supported>;<not counted>;<not counted>;<not counted>;<not counted>;<not counted>;<not supported>;mmul_-DIKJ_-DNESTED_VECTOR_openmp;300
