cpu-clock;task-clock;context-switches;cpu-migrations;page-faults;cycles;stalled-cycles-frontend;instructions;branches;branch-misses;L1-dcache-loads;L1-dcache-load-misses;L1-dcache-stores;LLC-loads;LLC-load-misses;LLC-stores;LLC-prefetches;cache-references;cache-misses;bus-cycles;dTLB-loads;dTLB-load-misses;dTLB-prefetch-misses;executable;matrix_size
1235,74;1235,74;30;0;6481;3115703368;<not supported>;3734906882;378497593;956304;1094331339;467199869;360221899;53423846;23252597;34501;<not supported>;54197433;23807057;122063904;1119673469;5010379;<not supported>;mmul_-DIJK_OPT_-DNESTED_VECTOR;900
1235,76;1235,74;30;0;6481;3074266527;<not supported>;3596247247;365802042;811624;1084536209;477528226;370667908;54670000;22880868;9440;<not supported>;54929561;22932341;122135554;1147105822;4898239;<not supported>;mmul_-DIJK_OPT_-DNESTED_VECTOR;900
1166,21;1166,20;3;0;6480;2765211985;<not supported>;3732509233;377951434;947065;1109942760;468382682;360748789;50999430;18771395;8809;<not supported>;51735406;18223374;115564753;1096292088;5689048;<not supported>;mmul_-DIJK_OPT_-DNESTED_VECTOR;900
1166,21;1166,20;3;0;6480;2778010205;<not supported>;3563861728;360146696;799059;1101481643;490899630;378446812;52665912;17998139;8230;<not supported>;53262518;17252882;115787410;1141703107;4740989;<not supported>;mmul_-DIJK_OPT_-DNESTED_VECTOR;900
1167,18;1167,18;1;0;6479;2955990738;<not supported>;3722027144;377225057;949398;1113935198;481516073;373422826;53919333;20134827;10869;<not supported>;54431701;20062816;115649860;1131164856;4658598;<not supported>;mmul_-DIJK_OPT_-DNESTED_VECTOR;900
1167,18;1167,18;1;0;6479;2931255492;<not supported>;3569632389;353333141;783734;1059166214;467319410;350581442;53381346;20236740;8916;<not supported>;53137325;20383956;115532412;1111906873;4550076;<not supported>;mmul_-DIJK_OPT_-DNESTED_VECTOR;900
1146,10;1146,10;8;0;6481;2734790101;<not supported>;3668939048;367821145;933841;1090150448;476055363;367485637;48784032;23372180;5721;<not supported>;49293907;23078980;113408000;1101385037;4902610;<not supported>;mmul_-DIJK_OPT_-DNESTED_VECTOR;900
1146,12;1146,10;8;0;6481;2731732576;<not supported>;3662271437;378305939;834681;1100433822;487099907;376876376;49323546;23182089;3932;<not supported>;50166489;22894497;113463727;1127466953;4504087;<not supported>;mmul_-DIJK_OPT_-DNESTED_VECTOR;900
1162,76;1162,76;20;1;6480;2926918022;<not supported>;3642526121;376303969;939306;1103770036;483042807;379611362;53743885;19617174;8607;<not supported>;54157256;19401600;115325172;1139211926;4983444;<not supported>;mmul_-DIJK_OPT_-DNESTED_VECTOR;900
1162,77;1162,76;20;1;6480;2938034657;<not supported>;3631471686;360024687;797412;1089021141;471613028;370846624;52768596;20380151;14398;<not supported>;53281558;19693496;115090735;1091080299;4573279;<not supported>;mmul_-DIJK_OPT_-DNESTED_VECTOR;900
1110,68;1110,68;7;0;6479;2790714393;<not supported>;3642540520;370229382;923789;1079835041;466753666;362671052;52305303;16691609;8931;<not supported>;51732487;17188384;109813532;1101500544;5371230;<not supported>;mmul_-DIJK_OPT_-DNESTED_VECTOR;900
1110,69;1110,68;7;0;6479;2792173022;<not supported>;3533962304;357917869;795220;1101344797;490923347;374943154;52944968;16317250;5801;<not supported>;53500950;16633741;109994440;1134736112;4667686;<not supported>;mmul_-DIJK_OPT_-DNESTED_VECTOR;900
1204,39;1204,39;12;0;6481;2863508022;<not supported>;3663924791;388254445;956336;1088575670;472273205;368945132;53919698;20988451;10358;<not supported>;53714944;21189753;119362462;1114525701;5165798;<not supported>;mmul_-DIJK_OPT_-DNESTED_VECTOR;900
1204,40;1204,39;12;0;6481;2848819459;<not supported>;3540156264;358563103;806426;1101528859;486251640;376923146;54576560;19458797;10868;<not supported>;54436599;19636308;119433889;1131796268;4585854;<not supported>;mmul_-DIJK_OPT_-DNESTED_VECTOR;900
