cpu-clock;task-clock;context-switches;cpu-migrations;page-faults;cycles;stalled-cycles-frontend;instructions;branches;branch-misses;L1-dcache-loads;L1-dcache-load-misses;L1-dcache-stores;LLC-loads;LLC-load-misses;LLC-stores;LLC-prefetches;cache-references;cache-misses;bus-cycles;dTLB-loads;dTLB-load-misses;dTLB-prefetch-misses;executable;matrix_size
3472,68;3472,64;386;2;15506;7918218013;<not supported>;12494376126;1389443213;2179687;4116233414;185145212;1439761039;39663881;9831700;161931;<not supported>;32462644;8592834;344356482;4101842046;2668270;<not supported>;mmul_-DIKJ_OPT_-DNESTED_VECTOR_openmp;1400
3472,68;3472,64;386;2;15506;7913237754;<not supported>;12482030803;1402195554;2020876;4050663104;169596659;1381893904;27665770;7432494;11147;<not supported>;28452002;8015195;344821182;4148829408;2788647;<not supported>;mmul_-DIKJ_OPT_-DNESTED_VECTOR_openmp;1400
3430,15;3430,13;275;0;15508;7831117129;<not supported>;12440586904;1385352738;2156054;4115887687;130961173;1405702327;24732728;6775696;163562;<not supported>;22599079;6362429;340467972;4086994105;2665907;<not supported>;mmul_-DIKJ_OPT_-DNESTED_VECTOR_openmp;1400
3430,19;3430,13;275;0;15508;7810093720;<not supported>;12409774701;1385137208;2090480;4160748710;157084249;1398366017;28165869;7288027;15979;<not supported>;28321743;7539463;340678141;4184463939;2938407;<not supported>;mmul_-DIKJ_OPT_-DNESTED_VECTOR_openmp;1400
3405,95;3405,92;307;1;15509;7789738529;<not supported>;12650694519;1418660959;2200360;4309059119;188064440;1444984436;30482621;6528081;133781;<not supported>;30054448;7638002;338002843;4098832863;2466401;<not supported>;mmul_-DIKJ_OPT_-DNESTED_VECTOR_openmp;1400
3406,01;3405,92;307;1;15509;7758205515;<not supported>;12184897013;1364970398;2185041;4099405034;169255285;1386323194;31223292;7126765;12946;<not supported>;30573758;6887317;338292952;4153952045;2600971;<not supported>;mmul_-DIKJ_OPT_-DNESTED_VECTOR_openmp;1400
3411,38;3411,36;256;0;15506;7782049495;<not supported>;12460815432;1386719253;2136847;4104505360;143052329;1429843739;28167282;6519428;147329;<not supported>;26564037;7089929;338148710;4074553682;2708438;<not supported>;mmul_-DIKJ_OPT_-DNESTED_VECTOR_openmp;1400
3411,41;3411,36;256;0;15506;7761600078;<not supported>;12461193105;1387699044;2053755;4078473148;170663002;1399572268;33185236;7660134;12129;<not supported>;30914049;7486203;338934388;4171262766;2714320;<not supported>;mmul_-DIKJ_OPT_-DNESTED_VECTOR_openmp;1400
3406,47;3406,44;266;0;15508;7756923226;<not supported>;12461125772;1374587035;2195651;4056400461;146545406;1421540998;26665450;8905276;201980;<not supported>;26790221;7506313;338298973;4141014116;2924742;<not supported>;mmul_-DIKJ_OPT_-DNESTED_VECTOR_openmp;1400
3406,56;3406,44;266;0;15508;7771310663;<not supported>;12483112803;1384110914;2024580;4117866036;128780460;1396945412;20457360;4459247;11472;<not supported>;18332292;4469475;338483967;4181494550;2980400;<not supported>;mmul_-DIKJ_OPT_-DNESTED_VECTOR_openmp;1400
3410,91;3410,89;241;0;15506;7781368636;<not supported>;12448719461;1395740194;2184164;4247482174;160594904;1399317327;26797195;6986041;167865;<not supported>;23815354;6006999;338789152;4114992099;2872452;<not supported>;mmul_-DIKJ_OPT_-DNESTED_VECTOR_openmp;1400
3410,99;3410,89;241;0;15506;7772253785;<not supported>;12448305360;1384233285;2131060;4098931211;176782198;1376571044;29915774;6516211;12443;<not supported>;30304361;7497963;338697675;4151956161;2654505;<not supported>;mmul_-DIKJ_OPT_-DNESTED_VECTOR_openmp;1400
3514,17;3514,15;302;2;15508;8014424766;<not supported>;12526957813;1392068044;2168658;4104083398;206545683;1407405814;43197859;13195150;204091;<not supported>;44929942;13190802;348853833;4188215005;2416229;<not supported>;mmul_-DIKJ_OPT_-DNESTED_VECTOR_openmp;1400
3514,07;3514,15;302;2;15508;8002019852;<not supported>;12791685538;1460728478;2120005;4073815898;208505157;1373699613;48982491;14251925;25212;<not supported>;46690614;13406640;348960514;4189052942;2461229;<not supported>;mmul_-DIKJ_OPT_-DNESTED_VECTOR_openmp;1400
