cpu-clock;task-clock;context-switches;cpu-migrations;page-faults;cycles;stalled-cycles-frontend;instructions;branches;branch-misses;L1-dcache-loads;L1-dcache-load-misses;L1-dcache-stores;LLC-loads;LLC-load-misses;LLC-stores;LLC-prefetches;cache-references;cache-misses;bus-cycles;dTLB-loads;dTLB-load-misses;dTLB-prefetch-misses;executable;matrix_size
2998,76;2998,75;5;1;9612;7203042072;<not supported>;6782872706;706459276;1409132;2013256512;912121682;689630018;119437256;92257454;24395;<not supported>;120696498;92854111;297029208;2028185420;49992772;<not supported>;mmul_-DIJK_OPT_-DNESTED_VECTOR;1100
2998,76;2998,75;5;1;9612;7195913631;<not supported>;6769748795;677292721;1235355;2003150016;931665114;669271106;119518572;91416418;28157;<not supported>;120748772;92091548;296647719;2028136410;50340699;<not supported>;mmul_-DIJK_OPT_-DNESTED_VECTOR;1100
2949,58;2949,58;9;2;9612;7005669014;<not supported>;6690913283;674190278;1373652;1999367183;924857786;685787905;115076329;88871950;26196;<not supported>;115268079;89581776;292376579;2018804944;47897326;<not supported>;mmul_-DIJK_OPT_-DNESTED_VECTOR;1100
2949,60;2949,58;9;2;9612;7008587639;<not supported>;6733805179;697731875;1261843;2003312049;934748767;674520657;115077276;88501303;27129;<not supported>;114871842;89057685;292365153;2009938955;48342170;<not supported>;mmul_-DIJK_OPT_-DNESTED_VECTOR;1100
2899,01;2899,01;8;1;9614;6884343400;<not supported>;6738443937;680783243;1381257;2015238238;915636015;678789922;112629494;87336608;30127;<not supported>;112755378;86850067;287006018;2016024681;49218388;<not supported>;mmul_-DIJK_OPT_-DNESTED_VECTOR;1100
2899,03;2899,01;8;1;9614;6893715712;<not supported>;6649418332;666910755;1221881;2004227459;935688744;674293623;111423911;86619567;28783;<not supported>;112796813;86878285;287076214;2021344888;47899995;<not supported>;mmul_-DIJK_OPT_-DNESTED_VECTOR;1100
2980,82;2980,82;4;0;9612;7067541717;<not supported>;6720563777;678155139;1363798;2010328775;919354943;686879685;117689152;90417496;24534;<not supported>;117493496;91404706;295321904;2025354345;48379141;<not supported>;mmul_-DIJK_OPT_-DNESTED_VECTOR;1100
2980,82;2980,82;4;0;9612;7077510873;<not supported>;6687674512;669465280;1216840;1992778180;922833487;661136306;117224611;90672845;29496;<not supported>;118034475;90920830;295057815;2035169966;48311278;<not supported>;mmul_-DIJK_OPT_-DNESTED_VECTOR;1100
2903,13;2903,13;5;0;9613;6895122661;<not supported>;6703431214;682783083;1371254;2015955284;921051499;690960392;111628515;85954320;28711;<not supported>;111427579;86518224;287725811;2015226411;48527780;<not supported>;mmul_-DIJK_OPT_-DNESTED_VECTOR;1100
2903,13;2903,13;5;0;9613;6881108079;<not supported>;6655234481;669014733;1207478;2006583788;928640539;681269455;111991255;85701414;26489;<not supported>;111866711;86726949;287659298;2025666392;49323480;<not supported>;mmul_-DIJK_OPT_-DNESTED_VECTOR;1100
2484,15;2484,14;21;0;9611;6288258328;<not supported>;6730070826;672840167;1363223;1995812026;924704431;683141568;93808736;79565211;10217;<not supported>;95034530;81036158;245588269;2031548236;48656844;<not supported>;mmul_-DIJK_OPT_-DNESTED_VECTOR;1100
2484,16;2484,14;21;0;9611;6270515837;<not supported>;6699746439;664899599;1215898;2000727860;946051481;673930294;94902245;79774621;9299;<not supported>;94933035;80490324;245662789;2010739823;48932457;<not supported>;mmul_-DIJK_OPT_-DNESTED_VECTOR;1100
2505,75;2505,75;21;1;9611;6139337193;<not supported>;6700647406;678350551;1369036;1999212000;906215674;680153209;95711861;79559774;11163;<not supported>;95067869;80091962;247553544;2034524450;49778061;<not supported>;mmul_-DIJK_OPT_-DNESTED_VECTOR;1100
2505,77;2505,75;21;1;9611;6133000487;<not supported>;6700743512;671027836;1223960;2005599272;938014736;676015430;95406875;79064310;10308;<not supported>;94231394;79014982;247419623;2031172097;49023256;<not supported>;mmul_-DIJK_OPT_-DNESTED_VECTOR;1100
