cpu-clock;task-clock;context-switches;cpu-migrations;page-faults;cycles;stalled-cycles-frontend;instructions;branches;branch-misses;L1-dcache-loads;L1-dcache-load-misses;L1-dcache-stores;LLC-loads;LLC-load-misses;LLC-stores;LLC-prefetches;cache-references;cache-misses;bus-cycles;dTLB-loads;dTLB-load-misses;dTLB-prefetch-misses;executable;matrix_size
6377,77;6377,76;538;2;3993;14515920087;<not supported>;3094870465;370475684;2874830;826165747;458824867;336354652;49699657;19714799;46295;<not supported>;51647824;21396470;633268638;824321861;300714689;<not supported>;mmul_-DIJK_-DNESTED_VECTOR_openmp;700
6377,64;6377,76;538;2;3993;14601470337;<not supported>;3202223929;382481919;1190443;1095476959;550385358;381927794;54681133;21486278;35240;<not supported>;57044699;24825242;632946489;949192070;300725655;<not supported>;mmul_-DIJK_-DNESTED_VECTOR_openmp;700
6775,84;6775,85;407;2;3996;15450921643;<not supported>;3164990934;366673154;2286199;857938393;464321294;338424928;45068206;15459259;47865;<not supported>;47096217;15403601;673164003;931427258;319203060;<not supported>;mmul_-DIJK_-DNESTED_VECTOR_openmp;700
6775,78;6775,85;407;2;3996;15446126003;<not supported>;3195945007;365724372;623504;910669601;503769817;363425321;54963311;25174067;50318;<not supported>;50127197;19065673;672781474;853911424;325655145;<not supported>;mmul_-DIJK_-DNESTED_VECTOR_openmp;700
6495,45;6495,44;437;0;3994;14836936954;<not supported>;3084505181;355802904;1501137;865658011;475714745;338326728;45777378;13752613;34760;<not supported>;53307134;18974474;645461912;997885125;303959191;<not supported>;mmul_-DIJK_-DNESTED_VECTOR_openmp;700
6495,44;6495,44;437;0;3994;14816405574;<not supported>;3394750223;390267773;1063109;920135644;446101930;339925951;50133706;15109022;36141;<not supported>;49196923;16560785;645377559;853125395;311236625;<not supported>;mmul_-DIJK_-DNESTED_VECTOR_openmp;700
6751,53;6751,52;403;0;3995;15389769008;<not supported>;3280455095;378699304;816883;932213849;504104760;350073128;44889545;17946921;48181;<not supported>;49018555;18823599;671071240;851814077;326437990;<not supported>;mmul_-DIJK_-DNESTED_VECTOR_openmp;700
6751,48;6751,52;403;0;3995;15396243423;<not supported>;3082740285;348502228;1482612;890796418;492511901;336389729;48702471;21849818;59232;<not supported>;51859164;22215863;670625552;926598706;318749280;<not supported>;mmul_-DIJK_-DNESTED_VECTOR_openmp;700
6677,10;6677,08;483;2;3995;15261694307;<not supported>;3135144392;371501450;1548140;943720511;501994289;365700808;39730944;13260961;37126;<not supported>;41939948;14480657;663789491;851074337;321828730;<not supported>;mmul_-DIJK_-DNESTED_VECTOR_openmp;700
6677,17;6677,08;483;2;3995;15241175317;<not supported>;3210627313;364507099;1952816;975224414;501402362;337574994;39880616;16214091;59058;<not supported>;45672616;17333750;663217423;868685065;322883641;<not supported>;mmul_-DIJK_-DNESTED_VECTOR_openmp;700
6856,02;6856,00;456;0;3997;15589005193;<not supported>;3282869716;371256833;774939;857277098;521923843;339412467;59594159;23334937;59734;<not supported>;58687914;23801007;680880591;855574275;330253598;<not supported>;mmul_-DIJK_-DNESTED_VECTOR_openmp;700
6855,96;6856,00;456;0;3997;15691949554;<not supported>;3102807993;355441978;2114133;896312759;518364850;346284383;55041666;20883924;58469;<not supported>;61498273;24126241;681052053;957000602;317647924;<not supported>;mmul_-DIJK_-DNESTED_VECTOR_openmp;700
6600,07;6600,05;431;2;3996;15098134215;<not supported>;3238001007;387338863;2278184;1034394525;539704426;364417281;55992730;17373893;36436;<not supported>;55552294;17872776;655852480;872091987;316599311;<not supported>;mmul_-DIJK_-DNESTED_VECTOR_openmp;700
6600,02;6600,05;431;2;3996;15043761236;<not supported>;3075751331;369796676;1171242;821113746;486357670;335741204;52177535;17942492;41181;<not supported>;50470692;18729296;655605841;845696243;321555725;<not supported>;mmul_-DIJK_-DNESTED_VECTOR_openmp;700
