cpu-clock;task-clock;context-switches;cpu-migrations;page-faults;cycles;stalled-cycles-frontend;instructions;branches;branch-misses;L1-dcache-loads;L1-dcache-load-misses;L1-dcache-stores;LLC-loads;LLC-load-misses;LLC-stores;LLC-prefetches;cache-references;cache-misses;bus-cycles;dTLB-loads;dTLB-load-misses;dTLB-prefetch-misses;executable;matrix_size
7626,24;7626,21;615;1;7991;17378032459;<not supported>;5288262489;548996228;2651850;1460545464;546160959;534696058;61206271;21753396;69840;<not supported>;56100077;23917592;757228503;1396268842;325788312;<not supported>;mmul_-DIJK_OPT_-DNESTED_VECTOR_openmp;1000
7626,14;7626,21;615;1;7991;17386282271;<not supported>;4880584379;499231600;1589752;1303437782;541821022;493499386;58785273;24343292;67688;<not supported>;63906323;28647050;757318337;1438417362;317656324;<not supported>;mmul_-DIJK_OPT_-DNESTED_VECTOR_openmp;1000
7650,87;7650,84;479;0;7993;17450249939;<not supported>;5061790091;530220314;2222961;1432286640;545939521;501731304;49520175;23018169;57988;<not supported>;47042174;20412102;759597739;1328420639;331495412;<not supported>;mmul_-DIJK_OPT_-DNESTED_VECTOR_openmp;1000
7650,89;7650,84;479;0;7993;17443562146;<not supported>;4982106691;508158212;1299397;1439927507;610680248;529002621;59694920;27975156;76294;<not supported>;58002763;25765231;760072005;1345382012;333972124;<not supported>;mmul_-DIJK_OPT_-DNESTED_VECTOR_openmp;1000
7785,98;7785,96;488;2;7989;17751942803;<not supported>;5022536196;508994995;1800163;1339877242;525840885;498795227;45610544;22874466;59361;<not supported>;43933670;21929044;773249688;1342595577;340833200;<not supported>;mmul_-DIJK_OPT_-DNESTED_VECTOR_openmp;1000
7785,99;7785,96;488;2;7989;17777427168;<not supported>;5190429309;534870441;2504371;1550968268;578755525;522556033;52173466;25379960;58065;<not supported>;48417986;23499236;773501777;1328863070;342194554;<not supported>;mmul_-DIJK_OPT_-DNESTED_VECTOR_openmp;1000
7645,80;7645,77;489;2;7993;17427657999;<not supported>;4945131899;518344272;4344099;1375629570;574348309;551015830;60591829;24545724;56940;<not supported>;58140821;24837716;759088030;1334767188;324356608;<not supported>;mmul_-DIJK_OPT_-DNESTED_VECTOR_openmp;1000
7645,73;7645,77;489;2;7993;17415707458;<not supported>;5218579814;528789315;1649363;1387411193;542386047;493503575;50443626;19032050;47736;<not supported>;50725626;19783738;759560397;1328619501;333618827;<not supported>;mmul_-DIJK_OPT_-DNESTED_VECTOR_openmp;1000
7844,75;7844,69;482;2;7992;17881416341;<not supported>;5130445367;532805733;1789551;1341885361;507681285;500048830;50679561;21295950;60796;<not supported>;50767703;21762769;779169267;1355664629;341149179;<not supported>;mmul_-DIJK_OPT_-DNESTED_VECTOR_openmp;1000
7844,74;7844,69;482;2;7992;17869023130;<not supported>;5059358733;506313967;1535118;1389292741;617221662;550579312;57305997;22422309;59050;<not supported>;46679223;20695835;779234560;1338802403;341126204;<not supported>;mmul_-DIJK_OPT_-DNESTED_VECTOR_openmp;1000
7688,81;7688,80;495;2;7992;17525363588;<not supported>;5100656060;553855449;1875899;1350817124;548158531;503085826;54266326;26813455;58560;<not supported>;52608822;25576153;763538733;1334722563;331008711;<not supported>;mmul_-DIJK_OPT_-DNESTED_VECTOR_openmp;1000
7688,85;7688,80;495;2;7992;17531350697;<not supported>;5030761221;511307718;1125580;1362906459;565063253;529287104;55461663;25894763;61566;<not supported>;53599769;23779505;763477300;1310225376;335910010;<not supported>;mmul_-DIJK_OPT_-DNESTED_VECTOR_openmp;1000
7763,35;7763,32;478;2;7991;17704732216;<not supported>;5164356861;538555738;2655874;1367872409;511192643;505189520;45250437;17737258;47031;<not supported>;46027987;16250438;771113852;1336906755;343046807;<not supported>;mmul_-DIJK_OPT_-DNESTED_VECTOR_openmp;1000
7763,34;7763,32;478;2;7991;17754848498;<not supported>;5348931182;561140835;1214716;1415524342;503927536;488683442;41548912;15721753;47148;<not supported>;40614505;17106521;770970065;1394394643;340798358;<not supported>;mmul_-DIJK_OPT_-DNESTED_VECTOR_openmp;1000
