cpu-clock;task-clock;context-switches;cpu-migrations;page-faults;cycles;stalled-cycles-frontend;instructions;branches;branch-misses;L1-dcache-loads;L1-dcache-load-misses;L1-dcache-stores;LLC-loads;LLC-load-misses;LLC-stores;LLC-prefetches;cache-references;cache-misses;bus-cycles;dTLB-loads;dTLB-load-misses;dTLB-prefetch-misses;executable;matrix_size
1248,58;1248,58;2;0;11411;3185138452;<not supported>;6946431749;866143296;1574532;1751107172;219094160;830301333;126162496;33421558;9065;<not supported>;129037601;31651101;123540776;1794598658;914110;<not supported>;mmul_-DIKJ_-DNESTED_VECTOR;1200
1248,58;1248,58;2;0;11411;3181438928;<not supported>;7174698482;896590017;1490880;1783723182;231163184;871803057;128839057;31677486;8314;<not supported>;127028435;31139296;123477800;1824869818;1023610;<not supported>;mmul_-DIKJ_-DNESTED_VECTOR;1200
1204,29;1204,28;7;0;11413;3089889987;<not supported>;6907075287;873621722;1579879;1714981884;213026097;859364267;129102385;32773309;8971;<not supported>;130919919;32903093;119575158;1794008628;772048;<not supported>;mmul_-DIKJ_-DNESTED_VECTOR;1200
1204,29;1204,28;7;0;11413;3066989893;<not supported>;7027629850;878248948;1457377;1741070200;227073856;898137931;132112646;32445251;9455;<not supported>;128811305;32062704;119412920;1781738206;718923;<not supported>;mmul_-DIKJ_-DNESTED_VECTOR;1200
1214,79;1214,79;2;0;11412;3110335181;<not supported>;7005094926;865998486;1546285;1719849916;210756313;864590153;124658693;32015401;8095;<not supported>;129484686;32350885;120431999;1778646351;1021658;<not supported>;mmul_-DIKJ_-DNESTED_VECTOR;1200
1214,79;1214,79;2;0;11412;3091252726;<not supported>;7007754355;883094869;1459018;1753037973;226398753;888737634;132312960;32707462;8384;<not supported>;130400103;32334525;120541660;1787845178;994998;<not supported>;mmul_-DIKJ_-DNESTED_VECTOR;1200
1213,71;1213,71;8;1;11413;3062321285;<not supported>;6886618106;864718014;1572146;1717304303;211442821;857498815;130968170;35779169;5359;<not supported>;137427199;35886916;120057310;1792819480;1028587;<not supported>;mmul_-DIKJ_-DNESTED_VECTOR;1200
1213,71;1213,71;8;1;11413;3097852064;<not supported>;7084075061;882306506;1472277;1766283396;227322793;903750238;136053231;35043210;4993;<not supported>;134408170;35141098;120317629;1758858801;857359;<not supported>;mmul_-DIKJ_-DNESTED_VECTOR;1200
1208,22;1208,21;2;0;11412;3087681182;<not supported>;6958509330;880260753;1580929;1717351764;214446179;861955963;131390455;35617909;4350;<not supported>;133397030;34593048;119558149;1779919248;899500;<not supported>;mmul_-DIKJ_-DNESTED_VECTOR;1200
1208,22;1208,21;2;0;11412;3077023546;<not supported>;6998116239;870012409;1448287;1744578473;228099619;895367300;137559992;36016088;4924;<not supported>;135788995;35356739;119881614;1798592712;903357;<not supported>;mmul_-DIKJ_-DNESTED_VECTOR;1200
1212,70;1212,70;7;1;11412;3084778340;<not supported>;6947394601;881497650;1595029;1734269468;214378505;875336016;137168183;36808615;5221;<not supported>;133962392;35119849;120121988;1769799563;1054659;<not supported>;mmul_-DIKJ_-DNESTED_VECTOR;1200
1212,72;1212,70;7;1;11412;3091397046;<not supported>;6939496639;863601043;1455233;1752403030;225795025;894570274;136515221;35785505;5184;<not supported>;132263310;34546424;120065575;1801461746;934529;<not supported>;mmul_-DIKJ_-DNESTED_VECTOR;1200
1212,62;1212,62;2;0;11413;3103000363;<not supported>;6987946333;878702771;1587283;1730735637;216403952;865770826;128863105;33102600;8201;<not supported>;130809942;32355678;120030132;1780322463;1006997;<not supported>;mmul_-DIKJ_-DNESTED_VECTOR;1200
1212,62;1212,62;2;0;11413;3091065903;<not supported>;6876537216;860957618;1456519;1737395402;224186328;883926665;129315945;32072854;8094;<not supported>;130549255;32598278;120160942;1818855160;752903;<not supported>;mmul_-DIKJ_-DNESTED_VECTOR;1200
