cpu-clock;task-clock;context-switches;cpu-migrations;page-faults;cycles;stalled-cycles-frontend;instructions;branches;branch-misses;L1-dcache-loads;L1-dcache-load-misses;L1-dcache-stores;LLC-loads;LLC-load-misses;LLC-stores;LLC-prefetches;cache-references;cache-misses;bus-cycles;dTLB-loads;dTLB-load-misses;dTLB-prefetch-misses;executable;matrix_size
1342,34;1342,34;2;0;13369;3419657363;<not supported>;9984440972;1096516221;1799374;3319969744;147071410;1039258598;56490193;22566027;3905;<not supported>;62119097;23112426;132801782;3458767109;1690232;<not supported>;mmul_-DIKJ_OPT_-DNESTED_VECTOR;1300
1342,34;1342,34;2;0;13369;3429024994;<not supported>;10100162033;1114399567;1705243;3339548236;150397759;1086166070;60233836;22956901;4484;<not supported>;60974944;22596649;132505793;3447686702;1666831;<not supported>;mmul_-DIKJ_OPT_-DNESTED_VECTOR;1300
1336,22;1336,22;4;0;13370;3412963113;<not supported>;10045412553;1100089450;1774156;3237553602;145049017;1088677300;51656670;19721116;45610;<not supported>;57029826;20817230;132418784;3386746231;1664040;<not supported>;mmul_-DIKJ_OPT_-DNESTED_VECTOR;1300
1336,22;1336,22;4;0;13370;3400576449;<not supported>;10139108284;1125563926;1708385;3360677189;150413732;1138022320;57249384;20736802;7079;<not supported>;56913165;20911101;132104217;3378087007;1679116;<not supported>;mmul_-DIKJ_OPT_-DNESTED_VECTOR;1300
1312,02;1312,02;13;0;13367;3342921693;<not supported>;9874434763;1085401907;1778704;3271635865;145790424;1085828992;55130270;21748234;4234;<not supported>;61641788;22989724;130031823;3427938493;1664147;<not supported>;mmul_-DIKJ_OPT_-DNESTED_VECTOR;1300
1312,03;1312,02;13;0;13367;3346972288;<not supported>;10058775202;1115301763;1705426;3340795113;150018333;1141193742;60639177;22046117;3504;<not supported>;60537534;22701538;129821817;3339333888;1709785;<not supported>;mmul_-DIKJ_OPT_-DNESTED_VECTOR;1300
1330,50;1330,49;2;0;13369;3411156197;<not supported>;10047797293;1118974071;1809413;3257206265;145934082;1095653019;51813360;19798417;7166;<not supported>;56804963;20770808;131712667;3346828225;1672886;<not supported>;mmul_-DIKJ_OPT_-DNESTED_VECTOR;1300
1330,50;1330,49;2;0;13369;3387463644;<not supported>;10007092135;1106139415;1693665;3313280602;150932681;1143180764;57154048;20751014;6698;<not supported>;57317528;20976149;131827973;3414764130;1675542;<not supported>;mmul_-DIKJ_OPT_-DNESTED_VECTOR;1300
1326,61;1326,61;3;0;13370;3396681833;<not supported>;9801817186;1107416184;1814163;3253412580;147986488;1091793826;52965909;20189744;6723;<not supported>;56959681;20811679;131443949;3363015110;1667942;<not supported>;mmul_-DIKJ_OPT_-DNESTED_VECTOR;1300
1326,61;1326,61;3;0;13370;3370017728;<not supported>;10018134283;1116313272;1693990;3323864907;149522472;1137859047;57141232;20750575;5743;<not supported>;57302878;20895858;131578989;3397437421;1679252;<not supported>;mmul_-DIKJ_OPT_-DNESTED_VECTOR;1300
1329,56;1329,56;3;0;13371;3412220509;<not supported>;10049047052;1122872824;1813742;3261391390;145453073;1089343525;52651998;20165415;7147;<not supported>;57389601;21014731;131704814;3387353345;1667760;<not supported>;mmul_-DIKJ_OPT_-DNESTED_VECTOR;1300
1329,56;1329,56;3;0;13371;3371031010;<not supported>;10022600235;1114300867;1693612;3319534647;148019203;1127069223;57414648;20684820;6163;<not supported>;56297277;20720526;131908603;3379863634;1677222;<not supported>;mmul_-DIKJ_OPT_-DNESTED_VECTOR;1300
1306,65;1306,64;7;0;13370;3353097718;<not supported>;9906654483;1090873035;1798833;3307075933;146873089;1091609261;56851737;21887632;4128;<not supported>;60758407;22363700;129613804;3394582699;1660100;<not supported>;mmul_-DIKJ_OPT_-DNESTED_VECTOR;1300
1306,66;1306,64;7;0;13370;3316650718;<not supported>;9935573202;1098599649;1704810;3336391856;149040696;1125839226;61032185;22111284;5419;<not supported>;60847851;22091542;129518236;3321584654;1684045;<not supported>;mmul_-DIKJ_OPT_-DNESTED_VECTOR;1300
