cpu-clock;task-clock;context-switches;cpu-migrations;page-faults;cycles;stalled-cycles-frontend;instructions;branches;branch-misses;L1-dcache-loads;L1-dcache-load-misses;L1-dcache-stores;LLC-loads;LLC-load-misses;LLC-stores;LLC-prefetches;cache-references;cache-misses;bus-cycles;dTLB-loads;dTLB-load-misses;dTLB-prefetch-misses;executable;matrix_size
5097,32;5097,30;40;1;13370;12750349513;<not supported>;11105022707;1116252824;1883440;3309088669;1746796829;1136820657;160040250;142074079;21525;<not supported>;163504803;142695027;503610867;3344242146;318478836;<not supported>;mmul_-DIJK_OPT_-DNESTED_VECTOR;1300
5097,35;5097,30;40;1;13370;12757290826;<not supported>;11192475497;1114135245;1787505;3308831902;1782169545;1100423208;161725757;140666658;25833;<not supported>;163910435;141431847;503532866;3321900344;324066596;<not supported>;mmul_-DIJK_OPT_-DNESTED_VECTOR;1300
5036,37;5036,38;8;1;13368;12547566680;<not supported>;11143167155;1118479114;1903284;3308506818;1748059432;1144794336;161643648;139686951;20161;<not supported>;165362735;140376421;497440950;3316600015;319047178;<not supported>;mmul_-DIJK_OPT_-DNESTED_VECTOR;1300
5036,38;5036,38;8;1;13368;12552864598;<not supported>;11035366098;1106010223;1718558;3325458960;1774197807;1114356005;165126728;140059121;19082;<not supported>;165467536;140897469;497435571;3344595864;317409626;<not supported>;mmul_-DIJK_OPT_-DNESTED_VECTOR;1300
5146,59;5146,57;31;1;13371;12795164653;<not supported>;11063390599;1113124217;1859487;3295799474;1737415329;1154361813;191645803;139688268;25676;<not supported>;197203306;142113149;508510371;3340625703;319085638;<not supported>;mmul_-DIJK_OPT_-DNESTED_VECTOR;1300
5146,66;5146,57;31;1;13371;12757212215;<not supported>;11011307839;1102554472;1722415;3315751356;1777574915;1121665555;194714845;139749318;29445;<not supported>;196754103;140466485;508271052;3323423851;321599903;<not supported>;mmul_-DIJK_OPT_-DNESTED_VECTOR;1300
5030,45;5030,43;8;0;13370;12586130283;<not supported>;11050588685;1112569846;1864601;3317311304;1748957749;1140420522;156152019;140368382;19386;<not supported>;158562560;141103057;496742037;3323901955;320396987;<not supported>;mmul_-DIJK_OPT_-DNESTED_VECTOR;1300
5030,45;5030,43;8;0;13370;12562045788;<not supported>;10992463564;1099053068;1713329;3311348139;1768274903;1105519844;158745542;141420953;19735;<not supported>;159211848;141291925;496815764;3351517643;324786779;<not supported>;mmul_-DIJK_OPT_-DNESTED_VECTOR;1300
5516,91;5516,90;27;2;13370;13331363079;<not supported>;11158434509;1115283895;1894518;3306460464;1749583915;1140601799;194422482;175287137;43366;<not supported>;198963961;176358676;546442460;3319467647;320685728;<not supported>;mmul_-DIJK_OPT_-DNESTED_VECTOR;1300
5516,94;5516,90;27;2;13370;13304564798;<not supported>;11037736889;1103961897;1733952;3324612257;1774408828;1108681827;199682663;176650626;47006;<not supported>;198890226;176265205;546403574;3320251465;318051484;<not supported>;mmul_-DIJK_OPT_-DNESTED_VECTOR;1300
5097,67;5097,65;32;0;13371;12704952275;<not supported>;11044200728;1113353645;1869807;3315950311;1742132905;1141112973;157760336;142271875;28311;<not supported>;158567554;141525303;503615861;3344823938;314081957;<not supported>;mmul_-DIJK_OPT_-DNESTED_VECTOR;1300
5097,70;5097,65;32;0;13371;12673229168;<not supported>;11097973200;1117387698;1776574;3314336250;1771803552;1112909542;159568011;142190876;31758;<not supported>;159558244;141489284;503713568;3338649685;323908792;<not supported>;mmul_-DIJK_OPT_-DNESTED_VECTOR;1300
5100,44;5100,44;7;0;13369;12697842638;<not supported>;11101738362;1115900291;1853332;3314684965;1743867214;1146136210;166859050;139640927;19795;<not supported>;168063016;140933715;503665267;3337262964;320179440;<not supported>;mmul_-DIJK_OPT_-DNESTED_VECTOR;1300
5100,46;5100,44;7;0;13369;12716003412;<not supported>;11108949368;1144565355;1781643;3321356560;1772185398;1114761923;168503173;140958231;21300;<not supported>;169097766;141167487;503370210;3334420030;321840797;<not supported>;mmul_-DIJK_OPT_-DNESTED_VECTOR;1300
