cpu-clock;task-clock;context-switches;cpu-migrations;page-faults;cycles;stalled-cycles-frontend;instructions;branches;branch-misses;L1-dcache-loads;L1-dcache-load-misses;L1-dcache-stores;LLC-loads;LLC-load-misses;LLC-stores;LLC-prefetches;cache-references;cache-misses;bus-cycles;dTLB-loads;dTLB-load-misses;dTLB-prefetch-misses;executable;matrix_size
22811,76;22811,71;1435;0;7994;49007653804;<not supported>;9044372168;1034556307;3041363;2553229039;1512866622;1012970317;363111136;147524453;218586;<not supported>;371498379;148086922;2260046159;2614256268;1001770824;<not supported>;mmul_-DIJK_-DNESTED_VECTOR_openmp;1000
22811,70;22811,71;1435;0;7994;48994318690;<not supported>;9327307873;1069265423;3376585;2570632653;1530078455;1005882506;360658783;145163420;208414;<not supported>;368592655;144941088;2259986287;2513619026;994135796;<not supported>;mmul_-DIJK_-DNESTED_VECTOR_openmp;1000
21473,03;21472,98;1294;0;7990;47662492634;<not supported>;9038286996;1036811142;1476278;2529494601;1533674871;1016617684;272625073;116781560;199545;<not supported>;270311100;117430358;2128794205;2605293867;996137642;<not supported>;mmul_-DIJK_-DNESTED_VECTOR_openmp;1000
21472,90;21472,98;1294;0;7990;47609445024;<not supported>;9085441998;1019042311;6045636;2537201573;1581061063;1017881433;278549072;120835958;203679;<not supported>;279284865;120321715;2127522793;2560281176;995801518;<not supported>;mmul_-DIJK_-DNESTED_VECTOR_openmp;1000
21506,44;21506,39;1371;0;7994;47321638378;<not supported>;9089138415;1050461368;2318879;2559140298;1577636312;1019778984;284374160;143942662;202388;<not supported>;282034995;141865692;2130769815;2583461304;989230993;<not supported>;mmul_-DIJK_-DNESTED_VECTOR_openmp;1000
21506,43;21506,39;1371;0;7994;47324716457;<not supported>;9122946172;1032107101;4043322;2618103032;1622900937;1029106979;280271338;139819394;218990;<not supported>;280359192;139498954;2130240404;2542240626;985220186;<not supported>;mmul_-DIJK_-DNESTED_VECTOR_openmp;1000
21555,67;21555,65;1254;5;7994;47952184924;<not supported>;9119740916;1043240880;2352928;2568494853;1588410199;1025873041;269181092;130650777;207213;<not supported>;270710143;128033386;2136532960;2541713639;996267301;<not supported>;mmul_-DIJK_-DNESTED_VECTOR_openmp;1000
21555,65;21555,65;1254;5;7994;47867123439;<not supported>;9081663091;1022332642;3174713;2526655335;1575189971;1015201783;271840321;138972056;213200;<not supported>;275807214;129769150;2136176405;2530645848;999054506;<not supported>;mmul_-DIJK_-DNESTED_VECTOR_openmp;1000
21071,06;21070,97;1794;2;7992;47063274784;<not supported>;9167509027;1042558418;9275214;2620065628;1557235310;1003311611;275198643;124817234;211301;<not supported>;284298994;125075246;2088823499;2507701020;982826145;<not supported>;mmul_-DIJK_-DNESTED_VECTOR_openmp;1000
21071,06;21070,97;1794;2;7992;47243588384;<not supported>;8966375332;1012473609;5225277;2529938166;1575213504;1034805027;276174548;116317901;209874;<not supported>;281052224;122849142;2088993099;2526949941;982196850;<not supported>;mmul_-DIJK_-DNESTED_VECTOR_openmp;1000
21323,25;21323,15;1286;2;7992;48221805768;<not supported>;9135036335;1050333565;1490779;2611937369;1629305064;1025013108;323006474;103369719;156726;<not supported>;320089745;101938863;2114224260;2504456727;996908552;<not supported>;mmul_-DIJK_-DNESTED_VECTOR_openmp;1000
21323,47;21323,15;1286;2;7992;48171040858;<not supported>;9059078272;1025052422;1973296;2512558841;1610820613;1022950856;329858699;102293580;171412;<not supported>;329406630;103114809;2114750424;2512362571;995842411;<not supported>;mmul_-DIJK_-DNESTED_VECTOR_openmp;1000
21374,57;21374,51;1279;2;7993;47927779704;<not supported>;9097441253;1040631894;3764335;2573246034;1534976325;1021242743;256085433;99639579;172417;<not supported>;259898194;103444915;2119519888;2526165317;995684518;<not supported>;mmul_-DIJK_-DNESTED_VECTOR_openmp;1000
21374,67;21374,51;1279;2;7993;47788280341;<not supported>;8999014559;1022135031;6024786;2580414532;1556838843;1037676192;276616164;111563746;181614;<not supported>;265698551;112520921;2119854568;2552399941;999950027;<not supported>;mmul_-DIJK_-DNESTED_VECTOR_openmp;1000
