cpu-clock;task-clock;context-switches;cpu-migrations;page-faults;cycles;stalled-cycles-frontend;instructions;branches;branch-misses;L1-dcache-loads;L1-dcache-load-misses;L1-dcache-stores;LLC-loads;LLC-load-misses;LLC-stores;LLC-prefetches;cache-references;cache-misses;bus-cycles;dTLB-loads;dTLB-load-misses;dTLB-prefetch-misses;executable;matrix_size
247,80;247,80;31;0;2978;557699461;<not supported>;516118408;100348169;512042;223099105;22559224;113601001;5585381;439851;3621;<not supported>;5637860;456004;24607775;231877146;198126;<not supported>;mmul_-DIKJ_-DNESTED_VECTOR_openmp;600
247,79;247,80;31;0;2978;564713901;<not supported>;951140648;117717097;369342;<not counted>;<not counted>;<not counted>;<not counted>;<not counted>;<not counted>;<not supported>;<not counted>;<not counted>;<not counted>;<not counted>;<not counted>;<not supported>;mmul_-DIKJ_-DNESTED_VECTOR_openmp;600
279,18;279,17;83;1;2975;634736791;<not supported>;584526809;108530193;580922;259820196;25903680;125950758;7973024;718844;5691;<not supported>;8982984;933825;27599354;226268547;88337;<not supported>;mmul_-DIKJ_-DNESTED_VECTOR_openmp;600
279,17;279,17;83;1;2975;635006289;<not supported>;927708950;117302547;387605;192516560;15102923;15343505;<not counted>;<not counted>;<not counted>;<not supported>;<not counted>;<not counted>;<not counted>;<not counted>;<not counted>;<not supported>;mmul_-DIKJ_-DNESTED_VECTOR_openmp;600
263,82;263,82;43;1;2975;590423885;<not supported>;483416133;86745045;501408;187334992;24708004;107955190;7239508;481141;2834;<not supported>;5202593;388644;26207086;247078284;221609;<not supported>;mmul_-DIKJ_-DNESTED_VECTOR_openmp;600
263,81;263,82;43;1;2975;602074536;<not supported>;1016790403;127364359;391897;139931973;6123084;130456821;<not counted>;<not counted>;<not counted>;<not supported>;<not counted>;<not counted>;<not counted>;<not counted>;<not counted>;<not supported>;mmul_-DIKJ_-DNESTED_VECTOR_openmp;600
244,46;244,46;26;1;2977;556205182;<not supported>;577010351;104009257;481604;223987996;22645277;114395378;3590381;332707;1945;<not supported>;3825282;327895;24278241;236156317;236851;<not supported>;mmul_-DIKJ_-DNESTED_VECTOR_openmp;600
244,46;244,46;26;1;2977;557373365;<not supported>;845936598;114983038;351229;<not counted>;<not counted>;<not counted>;<not counted>;<not counted>;<not counted>;<not supported>;<not counted>;<not counted>;<not counted>;<not counted>;<not counted>;<not supported>;mmul_-DIKJ_-DNESTED_VECTOR_openmp;600
252,04;252,04;45;0;2975;551600976;<not supported>;473885834;107140044;503747;241046219;23623782;110922036;7320783;458391;2678;<not supported>;4541978;406104;24988981;238091490;144274;<not supported>;mmul_-DIKJ_-DNESTED_VECTOR_openmp;600
252,05;252,04;45;0;2975;575323892;<not supported>;913471278;119092506;361854;140592386;<not counted>;<not counted>;<not counted>;<not counted>;<not counted>;<not supported>;<not counted>;<not counted>;<not counted>;<not counted>;<not counted>;<not supported>;mmul_-DIKJ_-DNESTED_VECTOR_openmp;600
244,22;244,22;15;0;2974;557648650;<not supported>;472011736;100223984;478744;223843757;21489185;113232453;2474645;314441;1736;<not supported>;3765835;370088;24239837;232798195;223807;<not supported>;mmul_-DIKJ_-DNESTED_VECTOR_openmp;600
244,22;244,22;15;0;2974;556652034;<not supported>;858122870;115117274;357472;<not counted>;<not counted>;<not counted>;<not counted>;<not counted>;<not counted>;<not supported>;<not counted>;<not counted>;<not counted>;<not counted>;<not counted>;<not supported>;mmul_-DIKJ_-DNESTED_VECTOR_openmp;600
248,15;248,15;43;0;2977;563289902;<not supported>;549660574;101773293;510010;202656549;21053490;108027475;4917775;401042;2265;<not supported>;5197631;633358;24649532;269080977;122132;<not supported>;mmul_-DIKJ_-DNESTED_VECTOR_openmp;600
248,15;248,15;43;0;2977;571398154;<not supported>;1025902434;126235658;350155;41230188;<not counted>;<not counted>;<not counted>;<not counted>;<not counted>;<not supported>;<not counted>;<not counted>;<not counted>;<not counted>;<not counted>;<not supported>;mmul_-DIKJ_-DNESTED_VECTOR_openmp;600
