cpu-clock;task-clock;context-switches;cpu-migrations;page-faults;cycles;stalled-cycles-frontend;instructions;branches;branch-misses;L1-dcache-loads;L1-dcache-load-misses;L1-dcache-stores;LLC-loads;LLC-load-misses;LLC-stores;LLC-prefetches;cache-references;cache-misses;bus-cycles;dTLB-loads;dTLB-load-misses;dTLB-prefetch-misses;executable;matrix_size
2634,45;2634,44;39;0;6481;6683681686;<not supported>;6628338260;737462397;1021669;2195906754;1180606297;721703895;95831252;93946418;17212;<not supported>;95915056;93968824;260690790;2226493578;120668301;<not supported>;mmul_-DIJK_-DNESTED_VECTOR;900
2634,47;2634,44;39;0;6481;6649336925;<not supported>;6656464240;735013460;848554;2201792924;1190125350;724895108;94688369;93432473;15676;<not supported>;95617881;93079664;260413352;2206518413;119257359;<not supported>;mmul_-DIJK_-DNESTED_VECTOR;900
2608,17;2608,17;7;0;6477;6693573018;<not supported>;6604133198;738065940;990663;2191941386;1191102508;736525638;95473158;93627172;10893;<not supported>;97003166;94065084;258380094;2201531672;119458233;<not supported>;mmul_-DIJK_-DNESTED_VECTOR;900
2608,18;2608,17;7;0;6477;6671080718;<not supported>;6576062366;726016338;833159;2197408439;1193916281;729308211;95942059;92916338;10185;<not supported>;97186707;94228777;258536119;2213630629;120632751;<not supported>;mmul_-DIJK_-DNESTED_VECTOR;900
2653,64;2653,64;3;0;6479;6631890767;<not supported>;6575812478;739120770;1026753;2197848971;1179323980;739723240;95663454;93494575;11051;<not supported>;95341585;93649587;262961521;2205954199;119285290;<not supported>;mmul_-DIJK_-DNESTED_VECTOR;900
2653,64;2653,64;3;0;6479;6562022563;<not supported>;6438556339;718870220;822560;2165914598;1184225152;731408376;95044584;93794423;14401;<not supported>;96108106;94321389;262776467;2220351812;119831612;<not supported>;mmul_-DIJK_-DNESTED_VECTOR;900
2613,22;2613,22;4;0;6480;6636404738;<not supported>;6596600703;737661408;996597;2194984926;1183739337;732149649;95850148;94228941;11568;<not supported>;96276723;93666109;258814301;2214160705;120410358;<not supported>;mmul_-DIJK_-DNESTED_VECTOR;900
2613,23;2613,22;4;0;6480;6635577336;<not supported>;6490406860;721667177;826841;2191395189;1185298484;729928597;95319945;92598553;23820;<not supported>;95684537;92538837;258614409;2200821636;119953439;<not supported>;mmul_-DIJK_-DNESTED_VECTOR;900
2589,80;2589,80;12;0;6479;6614746167;<not supported>;6608315536;737979429;991189;2188639388;1173077906;729504353;94065148;93078108;10892;<not supported>;94840663;93356355;256545973;2215862444;119533516;<not supported>;mmul_-DIJK_-DNESTED_VECTOR;900
2589,81;2589,80;12;0;6479;6590829186;<not supported>;6557064305;743876479;870755;2196503355;1175990009;731404125;94314066;93316393;9789;<not supported>;94462328;92956594;256684218;2203536592;119995536;<not supported>;mmul_-DIJK_-DNESTED_VECTOR;900
2647,29;2647,29;4;0;6478;6686038780;<not supported>;6553655780;747345269;1024073;2177515641;1190046624;724300019;94794192;93487395;11105;<not supported>;96721942;94260294;261828367;2213659082;119755488;<not supported>;mmul_-DIJK_-DNESTED_VECTOR;900
2647,29;2647,29;4;0;6478;6620011914;<not supported>;6597808701;734950196;835806;2204048163;1193940832;736821128;95918086;93824817;11748;<not supported>;96786467;94014099;261969085;2210948647;120252871;<not supported>;mmul_-DIJK_-DNESTED_VECTOR;900
2592,44;2592,43;28;0;6481;6621826518;<not supported>;6659507933;740296051;995420;2190619275;1188410848;739612693;96035090;92947208;11372;<not supported>;97154242;93441759;256980175;2178950508;118460095;<not supported>;mmul_-DIJK_-DNESTED_VECTOR;900
2592,43;2592,43;28;0;6481;6587691510;<not supported>;6392934502;729951631;869850;2175829431;1196648038;740111085;96523578;93289714;10894;<not supported>;96886923;94221177;257124622;2230076498;120466759;<not supported>;mmul_-DIJK_-DNESTED_VECTOR;900
