cpu-clock;task-clock;context-switches;cpu-migrations;page-faults;cycles;stalled-cycles-frontend;instructions;branches;branch-misses;L1-dcache-loads;L1-dcache-load-misses;L1-dcache-stores;LLC-loads;LLC-load-misses;LLC-stores;LLC-prefetches;cache-references;cache-misses;bus-cycles;dTLB-loads;dTLB-load-misses;dTLB-prefetch-misses;executable;matrix_size
58,21;58,21;4;0;1382;114872799;<not supported>;243307292;37489604;233392;65169820;7058096;25289589;2149779;227294;1037;<not supported>;2310788;177862;5746243;63823086;14530;<not supported>;mmul_-DIKJ_-DNESTED_VECTOR;400
58,21;58,21;4;0;1382;132904852;<not supported>;330467993;47954828;224896;<not counted>;<not counted>;<not counted>;<not counted>;<not counted>;<not counted>;<not supported>;<not counted>;<not counted>;<not counted>;<not counted>;<not counted>;<not supported>;mmul_-DIKJ_-DNESTED_VECTOR;400
43,55;43,55;6;0;1383;98893206;<not supported>;136163789;25701123;186452;63139364;6651643;38746228;2292481;38302;164;<not supported>;2261680;79172;4323023;<not counted>;<not counted>;<not supported>;mmul_-DIKJ_-DNESTED_VECTOR;400
43,56;43,55;6;0;1383;<not counted>;<not supported>;<not counted>;<not counted>;<not counted>;<not counted>;<not counted>;<not counted>;<not counted>;<not counted>;<not counted>;<not supported>;<not counted>;<not counted>;<not counted>;<not counted>;<not counted>;<not supported>;mmul_-DIKJ_-DNESTED_VECTOR;400
38,53;38,53;1;0;1382;87895368;<not supported>;173990566;27382677;180396;74649563;9338544;37230605;2011479;19525;2907;<not supported>;1988066;113885;3796105;<not counted>;<not counted>;<not supported>;mmul_-DIKJ_-DNESTED_VECTOR;400
38,53;38,53;1;0;1382;<not counted>;<not supported>;<not counted>;<not counted>;<not counted>;<not counted>;<not counted>;<not counted>;<not counted>;<not counted>;<not counted>;<not supported>;<not counted>;<not counted>;<not counted>;<not counted>;<not counted>;<not supported>;mmul_-DIKJ_-DNESTED_VECTOR;400
46,37;46,37;4;0;1383;96475054;<not supported>;111812343;28821937;218465;91923429;11506449;42091142;2093522;145721;402;<not supported>;2113478;132535;4588942;61405509;<not counted>;<not supported>;mmul_-DIKJ_-DNESTED_VECTOR;400
46,37;46,37;4;0;1383;<not counted>;<not supported>;<not counted>;<not counted>;<not counted>;<not counted>;<not counted>;<not counted>;<not counted>;<not counted>;<not counted>;<not supported>;<not counted>;<not counted>;<not counted>;<not counted>;<not counted>;<not supported>;mmul_-DIKJ_-DNESTED_VECTOR;400
41,30;41,30;2;0;1381;93777786;<not supported>;150827676;28608180;198156;77390106;8109834;32866463;2039418;66517;461;<not supported>;2143263;102990;4084554;<not counted>;<not counted>;<not supported>;mmul_-DIKJ_-DNESTED_VECTOR;400
41,30;41,30;2;0;1381;<not counted>;<not supported>;<not counted>;<not counted>;<not counted>;<not counted>;<not counted>;<not counted>;<not counted>;<not counted>;<not counted>;<not supported>;<not counted>;<not counted>;<not counted>;<not counted>;<not counted>;<not supported>;mmul_-DIKJ_-DNESTED_VECTOR;400
38,70;38,70;1;0;1381;88310257;<not supported>;161713230;27183203;181847;74819975;9370349;36630672;1994484;9720;542;<not supported>;2067708;94517;3810475;<not counted>;<not counted>;<not supported>;mmul_-DIKJ_-DNESTED_VECTOR;400
38,70;38,70;1;0;1381;<not counted>;<not supported>;<not counted>;<not counted>;<not counted>;<not counted>;<not counted>;<not counted>;<not counted>;<not counted>;<not counted>;<not supported>;<not counted>;<not counted>;<not counted>;<not counted>;<not counted>;<not supported>;mmul_-DIKJ_-DNESTED_VECTOR;400
46,83;46,83;0;0;1381;98712066;<not supported>;235529014;36907872;228250;71296034;6402089;23281883;1339547;41039;193;<not supported>;2436892;69596;4572138;<not counted>;<not counted>;<not supported>;mmul_-DIKJ_-DNESTED_VECTOR;400
46,83;46,83;0;0;1381;<not counted>;<not supported>;<not counted>;<not counted>;<not counted>;<not counted>;<not counted>;<not counted>;<not counted>;<not counted>;<not counted>;<not supported>;<not counted>;<not counted>;<not counted>;<not counted>;<not counted>;<not supported>;mmul_-DIKJ_-DNESTED_VECTOR;400
