cpu-clock;task-clock;context-switches;cpu-migrations;page-faults;cycles;stalled-cycles-frontend;instructions;branches;branch-misses;L1-dcache-loads;L1-dcache-load-misses;L1-dcache-stores;LLC-loads;LLC-load-misses;LLC-stores;LLC-prefetches;cache-references;cache-misses;bus-cycles;dTLB-loads;dTLB-load-misses;dTLB-prefetch-misses;executable;matrix_size
29305,09;29305,03;1996;2;9635;64479741626;<not supported>;12177464336;1377296056;2012993;3486535330;1998930114;1388430513;422647210;165745674;288172;<not supported>;416348340;168420039;2904666156;3403149078;1333810783;<not supported>;mmul_-DIJK_-DNESTED_VECTOR_openmp;1100
29305,01;29305,03;1996;2;9635;64425931414;<not supported>;12040272757;1375108235;7070651;3437290558;1990860891;1353984980;421796097;169407422;285398;<not supported>;428249070;173722242;2905320952;3436578553;1347310413;<not supported>;mmul_-DIJK_-DNESTED_VECTOR_openmp;1100
29195,24;29195,20;2876;6;9634;64006336881;<not supported>;12059302281;1378206490;5691505;3448392352;2050457538;1389959204;457057647;194842595;314462;<not supported>;452697109;196251255;2892111236;3436299112;1330930702;<not supported>;mmul_-DIJK_-DNESTED_VECTOR_openmp;1100
29194,85;29195,20;2876;6;9634;64148414463;<not supported>;12116992557;1362555989;7100545;3450799123;2069458894;1355393407;454877770;200912492;322469;<not supported>;464581592;198728375;2892658397;3385025004;1328214556;<not supported>;mmul_-DIJK_-DNESTED_VECTOR_openmp;1100
29656,41;29656,67;5122;3;9637;64336498985;<not supported>;12171892243;1390490168;9475174;3422772129;2185010758;1374901610;498391164;249238812;466891;<not supported>;504850083;250684831;2936978991;3417099875;1334500170;<not supported>;mmul_-DIJK_-DNESTED_VECTOR_openmp;1100
29655,31;29656,67;5122;3;9637;64524576742;<not supported>;12175349852;1400137253;8515453;3413300123;2169765902;1366910661;503870412;256674106;459787;<not supported>;511870182;253716858;2936591172;3430133737;1329142399;<not supported>;mmul_-DIJK_-DNESTED_VECTOR_openmp;1100
28953,55;28953,72;6920;9;9638;63495150366;<not supported>;12156350315;1388787687;10914119;3500907587;2108864828;1389685211;479538819;187775856;444829;<not supported>;485239554;182803131;2868265554;3398464457;1319855478;<not supported>;mmul_-DIJK_-DNESTED_VECTOR_openmp;1100
28951,96;28953,72;6920;9;9638;63648114683;<not supported>;12047538016;1366063531;7437044;3481634989;2086095427;1353037616;483888000;181838622;458089;<not supported>;485492914;180870714;2867271832;3473520233;1327737925;<not supported>;mmul_-DIJK_-DNESTED_VECTOR_openmp;1100
29418,41;29418,26;1866;5;9635;64281448423;<not supported>;12087677131;1400280181;6459267;3477841897;2141014401;1380980084;463298858;188527814;281984;<not supported>;451324120;183207627;2912888961;3391857850;1333992039;<not supported>;mmul_-DIJK_-DNESTED_VECTOR_openmp;1100
29418,49;29418,26;1866;5;9635;64373487901;<not supported>;12057534694;1362288475;4636211;3424267662;2091005864;1358367429;468754622;192680810;269064;<not supported>;464734507;189655635;2913320567;3361544611;1328123940;<not supported>;mmul_-DIJK_-DNESTED_VECTOR_openmp;1100
28579,57;28579,44;1833;0;9634;64578059479;<not supported>;12099557061;1377431794;5836048;3429078710;2038403320;1365922882;402638664;122940181;205573;<not supported>;403158111;120174889;2833540058;3396343811;1341627560;<not supported>;mmul_-DIJK_-DNESTED_VECTOR_openmp;1100
28579,73;28579,44;1833;0;9634;64519267850;<not supported>;12137684597;1380301093;4652642;3403443643;2068172418;1353481796;404941359;120992831;201548;<not supported>;411732242;124171236;2834088896;3417268806;1337405578;<not supported>;mmul_-DIJK_-DNESTED_VECTOR_openmp;1100
29538,23;29538,08;2012;5;9634;64574265456;<not supported>;12047768618;1362264192;4972240;3356945003;2141243982;1370092440;463990743;149994025;256778;<not supported>;460463904;153495796;2923701049;3375042247;1331732194;<not supported>;mmul_-DIJK_-DNESTED_VECTOR_openmp;1100
29538,21;29538,08;2012;5;9634;64606223936;<not supported>;12263754888;1386610639;6023200;3415813739;2168358469;1387137189;469211705;161094189;251053;<not supported>;462914845;160413970;2924618264;3373285154;1319928697;<not supported>;mmul_-DIJK_-DNESTED_VECTOR_openmp;1100
