cpu-clock;task-clock;context-switches;cpu-migrations;page-faults;cycles;stalled-cycles-frontend;instructions;branches;branch-misses;L1-dcache-loads;L1-dcache-load-misses;L1-dcache-stores;LLC-loads;LLC-load-misses;LLC-stores;LLC-prefetches;cache-references;cache-misses;bus-cycles;dTLB-loads;dTLB-load-misses;dTLB-prefetch-misses;executable;matrix_size
66783,81;66783,69;4336;0;15507;141139886965;<not supported>;24871079168;2803948499;11946654;6956463629;4660679394;2860726433;1871396687;342216443;633316;<not supported>;1866510794;344750759;6624683881;6953852339;2782011558;<not supported>;mmul_-DIJK_-DNESTED_VECTOR_openmp;1400
66783,96;66783,69;4336;0;15507;141251829785;<not supported>;24897013551;2795207305;8178348;7008743335;4662581540;2816496321;1866444827;336971825;514895;<not supported>;1878459628;342271093;6624762698;6917104395;2771253076;<not supported>;mmul_-DIJK_-DNESTED_VECTOR_openmp;1400
67194,73;67194,41;4325;5;15508;142160444935;<not supported>;24880458158;2838530998;11822165;6986444280;4543695606;2837101034;1960234571;251615906;544218;<not supported>;1974779919;251378751;6668099028;6978012258;2786103401;<not supported>;mmul_-DIJK_-DNESTED_VECTOR_openmp;1400
67195,67;67194,41;4325;5;15508;142184250029;<not supported>;24926472614;2800385288;8155534;6920945701;4497865757;2791830911;1966868805;250334611;363706;<not supported>;1976708710;250926147;6668560977;6925209864;2774052532;<not supported>;mmul_-DIJK_-DNESTED_VECTOR_openmp;1400
66174,72;66174,46;4249;2;15507;140584600183;<not supported>;24887915803;2806519082;9852997;6963383960;4533146983;2845731275;1782558300;312713596;573277;<not supported>;1768552198;312542706;6564740505;6961580460;2784432439;<not supported>;mmul_-DIJK_-DNESTED_VECTOR_openmp;1400
66175,49;66174,46;4249;2;15507;140591698201;<not supported>;24981951833;2838696840;7417572;7011745359;4559955702;2777736998;1770366582;312465587;463161;<not supported>;1780981524;317758488;6565506600;6966928722;2783710480;<not supported>;mmul_-DIJK_-DNESTED_VECTOR_openmp;1400
65072,50;65072,17;4286;0;15509;138915675564;<not supported>;24940746336;2816164430;8064584;6995376301;4458634332;2863456874;1760977810;292466153;540007;<not supported>;1733723714;290239565;6453157646;6987089085;2773112036;<not supported>;mmul_-DIJK_-DNESTED_VECTOR_openmp;1400
65073,29;65072,17;4286;0;15509;138844051218;<not supported>;24863189821;2799611927;10734092;6997313050;4448324788;2803948406;1778568169;290699997;409148;<not supported>;1743479849;290282514;6452817274;7013023446;2783305022;<not supported>;mmul_-DIJK_-DNESTED_VECTOR_openmp;1400
67245,34;67245,02;4329;7;15507;141723868848;<not supported>;24880467221;2815527803;7516860;6945605557;4755203464;2847717528;1930185459;376334222;673099;<not supported>;1917992385;379451265;6671611051;6953904011;2775606242;<not supported>;mmul_-DIJK_-DNESTED_VECTOR_openmp;1400
67246,00;67245,02;4329;7;15507;141578846124;<not supported>;24838164653;2810669758;9338769;7055764811;4755257180;2804533083;1944352301;371195271;501331;<not supported>;1929808873;375588696;6671961669;6908575410;2776170094;<not supported>;mmul_-DIJK_-DNESTED_VECTOR_openmp;1400
64651,27;64651,07;4047;2;15509;139544545007;<not supported>;24988694786;2826872808;10654482;7003228505;4402028412;2825867945;1690307286;235415246;565402;<not supported>;1684840560;232956452;6414617334;6965368469;2773003010;<not supported>;mmul_-DIJK_-DNESTED_VECTOR_openmp;1400
64651,95;64651,07;4047;2;15509;139301403590;<not supported>;24846190463;2812524143;10700705;7020765682;4429653007;2807768794;1672739683;235726015;347689;<not supported>;1660204726;234362439;6414839093;7064033394;2767494340;<not supported>;mmul_-DIJK_-DNESTED_VECTOR_openmp;1400
66059,38;66063,04;65848;45;15507;140296561769;<not supported>;25247082870;2906237666;11460049;7185242693;4842723527;2956350302;2011501381;318802189;1437519;<not supported>;1985586611;322390542;6535659629;7146936164;2755515606;<not supported>;mmul_-DIJK_-DNESTED_VECTOR_openmp;1400
66039,05;66063,04;65848;45;15507;140393972768;<not supported>;25091696611;2890006442;12670102;7337387799;4792311832;2845345335;1995079166;335670396;1359430;<not supported>;1991891328;326527738;6536970695;7195281641;2776486480;<not supported>;mmul_-DIJK_-DNESTED_VECTOR_openmp;1400
