cpu-clock;task-clock;context-switches;cpu-migrations;page-faults;cycles;stalled-cycles-frontend;instructions;branches;branch-misses;L1-dcache-loads;L1-dcache-load-misses;L1-dcache-stores;LLC-loads;LLC-load-misses;LLC-stores;LLC-prefetches;cache-references;cache-misses;bus-cycles;dTLB-loads;dTLB-load-misses;dTLB-prefetch-misses;executable;matrix_size
285,21;285,21;75;1;2976;362131953;<not supported>;345258158;54142101;522161;286917343;13257253;106694874;2527067;327110;2840;<not supported>;2449238;326705;28218103;360966350;247524;<not supported>;mmul_-DIKJ_OPT_-DNESTED_VECTOR_openmp;600
285,20;285,21;75;1;2976;648434549;<not supported>;1083032377;121651466;409401;348577815;14161200;73797857;2379042;<not counted>;<not counted>;<not supported>;<not counted>;<not counted>;<not counted>;<not counted>;<not counted>;<not supported>;mmul_-DIKJ_OPT_-DNESTED_VECTOR_openmp;600
267,13;267,14;33;0;2974;536097048;<not supported>;549733860;94805844;524102;346909082;13852281;116614188;1501274;108667;1733;<not supported>;1764110;169973;26519185;348126899;318225;<not supported>;mmul_-DIKJ_OPT_-DNESTED_VECTOR_openmp;600
267,13;267,14;33;0;2974;609954275;<not supported>;1046030276;119419195;353293;154397012;174993;<not counted>;<not counted>;<not counted>;<not counted>;<not supported>;<not counted>;<not counted>;<not counted>;<not counted>;<not counted>;<not supported>;mmul_-DIKJ_OPT_-DNESTED_VECTOR_openmp;600
263,13;263,13;32;1;2974;544756023;<not supported>;543951734;99615389;493847;340471593;11083584;114099262;2212166;159717;1598;<not supported>;2090573;156221;26150490;341901994;235494;<not supported>;mmul_-DIKJ_OPT_-DNESTED_VECTOR_openmp;600
263,13;263,13;32;1;2974;599458913;<not supported>;1027313198;114325948;364073;152303945;<not counted>;<not counted>;<not counted>;<not counted>;<not counted>;<not supported>;<not counted>;<not counted>;<not counted>;<not counted>;<not counted>;<not supported>;mmul_-DIKJ_OPT_-DNESTED_VECTOR_openmp;600
268,25;268,25;39;0;2973;564791151;<not supported>;542585597;101677482;519031;351904046;15211244;114081016;2522729;134506;1345;<not supported>;2062433;111659;26681426;348056973;304727;<not supported>;mmul_-DIKJ_OPT_-DNESTED_VECTOR_openmp;600
268,26;268,25;39;0;2973;611820978;<not supported>;1048813648;115413104;340043;160512213;76367;<not counted>;<not counted>;<not counted>;<not counted>;<not supported>;<not counted>;<not counted>;<not counted>;<not counted>;<not counted>;<not supported>;mmul_-DIKJ_OPT_-DNESTED_VECTOR_openmp;600
271,43;271,43;42;3;2975;593001233;<not supported>;555351495;104109752;507830;352417331;15589896;117733388;1962287;190802;1806;<not supported>;2020569;220605;26977502;352632015;280752;<not supported>;mmul_-DIKJ_OPT_-DNESTED_VECTOR_openmp;600
271,43;271,43;42;3;2975;616775197;<not supported>;989942393;112963241;346193;210264033;17366483;106154737;<not counted>;<not counted>;<not counted>;<not supported>;<not counted>;<not counted>;<not counted>;<not counted>;<not counted>;<not supported>;mmul_-DIKJ_OPT_-DNESTED_VECTOR_openmp;600
268,21;268,20;39;0;2977;537003208;<not supported>;602583066;98754571;530814;345953597;15825684;115857328;1870379;143983;1362;<not supported>;2001497;136126;26666269;348636610;305506;<not supported>;mmul_-DIKJ_OPT_-DNESTED_VECTOR_openmp;600
268,20;268,20;39;0;2977;612353477;<not supported>;1055051970;117471972;350234;180683684;7517495;<not counted>;<not counted>;<not counted>;<not counted>;<not supported>;<not counted>;<not counted>;<not counted>;<not counted>;<not counted>;<not supported>;mmul_-DIKJ_OPT_-DNESTED_VECTOR_openmp;600
284,22;284,22;47;4;2975;517431230;<not supported>;561362351;97165352;483184;292757926;15825698;116798689;2399687;187696;2111;<not supported>;1824358;134656;28267217;371351807;284575;<not supported>;mmul_-DIKJ_OPT_-DNESTED_VECTOR_openmp;600
284,21;284,22;47;4;2975;647984600;<not supported>;1086058774;122885290;396035;267356200;6907995;93526141;5008865;2583535;267252;<not supported>;6520673;5620248;<not counted>;<not counted>;<not counted>;<not supported>;mmul_-DIKJ_OPT_-DNESTED_VECTOR_openmp;600
