cpu-clock;task-clock;context-switches;cpu-migrations;page-faults;cycles;stalled-cycles-frontend;instructions;branches;branch-misses;L1-dcache-loads;L1-dcache-load-misses;L1-dcache-stores;LLC-loads;LLC-load-misses;LLC-stores;LLC-prefetches;cache-references;cache-misses;bus-cycles;dTLB-loads;dTLB-load-misses;dTLB-prefetch-misses;executable;matrix_size
11324,70;11324,68;72;1;17752;28668625967;<not supported>;16907787986;1722552419;2443246;5125867177;2709879814;1733324782;406556966;210941201;1067820;<not supported>;412638547;216835290;1120615180;5156945383;839386544;<not supported>;mmul_-DIJK_OPT_-DNESTED_VECTOR;1500
11324,74;11324,68;72;1;17752;28656982097;<not supported>;16905207607;1702648846;2278497;5137067615;2713398584;1686685798;413992865;214168164;45882;<not supported>;412032791;215631742;1120031069;5111453818;837331287;<not supported>;mmul_-DIJK_OPT_-DNESTED_VECTOR;1500
11768,22;11768,20;43;1;17752;28265917623;<not supported>;17046027455;1765703643;2539640;5117946419;2740241342;1741790523;393809391;214425787;325397;<not supported>;396257872;216157877;1164150194;5099703856;827833848;<not supported>;mmul_-DIJK_OPT_-DNESTED_VECTOR;1500
11768,25;11768,20;43;1;17752;28242371276;<not supported>;17007635334;1700810778;2340357;5088407842;2768531940;1702326493;399086059;215577483;49676;<not supported>;400052643;216495744;1164083959;5088583347;831733490;<not supported>;mmul_-DIJK_OPT_-DNESTED_VECTOR;1500
11234,30;11234,27;66;3;17752;28341367882;<not supported>;17009557468;1708754006;2501924;5081191181;2761684834;1753926075;309015470;213730213;302968;<not supported>;311914662;215642535;1111652688;5070177789;832392094;<not supported>;mmul_-DIJK_OPT_-DNESTED_VECTOR;1500
11234,35;11234,27;66;3;17752;28312113175;<not supported>;16917775143;1710481264;2361042;5092512715;2753459505;1700289199;312101669;215041542;44978;<not supported>;314521199;218145830;1111811339;5081985961;833896694;<not supported>;mmul_-DIJK_OPT_-DNESTED_VECTOR;1500
11821,65;11821,63;40;1;17752;28348422967;<not supported>;16987591575;1703965586;2500324;5048329057;2768692494;1752668595;405847841;214303444;326937;<not supported>;407272538;215938117;1169375916;5064227892;831544267;<not supported>;mmul_-DIJK_OPT_-DNESTED_VECTOR;1500
11821,68;11821,63;40;1;17752;28384461383;<not supported>;17216095160;1758497858;2421445;5102872208;2777237746;1703055728;401689275;215855625;46705;<not supported>;412889488;216201370;1169825728;5075476222;833429139;<not supported>;mmul_-DIJK_OPT_-DNESTED_VECTOR;1500
12019,98;12019,98;26;1;17753;28847370314;<not supported>;16999709720;1710009370;2405143;5162456137;2729924784;1763224140;396391998;213326891;635103;<not supported>;398971254;215615103;1189013651;5075182932;833888769;<not supported>;mmul_-DIJK_OPT_-DNESTED_VECTOR;1500
12020,02;12019,98;26;1;17753;28860854567;<not supported>;16962931906;1697864072;2399878;5036396717;2784813569;1692914426;398748120;216184559;47112;<not supported>;396265970;216716708;1189128950;5084994944;836229613;<not supported>;mmul_-DIJK_OPT_-DNESTED_VECTOR;1500
11635,04;11635,00;61;5;17753;28381625703;<not supported>;17138121725;1717734314;2524417;5087935324;2749170479;1745986412;396192929;214442417;305706;<not supported>;398152342;216072655;1151369798;5086196051;832061780;<not supported>;mmul_-DIJK_OPT_-DNESTED_VECTOR;1500
11635,11;11635,00;61;5;17753;28365353932;<not supported>;16943118028;1701484176;2355054;5069472435;2771205647;1697763665;398884017;215791679;52333;<not supported>;399085765;216193167;1151084493;5108116623;825504403;<not supported>;mmul_-DIJK_OPT_-DNESTED_VECTOR;1500
11779,70;11779,70;12;1;17750;28252453928;<not supported>;16965329005;1707293090;2482774;5101368017;2736792485;1762029470;358874839;212426653;323381;<not supported>;361501896;214470906;1165478418;5097940481;827767646;<not supported>;mmul_-DIJK_OPT_-DNESTED_VECTOR;1500
11779,71;11779,70;12;1;17750;28265035569;<not supported>;16973835417;1698281470;2331703;5079529369;2770023878;1704331138;361598342;214861211;44837;<not supported>;362855380;215415733;1165069513;5087068804;826755281;<not supported>;mmul_-DIJK_OPT_-DNESTED_VECTOR;1500
