Timer - Multiplication;Ret;executable;matrix_size
4;0;mmul_-DIJK_OPT_-DNESTED_VECTOR;200
4;0;mmul_-DIJK_OPT_-DNESTED_VECTOR;200
4;0;mmul_-DIJK_OPT_-DNESTED_VECTOR;200
4;0;mmul_-DIJK_OPT_-DNESTED_VECTOR;200
4;0;mmul_-DIJK_OPT_-DNESTED_VECTOR;200
4;0;mmul_-DIJK_OPT_-DNESTED_VECTOR;200
6;0;mmul_-DIJK_OPT_-DNESTED_VECTOR;200
