Timer - Multiplication;Ret;executable;matrix_size
81;0;mmul_-DIKJ_OPT_-DNESTED_VECTOR_openmp;600
65;0;mmul_-DIKJ_OPT_-DNESTED_VECTOR_openmp;600
69;0;mmul_-DIKJ_OPT_-DNESTED_VECTOR_openmp;600
64;0;mmul_-DIKJ_OPT_-DNESTED_VECTOR_openmp;600
70;0;mmul_-DIKJ_OPT_-DNESTED_VECTOR_openmp;600
66;0;mmul_-DIKJ_OPT_-DNESTED_VECTOR_openmp;600
74;0;mmul_-DIKJ_OPT_-DNESTED_VECTOR_openmp;600
