Timer - Multiplication;Ret;executable;matrix_size
1912;0;mmul_-DIKJ_-DNESTED_VECTOR;1400
1652;0;mmul_-DIKJ_-DNESTED_VECTOR;1400
1593;0;mmul_-DIKJ_-DNESTED_VECTOR;1400
1570;0;mmul_-DIKJ_-DNESTED_VECTOR;1400
1577;0;mmul_-DIKJ_-DNESTED_VECTOR;1400
1576;0;mmul_-DIKJ_-DNESTED_VECTOR;1400
1569;0;mmul_-DIKJ_-DNESTED_VECTOR;1400
