Timer - Multiplication;Ret;executable;matrix_size
0;0;mmul_-DIKJ_OPT_-DNESTED_VECTOR;100
0;0;mmul_-DIKJ_OPT_-DNESTED_VECTOR;100
0;0;mmul_-DIKJ_OPT_-DNESTED_VECTOR;100
0;0;mmul_-DIKJ_OPT_-DNESTED_VECTOR;100
0;0;mmul_-DIKJ_OPT_-DNESTED_VECTOR;100
0;0;mmul_-DIKJ_OPT_-DNESTED_VECTOR;100
0;0;mmul_-DIKJ_OPT_-DNESTED_VECTOR;100
