Timer - Multiplication;Ret;executable;matrix_size
169;0;mmul_-DIJK_OPT_-DNESTED_VECTOR;600
159;0;mmul_-DIJK_OPT_-DNESTED_VECTOR;600
157;0;mmul_-DIJK_OPT_-DNESTED_VECTOR;600
148;0;mmul_-DIJK_OPT_-DNESTED_VECTOR;600
157;0;mmul_-DIJK_OPT_-DNESTED_VECTOR;600
178;0;mmul_-DIJK_OPT_-DNESTED_VECTOR;600
176;0;mmul_-DIJK_OPT_-DNESTED_VECTOR;600
