Timer - Multiplication;Ret;executable;matrix_size
285;0;mmul_-DIKJ_OPT_-DNESTED_VECTOR_openmp;1000
260;0;mmul_-DIKJ_OPT_-DNESTED_VECTOR_openmp;1000
255;0;mmul_-DIKJ_OPT_-DNESTED_VECTOR_openmp;1000
319;0;mmul_-DIKJ_OPT_-DNESTED_VECTOR_openmp;1000
331;0;mmul_-DIKJ_OPT_-DNESTED_VECTOR_openmp;1000
314;0;mmul_-DIKJ_OPT_-DNESTED_VECTOR_openmp;1000
333;0;mmul_-DIKJ_OPT_-DNESTED_VECTOR_openmp;1000
