Timer - Multiplication;Ret;executable;matrix_size
1956;0;mmul_-DIKJ_-DNESTED_VECTOR;1500
1950;0;mmul_-DIKJ_-DNESTED_VECTOR;1500
1933;0;mmul_-DIKJ_-DNESTED_VECTOR;1500
1942;0;mmul_-DIKJ_-DNESTED_VECTOR;1500
1950;0;mmul_-DIKJ_-DNESTED_VECTOR;1500
2006;0;mmul_-DIKJ_-DNESTED_VECTOR;1500
2418;0;mmul_-DIKJ_-DNESTED_VECTOR;1500
