Timer - Multiplication;Ret;executable;matrix_size
3681;0;mmul_-DIJK_-DNESTED_VECTOR;1100
3666;0;mmul_-DIJK_-DNESTED_VECTOR;1100
4067;0;mmul_-DIJK_-DNESTED_VECTOR;1100
4021;0;mmul_-DIJK_-DNESTED_VECTOR;1100
4018;0;mmul_-DIJK_-DNESTED_VECTOR;1100
4005;0;mmul_-DIJK_-DNESTED_VECTOR;1100
4077;0;mmul_-DIJK_-DNESTED_VECTOR;1100
