Timer - Multiplication;Ret;executable;matrix_size
4355;0;mmul_-DIJK_OPT_-DNESTED_VECTOR;1400
4218;0;mmul_-DIJK_OPT_-DNESTED_VECTOR;1400
4210;0;mmul_-DIJK_OPT_-DNESTED_VECTOR;1400
4236;0;mmul_-DIJK_OPT_-DNESTED_VECTOR;1400
4735;0;mmul_-DIJK_OPT_-DNESTED_VECTOR;1400
4259;0;mmul_-DIJK_OPT_-DNESTED_VECTOR;1400
4531;0;mmul_-DIJK_OPT_-DNESTED_VECTOR;1400
