Timer - Multiplication;Ret;executable;matrix_size
962;0;mmul_-DIKJ_OPT_-DNESTED_VECTOR;1200
954;0;mmul_-DIKJ_OPT_-DNESTED_VECTOR;1200
971;0;mmul_-DIKJ_OPT_-DNESTED_VECTOR;1200
967;0;mmul_-DIKJ_OPT_-DNESTED_VECTOR;1200
963;0;mmul_-DIKJ_OPT_-DNESTED_VECTOR;1200
956;0;mmul_-DIKJ_OPT_-DNESTED_VECTOR;1200
959;0;mmul_-DIKJ_OPT_-DNESTED_VECTOR;1200
