Timer - Multiplication;Ret;executable;matrix_size
5;0;mmul_-DIKJ_OPT_-DNESTED_VECTOR_openmp;100
3;0;mmul_-DIKJ_OPT_-DNESTED_VECTOR_openmp;100
4;0;mmul_-DIKJ_OPT_-DNESTED_VECTOR_openmp;100
4;0;mmul_-DIKJ_OPT_-DNESTED_VECTOR_openmp;100
4;0;mmul_-DIKJ_OPT_-DNESTED_VECTOR_openmp;100
5;0;mmul_-DIKJ_OPT_-DNESTED_VECTOR_openmp;100
3;0;mmul_-DIKJ_OPT_-DNESTED_VECTOR_openmp;100
