Timer - Multiplication;Ret;executable;matrix_size
2023;0;mmul_-DIJK_OPT_-DNESTED_VECTOR;1100
1993;0;mmul_-DIJK_OPT_-DNESTED_VECTOR;1100
1988;0;mmul_-DIJK_OPT_-DNESTED_VECTOR;1100
2060;0;mmul_-DIJK_OPT_-DNESTED_VECTOR;1100
2017;0;mmul_-DIJK_OPT_-DNESTED_VECTOR;1100
2031;0;mmul_-DIJK_OPT_-DNESTED_VECTOR;1100
2033;0;mmul_-DIJK_OPT_-DNESTED_VECTOR;1100
