Timer - Multiplication;Ret;executable;matrix_size
1066;0;mmul_-DIKJ_-DNESTED_VECTOR;1100
933;0;mmul_-DIKJ_-DNESTED_VECTOR;1100
927;0;mmul_-DIKJ_-DNESTED_VECTOR;1100
964;0;mmul_-DIKJ_-DNESTED_VECTOR;1100
925;0;mmul_-DIKJ_-DNESTED_VECTOR;1100
927;0;mmul_-DIKJ_-DNESTED_VECTOR;1100
965;0;mmul_-DIKJ_-DNESTED_VECTOR;1100
