Timer - Multiplication;Ret;executable;matrix_size
137;0;mmul_-DIKJ_OPT_-DNESTED_VECTOR_openmp;800
125;0;mmul_-DIKJ_OPT_-DNESTED_VECTOR_openmp;800
127;0;mmul_-DIKJ_OPT_-DNESTED_VECTOR_openmp;800
124;0;mmul_-DIKJ_OPT_-DNESTED_VECTOR_openmp;800
127;0;mmul_-DIKJ_OPT_-DNESTED_VECTOR_openmp;800
124;0;mmul_-DIKJ_OPT_-DNESTED_VECTOR_openmp;800
126;0;mmul_-DIKJ_OPT_-DNESTED_VECTOR_openmp;800
