Timer - Multiplication;Ret;executable;matrix_size
373;0;mmul_cont_with_mult;700
354;0;mmul_cont_with_mult;700
360;0;mmul_cont_with_mult;700
354;0;mmul_cont_with_mult;700
374;0;mmul_cont_with_mult;700
348;0;mmul_cont_with_mult;700
352;0;mmul_cont_with_mult;700
