Timer - Multiplication;Ret;executable;matrix_size
14;0;mmul_cont_with_mult;200
12;0;mmul_cont_with_mult;200
15;0;mmul_cont_with_mult;200
12;0;mmul_cont_with_mult;200
11;0;mmul_cont_with_mult;200
14;0;mmul_cont_with_mult;200
15;0;mmul_cont_with_mult;200
