Timer - Multiplication;Ret;executable;matrix_size
41;0;mmul_cont_with_indir;400
39;0;mmul_cont_with_indir;400
42;0;mmul_cont_with_indir;400
39;0;mmul_cont_with_indir;400
41;0;mmul_cont_with_indir;400
39;0;mmul_cont_with_indir;400
38;0;mmul_cont_with_indir;400
