Timer - Multiplication;Ret;executable;matrix_size
72;0;mmul_cont_with_mult;400
71;0;mmul_cont_with_mult;400
71;0;mmul_cont_with_mult;400
73;0;mmul_cont_with_mult;400
71;0;mmul_cont_with_mult;400
72;0;mmul_cont_with_mult;400
69;0;mmul_cont_with_mult;400
