cpu-clock;task-clock;context-switches;cpu-migrations;page-faults;cycles;stalled-cycles-frontend;instructions;branches;branch-misses;L1-dcache-loads;L1-dcache-load-misses;L1-dcache-stores;LLC-loads;LLC-load-misses;LLC-stores;LLC-prefetches;cache-references;cache-misses;bus-cycles;dTLB-loads;dTLB-load-misses;dTLB-prefetch-misses;executable;matrix_size
129,32;129,32;0;0;2230;349671175;63806716;722174394;99232554;371015;239873081;29887148;118640778;796392;<not supported>;1059;28905907;903825;72650;12882176;241027290;474102;<not supported>;mmul_cont_with_indir;600
125,05;125,05;8;0;2234;344881193;80250122;643141346;90805893;352394;238716602;29935068;121571188;1184487;<not supported>;776;30413427;848303;84260;12345815;239978712;489167;<not supported>;mmul_cont_with_indir;600
125,74;125,74;2;0;2230;348741953;60049738;657086251;87421992;336539;239695289;30360152;120057836;828362;<not supported>;1006;30579907;771131;58666;12408746;250819078;505922;<not supported>;mmul_cont_with_indir;600
123,66;123,66;0;0;2232;384596616;66980331;695940488;92716581;343721;218420565;28998208;119698479;827273;<not supported>;587;29733588;796791;73787;12225265;248748382;494930;<not supported>;mmul_cont_with_indir;600
130,40;130,40;8;0;2232;354868207;43156944;704011931;95184387;358566;241842037;30118633;118807089;800408;<not supported>;367;29543999;759103;47237;12995145;242636186;474075;<not supported>;mmul_cont_with_indir;600
119,42;119,42;0;0;2232;341741661;65392119;709066149;96366727;369764;233254136;29177040;115706569;819103;<not supported>;455;29161185;772894;66198;11803034;227053895;487580;<not supported>;mmul_cont_with_indir;600
128,73;128,73;7;0;2230;355658593;67367437;734912813;99434841;365240;230981720;29701699;117803092;920132;<not supported>;879;29017549;765032;67011;12823680;240522327;472414;<not supported>;mmul_cont_with_indir;600
