cpu-clock;task-clock;context-switches;cpu-migrations;page-faults;cycles;stalled-cycles-frontend;instructions;branches;branch-misses;L1-dcache-loads;L1-dcache-load-misses;L1-dcache-stores;LLC-loads;LLC-load-misses;LLC-stores;LLC-prefetches;cache-references;cache-misses;bus-cycles;dTLB-loads;dTLB-load-misses;dTLB-prefetch-misses;executable;matrix_size
1860,43;1860,43;2;0;8555;5675789775;484516762;17115617232;1731171208;1522041;5170835661;221159708;1761860491;45816465;<not supported>;9711;192764870;30222244;13216061;184299569;5257028718;3476472;<not supported>;mmul_cont_with_mult;1200
1815,36;1815,35;2;0;8557;5708655490;444215253;17321224589;1736553971;1521800;5185503013;219803255;1730803238;48046661;<not supported>;9401;189589607;31874753;14421440;179125943;5249810949;3484998;<not supported>;mmul_cont_with_mult;1200
1876,36;1876,36;70;0;8555;5691554412;446360961;17244250459;1731678070;1517596;5105135243;219949915;1762143158;46904549;<not supported>;11228;192008671;30725498;13240877;185011748;5285387307;3517782;<not supported>;mmul_cont_with_mult;1200
1840,59;1840,59;3;0;8555;5662187949;436214673;17242990638;1732187609;1520148;5196988574;221477652;1747432311;46148968;<not supported>;10076;191107590;31893413;14056084;181325336;5222163331;3484420;<not supported>;mmul_cont_with_mult;1200
1838,82;1838,82;4;1;8553;5701717847;471276435;17247113318;1737755863;1525597;5203214764;221760997;1753228728;46563568;<not supported>;9606;189907643;31838128;13889782;181490436;5245688215;3503625;<not supported>;mmul_cont_with_mult;1200
1860,32;1860,32;4;2;8553;5687597708;481356284;17219810936;1744401354;1533690;5216623090;221982333;1757142908;46810321;<not supported>;10553;189773835;30559375;13546219;184015513;5247385179;3488942;<not supported>;mmul_cont_with_mult;1200
1860,42;1860,42;52;1;8554;5656032512;447567508;17054299755;1729229740;1514660;5174532896;219414330;1755098964;47210250;<not supported>;10728;193177157;30672068;13496132;184005927;5281949192;3467256;<not supported>;mmul_cont_with_mult;1200
