cpu-clock;task-clock;context-switches;cpu-migrations;page-faults;cycles;stalled-cycles-frontend;instructions;branches;branch-misses;L1-dcache-loads;L1-dcache-load-misses;L1-dcache-stores;LLC-loads;LLC-load-misses;LLC-stores;LLC-prefetches;cache-references;cache-misses;bus-cycles;dTLB-loads;dTLB-load-misses;dTLB-prefetch-misses;executable;matrix_size
864,88;864,88;1;0;7237;2582298263;567873925;5241055445;657644307;1257456;1356019882;173050475;672982585;89778594;<not supported>;10579;118127737;56195370;24572908;85710405;1385120821;2788306;<not supported>;mmul_nested_vec;1100
845,97;845,97;2;0;7234;2590241090;525854981;5386734322;678758067;1264354;1354181557;171602967;683015263;87146269;<not supported>;7811;122030772;53445809;23944555;83455286;1368822431;2776602;<not supported>;mmul_nested_vec;1100
853,20;853,20;2;0;7239;2556834081;530888325;5303027459;664277347;1263050;1364718989;172172539;684983993;84112487;<not supported>;6958;120061485;53076690;23410039;84734539;1369354380;2770731;<not supported>;mmul_nested_vec;1100
829,85;829,85;1;0;7237;2603762123;575200091;5307871807;672138121;1264320;1357558757;173903619;680708450;86897727;<not supported>;6981;120541763;53832531;24130238;82257904;1372239981;2800277;<not supported>;mmul_nested_vec;1100
906,11;906,11;3;0;7239;2736893884;682846299;5333484860;670423803;1266318;1342394727;173553475;689970789;92501828;<not supported>;7823;119225080;57399610;25217713;89718177;1356008292;2742374;<not supported>;mmul_nested_vec;1100
856,83;856,83;2;0;7237;2606586599;557026390;5348976130;667815311;1273776;1357001743;170325254;671795446;87832196;<not supported>;7778;118447247;55941018;24691150;84632905;1371577008;2794237;<not supported>;mmul_nested_vec;1100
873,47;873,48;27;1;7234;2587547782;561297622;5339904150;668836106;1281738;1363290450;170418153;670504268;87782102;<not supported>;6894;118707372;53643828;23142944;86022356;1365645691;2759038;<not supported>;mmul_nested_vec;1100
