cpu-clock;task-clock;context-switches;cpu-migrations;page-faults;cycles;stalled-cycles-frontend;instructions;branches;branch-misses;L1-dcache-loads;L1-dcache-load-misses;L1-dcache-stores;LLC-loads;LLC-load-misses;LLC-stores;LLC-prefetches;cache-references;cache-misses;bus-cycles;dTLB-loads;dTLB-load-misses;dTLB-prefetch-misses;executable;matrix_size
1782,75;1782,74;80;0;11611;5544171668;1298032622;11096189361;1384639640;2039454;2763900847;346011020;1389824847;284800218;<not supported>;780266;186236023;169974115;71578664;176287290;2812814436;5723498;<not supported>;mmul_cont_with_indir;1400
1759,18;1759,18;3;0;11611;5399249004;1216401707;11055771391;1385308555;2037155;2772578905;346513223;1371234989;284150992;<not supported>;17051;189613646;167418920;70644328;173655737;2798766618;5613585;<not supported>;mmul_cont_with_indir;1400
1783,80;1783,79;7;0;11612;5417752610;1218606794;11059426540;1384059328;2037369;2759443296;346602497;1403651994;289087893;<not supported>;11850;188651361;168254930;70032157;176661167;2791014921;5677807;<not supported>;mmul_cont_with_indir;1400
1773,95;1773,94;17;0;11612;5426658579;1202664311;11074750583;1384611289;2031813;2772747110;345827766;1391219652;284430893;<not supported>;621494;188092420;169488996;70701049;175417813;2800924391;5651844;<not supported>;mmul_cont_with_indir;1400
1771,05;1771,05;2;0;11612;5428687874;1216986176;11068600642;1388045232;2036994;2772852791;342109492;1384678396;284216974;<not supported>;12579;188165428;166216198;69976028;175002404;2815218792;5644416;<not supported>;mmul_cont_with_indir;1400
1738,57;1738,57;4;0;11612;5437076278;1239527908;11026783310;1393796602;2031002;2768221583;345411012;1393124390;285819358;<not supported>;10408;188310588;169345412;72318381;172012468;2807598729;5618667;<not supported>;mmul_cont_with_indir;1400
1775,08;1775,07;79;0;11613;5466754499;1266897186;11034232386;1381346564;2030413;2771810325;345638244;1391431754;287311585;<not supported>;12256;188561668;169853588;71294374;175144842;2804113951;5635700;<not supported>;mmul_cont_with_indir;1400
