cpu-clock;task-clock;context-switches;cpu-migrations;page-faults;cycles;stalled-cycles-frontend;instructions;branches;branch-misses;L1-dcache-loads;L1-dcache-load-misses;L1-dcache-stores;LLC-loads;LLC-load-misses;LLC-stores;LLC-prefetches;cache-references;cache-misses;bus-cycles;dTLB-loads;dTLB-load-misses;dTLB-prefetch-misses;executable;matrix_size
1109,28;1109,28;39;0;5974;3331097111;279420807;9912752590;998326490;1063813;2983421691;128295003;1019797122;13979297;<not supported>;7251;117563892;10558353;5184395;109765709;3069310809;2037996;<not supported>;mmul_cont_with_mult;1000
1080,88;1080,88;5;1;5976;3331834627;290264749;9889520150;994119785;1062758;2978623399;127426132;1031402395;14930450;<not supported>;5994;118292121;11147110;5681823;106860482;3041157967;2098963;<not supported>;mmul_cont_with_mult;1000
1067,65;1067,65;1;0;5978;3315287812;285534559;9878816715;996053606;1063278;3027429635;128650565;1019075507;14880907;<not supported>;5840;117820653;11966791;5856047;105361257;3038147148;2021529;<not supported>;mmul_cont_with_mult;1000
1105,08;1105,08;0;0;5976;3307584702;277114447;9907792264;999119965;1068770;2999612191;127897993;1016348266;13417460;<not supported>;6451;119252084;10201387;5133156;109602489;3063002833;2033837;<not supported>;mmul_cont_with_mult;1000
1064,31;1064,31;2;0;5978;3317309959;295420216;9854750403;996508376;1064213;3042638958;127623837;1020418959;14653008;<not supported>;16109;116318964;11860198;5814573;105082072;3059965652;2036751;<not supported>;mmul_cont_with_mult;1000
1073,44;1073,43;10;0;5978;3314502976;274166620;9912622462;994320483;1065141;3030137661;128876541;1019904696;14947465;<not supported>;6212;118150149;11201191;5860840;106407115;3033451808;2032334;<not supported>;mmul_cont_with_mult;1000
1068,41;1068,41;1;0;5977;3320733532;282286261;9928290056;998488685;1065138;3023955307;128754064;1022382441;14806367;<not supported>;6427;118330906;11702120;5759598;105502762;3027186715;2028672;<not supported>;mmul_cont_with_mult;1000
