cpu-clock;task-clock;context-switches;cpu-migrations;page-faults;cycles;stalled-cycles-frontend;instructions;branches;branch-misses;L1-dcache-loads;L1-dcache-load-misses;L1-dcache-stores;LLC-loads;LLC-load-misses;LLC-stores;LLC-prefetches;cache-references;cache-misses;bus-cycles;dTLB-loads;dTLB-load-misses;dTLB-prefetch-misses;executable;matrix_size
202,11;202,11;8;0;3008;588984077;88459896;1239081063;163613599;506545;366114530;45602551;180771763;2587676;<not supported>;1019;44020488;2331783;798759;20080119;374970678;724143;<not supported>;mmul_nested_vec;700
197,93;197,93;1;0;3008;592480434;82402656;1265882535;165647208;509572;366144678;47798626;188355935;2149070;<not supported>;1196;43262005;2461311;892483;19494099;362806064;760725;<not supported>;mmul_nested_vec;700
196,78;196,78;2;0;3009;577417716;81444877;1230740687;163078380;509021;368036733;47027492;183973686;2664515;<not supported>;1246;43861684;2666454;952409;19475028;362877955;756060;<not supported>;mmul_nested_vec;700
191,81;191,81;0;0;3006;582882820;111900433;1288586780;170503954;527312;366473120;46383810;183705057;2035489;<not supported>;1047;45459861;1717536;598760;18901986;337830808;747084;<not supported>;mmul_nested_vec;700
201,40;201,40;0;0;3008;607771914;68382069;1295069265;163641287;510253;373859328;45833134;180270725;2500646;<not supported>;957;44616313;2261081;805921;19990272;359576717;760104;<not supported>;mmul_nested_vec;700
200,39;200,39;1;0;3009;613529896;72628344;1303172000;167239896;509077;367382971;46297158;186438444;2749192;<not supported>;1294;43692081;2810722;1221527;19755875;355473669;755755;<not supported>;mmul_nested_vec;700
200,96;200,96;1;0;3008;605505379;64041190;1283899198;162913823;505237;369261844;46275290;188844172;2584682;<not supported>;796;43970145;2481236;892533;19839603;357294453;768574;<not supported>;mmul_nested_vec;700
