Timer - Multiplication: 21420 ms 
Ret: 0
Timer - Multiplication: 22191 ms 
Ret: 0
Timer - Multiplication: 21872 ms 
Ret: 0
Timer - Multiplication: 21394 ms 
Ret: 0
Timer - Multiplication: 21323 ms 
Ret: 0
Timer - Multiplication: 21491 ms 
Ret: 0
Timer - Multiplication: 20725 ms 
Ret: 0
