Timer - Multiplication;Ret;executable;matrix_size
3758;0;mmul_-DIJK_OPT_-DNESTED_VECTOR_openmp;1200
3794;0;mmul_-DIJK_OPT_-DNESTED_VECTOR_openmp;1200
3579;0;mmul_-DIJK_OPT_-DNESTED_VECTOR_openmp;1200
3588;0;mmul_-DIJK_OPT_-DNESTED_VECTOR_openmp;1200
3768;0;mmul_-DIJK_OPT_-DNESTED_VECTOR_openmp;1200
3573;0;mmul_-DIJK_OPT_-DNESTED_VECTOR_openmp;1200
3790;0;mmul_-DIJK_OPT_-DNESTED_VECTOR_openmp;1200
