Timer - Multiplication;Ret;executable;matrix_size
1929;0;mmul_-DIKJ_-DNESTED_VECTOR;1400
1883;0;mmul_-DIKJ_-DNESTED_VECTOR;1400
1894;0;mmul_-DIKJ_-DNESTED_VECTOR;1400
1904;0;mmul_-DIKJ_-DNESTED_VECTOR;1400
1897;0;mmul_-DIKJ_-DNESTED_VECTOR;1400
1899;0;mmul_-DIKJ_-DNESTED_VECTOR;1400
1906;0;mmul_-DIKJ_-DNESTED_VECTOR;1400
