Timer - Multiplication: 27806 ms 
Ret: 0
Timer - Multiplication: 28955 ms 
Ret: 0
Timer - Multiplication: 29258 ms 
Ret: 0
Timer - Multiplication: 28468 ms 
Ret: 0
Timer - Multiplication: 29008 ms 
Ret: 0
Timer - Multiplication: 28010 ms 
Ret: 0
Timer - Multiplication: 27338 ms 
Ret: 0
