Timer - Multiplication;Ret;executable;matrix_size
10328;0;mmul_-DIJK_-DNESTED_VECTOR;1100
10003;0;mmul_-DIJK_-DNESTED_VECTOR;1100
10387;0;mmul_-DIJK_-DNESTED_VECTOR;1100
10706;0;mmul_-DIJK_-DNESTED_VECTOR;1100
10517;0;mmul_-DIJK_-DNESTED_VECTOR;1100
10464;0;mmul_-DIJK_-DNESTED_VECTOR;1100
10136;0;mmul_-DIJK_-DNESTED_VECTOR;1100
