Timer - Multiplication;Ret;executable;matrix_size
11;0;mmul_-DIKJ_OPT_-DNESTED_VECTOR_openmp;300
15;0;mmul_-DIKJ_OPT_-DNESTED_VECTOR_openmp;300
8;0;mmul_-DIKJ_OPT_-DNESTED_VECTOR_openmp;300
12;0;mmul_-DIKJ_OPT_-DNESTED_VECTOR_openmp;300
8;0;mmul_-DIKJ_OPT_-DNESTED_VECTOR_openmp;300
12;0;mmul_-DIKJ_OPT_-DNESTED_VECTOR_openmp;300
12;0;mmul_-DIKJ_OPT_-DNESTED_VECTOR_openmp;300
