Timer - Multiplication;Ret;executable;matrix_size
1329;0;mmul_-DIJK_OPT_-DNESTED_VECTOR_openmp;900
1317;0;mmul_-DIJK_OPT_-DNESTED_VECTOR_openmp;900
1315;0;mmul_-DIJK_OPT_-DNESTED_VECTOR_openmp;900
1306;0;mmul_-DIJK_OPT_-DNESTED_VECTOR_openmp;900
1315;0;mmul_-DIJK_OPT_-DNESTED_VECTOR_openmp;900
1305;0;mmul_-DIJK_OPT_-DNESTED_VECTOR_openmp;900
1313;0;mmul_-DIJK_OPT_-DNESTED_VECTOR_openmp;900
