Timer - Multiplication;Ret;executable;matrix_size
597;0;mmul_-DIJK_-DNESTED_VECTOR;600
581;0;mmul_-DIJK_-DNESTED_VECTOR;600
587;0;mmul_-DIJK_-DNESTED_VECTOR;600
623;0;mmul_-DIJK_-DNESTED_VECTOR;600
592;0;mmul_-DIJK_-DNESTED_VECTOR;600
574;0;mmul_-DIJK_-DNESTED_VECTOR;600
573;0;mmul_-DIJK_-DNESTED_VECTOR;600
