Timer - Multiplication;Ret;executable;matrix_size
10048;0;mmul_-DIJK_-DNESTED_VECTOR_openmp;1200
10277;0;mmul_-DIJK_-DNESTED_VECTOR_openmp;1200
10388;0;mmul_-DIJK_-DNESTED_VECTOR_openmp;1200
9878;0;mmul_-DIJK_-DNESTED_VECTOR_openmp;1200
10042;0;mmul_-DIJK_-DNESTED_VECTOR_openmp;1200
10044;0;mmul_-DIJK_-DNESTED_VECTOR_openmp;1200
9913;0;mmul_-DIJK_-DNESTED_VECTOR_openmp;1200
