Timer - Multiplication;Ret;executable;matrix_size
395;0;mmul_-DIJK_OPT_-DNESTED_VECTOR_openmp;700
406;0;mmul_-DIJK_OPT_-DNESTED_VECTOR_openmp;700
361;0;mmul_-DIJK_OPT_-DNESTED_VECTOR_openmp;700
394;0;mmul_-DIJK_OPT_-DNESTED_VECTOR_openmp;700
381;0;mmul_-DIJK_OPT_-DNESTED_VECTOR_openmp;700
418;0;mmul_-DIJK_OPT_-DNESTED_VECTOR_openmp;700
382;0;mmul_-DIJK_OPT_-DNESTED_VECTOR_openmp;700
