Timer - Multiplication;Ret;executable;matrix_size
11289;0;mmul_-DIJK_OPT_-DNESTED_VECTOR;1500
11731;0;mmul_-DIJK_OPT_-DNESTED_VECTOR;1500
11199;0;mmul_-DIJK_OPT_-DNESTED_VECTOR;1500
11786;0;mmul_-DIJK_OPT_-DNESTED_VECTOR;1500
11985;0;mmul_-DIJK_OPT_-DNESTED_VECTOR;1500
11600;0;mmul_-DIJK_OPT_-DNESTED_VECTOR;1500
11743;0;mmul_-DIJK_OPT_-DNESTED_VECTOR;1500
