Timer - Multiplication;Ret;executable;matrix_size
6;0;mmul_-DIJK_-DNESTED_VECTOR_openmp;200
6;0;mmul_-DIJK_-DNESTED_VECTOR_openmp;200
8;0;mmul_-DIJK_-DNESTED_VECTOR_openmp;200
7;0;mmul_-DIJK_-DNESTED_VECTOR_openmp;200
6;0;mmul_-DIJK_-DNESTED_VECTOR_openmp;200
6;0;mmul_-DIJK_-DNESTED_VECTOR_openmp;200
6;0;mmul_-DIJK_-DNESTED_VECTOR_openmp;200
