Timer - Multiplication;Ret;executable;matrix_size
5799;0;mmul_-DIJK_-DNESTED_VECTOR_openmp;1000
5434;0;mmul_-DIJK_-DNESTED_VECTOR_openmp;1000
5486;0;mmul_-DIJK_-DNESTED_VECTOR_openmp;1000
5465;0;mmul_-DIJK_-DNESTED_VECTOR_openmp;1000
5427;0;mmul_-DIJK_-DNESTED_VECTOR_openmp;1000
5398;0;mmul_-DIJK_-DNESTED_VECTOR_openmp;1000
5407;0;mmul_-DIJK_-DNESTED_VECTOR_openmp;1000
