executable;matrix_size;Ret;Timer - Multiplication
mmul_cont_with_indir;100;0;0
mmul_cont_with_indir;200;0;6
mmul_cont_with_indir;300;0;18
mmul_cont_with_indir;400;0;66
mmul_cont_with_indir;500;0;91
mmul_cont_with_indir;600;0;155
mmul_cont_with_indir;700;0;237
mmul_cont_with_indir;800;0;372
mmul_cont_with_indir;900;0;534
mmul_cont_with_indir;1000;0;709
mmul_cont_with_indir;1100;0;949
mmul_cont_with_indir;1200;0;1331
mmul_cont_with_indir;1300;0;1555
mmul_cont_with_indir;1400;0;1932
mmul_cont_with_indir;1500;0;2354
mmul_cont_with_mult;100;0;1
mmul_cont_with_mult;200;0;10
mmul_cont_with_mult;300;0;35
mmul_cont_with_mult;400;0;96
mmul_cont_with_mult;500;0;149
mmul_cont_with_mult;600;0;276
mmul_cont_with_mult;700;0;422
mmul_cont_with_mult;800;0;637
mmul_cont_with_mult;900;0;914
mmul_cont_with_mult;1000;0;1210
mmul_cont_with_mult;1100;0;1794
mmul_cont_with_mult;1200;0;2022
mmul_cont_with_mult;1300;0;2535
mmul_cont_with_mult;1400;0;3188
mmul_cont_with_mult;1500;0;3948
mmul_nested_vec;100;0;1
mmul_nested_vec;200;0;8
mmul_nested_vec;300;0;28
mmul_nested_vec;400;0;58
mmul_nested_vec;500;0;95
mmul_nested_vec;600;0;180
mmul_nested_vec;700;0;269
mmul_nested_vec;800;0;421
mmul_nested_vec;900;0;543
mmul_nested_vec;1000;0;723
mmul_nested_vec;1100;0;957
mmul_nested_vec;1200;0;1223
mmul_nested_vec;1300;0;1546
mmul_nested_vec;1400;0;2019
mmul_nested_vec;1500;0;2377
