executable;matrix_size;Ret;Timer - Multiplication
mmul_cont_with_indir;100;0.0;0.0
mmul_cont_with_indir;200;0.0;4.571428571428571
mmul_cont_with_indir;300;0.0;15.857142857142858
mmul_cont_with_indir;400;0.0;40.0
mmul_cont_with_indir;500;0.0;75.0
mmul_cont_with_indir;600;0.0;132.28571428571428
mmul_cont_with_indir;700;0.0;220.28571428571428
mmul_cont_with_indir;800;0.0;349.0
mmul_cont_with_indir;900;0.0;501.57142857142856
mmul_cont_with_indir;1000;0.0;683.7142857142857
mmul_cont_with_indir;1100;0.0;911.2857142857143
mmul_cont_with_indir;1200;0.0;1202.142857142857
mmul_cont_with_indir;1300;0.0;1512.0
mmul_cont_with_indir;1400;0.0;1900.857142857143
mmul_cont_with_indir;1500;0.0;2338.4285714285716
mmul_cont_with_mult;100;0.0;1.0
mmul_cont_with_mult;200;0.0;9.571428571428571
mmul_cont_with_mult;300;0.0;32.714285714285715
mmul_cont_with_mult;400;0.0;77.42857142857143
mmul_cont_with_mult;500;0.0;141.42857142857142
mmul_cont_with_mult;600;0.0;251.0
mmul_cont_with_mult;700;0.0;400.7142857142857
mmul_cont_with_mult;800;0.0;610.0
mmul_cont_with_mult;900;0.0;862.5714285714286
mmul_cont_with_mult;1000;0.0;1180.0
mmul_cont_with_mult;1100;0.0;1584.4285714285713
mmul_cont_with_mult;1200;0.0;1992.7142857142858
mmul_cont_with_mult;1300;0.0;2517.1428571428573
mmul_cont_with_mult;1400;0.0;3149.0
mmul_cont_with_mult;1500;0.0;3888.8571428571427
mmul_nested_vec;100;0.0;0.2857142857142857
mmul_nested_vec;200;0.0;6.428571428571429
mmul_nested_vec;300;0.0;19.857142857142858
mmul_nested_vec;400;0.0;40.57142857142857
mmul_nested_vec;500;0.0;75.85714285714286
mmul_nested_vec;600;0.0;152.0
mmul_nested_vec;700;0.0;228.42857142857142
mmul_nested_vec;800;0.0;363.14285714285717
mmul_nested_vec;900;0.0;505.85714285714283
mmul_nested_vec;1000;0.0;696.5714285714286
mmul_nested_vec;1100;0.0;925.0
mmul_nested_vec;1200;0.0;1201.4285714285713
mmul_nested_vec;1300;0.0;1521.857142857143
mmul_nested_vec;1400;0.0;1924.5714285714287
mmul_nested_vec;1500;0.0;2351.714285714286
