executable;matrix_size;Ret;Timer - Multiplication
mmul_-DIJK_-DNESTED_VECTOR;100;0;2
mmul_-DIJK_-DNESTED_VECTOR;200;0;15
mmul_-DIJK_-DNESTED_VECTOR;300;0;45
mmul_-DIJK_-DNESTED_VECTOR;400;0;114
mmul_-DIJK_-DNESTED_VECTOR;500;0;232
mmul_-DIJK_-DNESTED_VECTOR;600;0;1264
mmul_-DIJK_-DNESTED_VECTOR;700;0;2642
mmul_-DIJK_-DNESTED_VECTOR;800;0;4170
mmul_-DIJK_-DNESTED_VECTOR;900;0;5930
mmul_-DIJK_-DNESTED_VECTOR;1000;0;8214
mmul_-DIJK_-DNESTED_VECTOR;1100;0;11122
mmul_-DIJK_-DNESTED_VECTOR;1200;0;14581
mmul_-DIJK_-DNESTED_VECTOR;1300;0;18819
mmul_-DIJK_-DNESTED_VECTOR;1400;0;23599
mmul_-DIJK_-DNESTED_VECTOR;1500;0;29314
mmul_-DIJK_-DNESTED_VECTOR_openmp;100;0;2
mmul_-DIJK_-DNESTED_VECTOR_openmp;200;0;5
mmul_-DIJK_-DNESTED_VECTOR_openmp;300;0;15
mmul_-DIJK_-DNESTED_VECTOR_openmp;400;0;61
mmul_-DIJK_-DNESTED_VECTOR_openmp;500;0;278
mmul_-DIJK_-DNESTED_VECTOR_openmp;600;0;506
mmul_-DIJK_-DNESTED_VECTOR_openmp;700;0;805
mmul_-DIJK_-DNESTED_VECTOR_openmp;800;0;1214
mmul_-DIJK_-DNESTED_VECTOR_openmp;900;0;1751
mmul_-DIJK_-DNESTED_VECTOR_openmp;1000;0;2447
mmul_-DIJK_-DNESTED_VECTOR_openmp;1100;0;3316
mmul_-DIJK_-DNESTED_VECTOR_openmp;1200;0;4363
mmul_-DIJK_-DNESTED_VECTOR_openmp;1300;0;5629
mmul_-DIJK_-DNESTED_VECTOR_openmp;1400;0;7262
mmul_-DIJK_-DNESTED_VECTOR_openmp;1500;0;8991
mmul_-DIJK_OPT_-DNESTED_VECTOR;100;0;0
mmul_-DIJK_OPT_-DNESTED_VECTOR;200;0;8
mmul_-DIJK_OPT_-DNESTED_VECTOR;300;0;25
mmul_-DIJK_OPT_-DNESTED_VECTOR;400;0;55
mmul_-DIJK_OPT_-DNESTED_VECTOR;500;0;105
mmul_-DIJK_OPT_-DNESTED_VECTOR;600;0;267
mmul_-DIJK_OPT_-DNESTED_VECTOR;700;0;614
mmul_-DIJK_OPT_-DNESTED_VECTOR;800;0;1194
mmul_-DIJK_OPT_-DNESTED_VECTOR;900;0;2026
mmul_-DIJK_OPT_-DNESTED_VECTOR;1000;0;3116
mmul_-DIJK_OPT_-DNESTED_VECTOR;1100;0;4646
mmul_-DIJK_OPT_-DNESTED_VECTOR;1200;0;6343
mmul_-DIJK_OPT_-DNESTED_VECTOR;1300;0;8150
mmul_-DIJK_OPT_-DNESTED_VECTOR;1400;0;10545
mmul_-DIJK_OPT_-DNESTED_VECTOR;1500;0;13553
mmul_-DIJK_OPT_-DNESTED_VECTOR_openmp;100;0;2
mmul_-DIJK_OPT_-DNESTED_VECTOR_openmp;200;0;4
mmul_-DIJK_OPT_-DNESTED_VECTOR_openmp;300;0;8
mmul_-DIJK_OPT_-DNESTED_VECTOR_openmp;400;0;24
mmul_-DIJK_OPT_-DNESTED_VECTOR_openmp;500;0;94
mmul_-DIJK_OPT_-DNESTED_VECTOR_openmp;600;0;178
mmul_-DIJK_OPT_-DNESTED_VECTOR_openmp;700;0;320
mmul_-DIJK_OPT_-DNESTED_VECTOR_openmp;800;0;495
mmul_-DIJK_OPT_-DNESTED_VECTOR_openmp;900;0;739
mmul_-DIJK_OPT_-DNESTED_VECTOR_openmp;1000;0;1066
mmul_-DIJK_OPT_-DNESTED_VECTOR_openmp;1100;0;1456
mmul_-DIJK_OPT_-DNESTED_VECTOR_openmp;1200;0;1941
mmul_-DIJK_OPT_-DNESTED_VECTOR_openmp;1300;0;2723
mmul_-DIJK_OPT_-DNESTED_VECTOR_openmp;1400;0;3305
mmul_-DIJK_OPT_-DNESTED_VECTOR_openmp;1500;0;4078
mmul_-DIKJ_-DNESTED_VECTOR;100;0;1
mmul_-DIKJ_-DNESTED_VECTOR;200;0;6
mmul_-DIKJ_-DNESTED_VECTOR;300;0;19
mmul_-DIKJ_-DNESTED_VECTOR;400;0;38
mmul_-DIKJ_-DNESTED_VECTOR;500;0;70
mmul_-DIKJ_-DNESTED_VECTOR;600;0;116
mmul_-DIKJ_-DNESTED_VECTOR;700;0;186
mmul_-DIKJ_-DNESTED_VECTOR;800;0;299
mmul_-DIKJ_-DNESTED_VECTOR;900;0;439
mmul_-DIKJ_-DNESTED_VECTOR;1000;0;647
mmul_-DIKJ_-DNESTED_VECTOR;1100;0;826
mmul_-DIKJ_-DNESTED_VECTOR;1200;0;1081
mmul_-DIKJ_-DNESTED_VECTOR;1300;0;1393
mmul_-DIKJ_-DNESTED_VECTOR;1400;0;1740
mmul_-DIKJ_-DNESTED_VECTOR;1500;0;2153
mmul_-DIKJ_-DNESTED_VECTOR_openmp;100;0;2
mmul_-DIKJ_-DNESTED_VECTOR_openmp;200;0;2
mmul_-DIKJ_-DNESTED_VECTOR_openmp;300;0;8
mmul_-DIKJ_-DNESTED_VECTOR_openmp;400;0;14
mmul_-DIKJ_-DNESTED_VECTOR_openmp;500;0;25
mmul_-DIKJ_-DNESTED_VECTOR_openmp;600;0;37
mmul_-DIKJ_-DNESTED_VECTOR_openmp;700;0;60
mmul_-DIKJ_-DNESTED_VECTOR_openmp;800;0;89
mmul_-DIKJ_-DNESTED_VECTOR_openmp;900;0;126
mmul_-DIKJ_-DNESTED_VECTOR_openmp;1000;0;178
mmul_-DIKJ_-DNESTED_VECTOR_openmp;1100;0;243
mmul_-DIKJ_-DNESTED_VECTOR_openmp;1200;0;319
mmul_-DIKJ_-DNESTED_VECTOR_openmp;1300;0;417
mmul_-DIKJ_-DNESTED_VECTOR_openmp;1400;0;554
mmul_-DIKJ_-DNESTED_VECTOR_openmp;1500;0;657
mmul_-DIKJ_OPT_-DNESTED_VECTOR;100;0;1
mmul_-DIKJ_OPT_-DNESTED_VECTOR;200;0;7
mmul_-DIKJ_OPT_-DNESTED_VECTOR;300;0;19
mmul_-DIKJ_OPT_-DNESTED_VECTOR;400;0;40
mmul_-DIKJ_OPT_-DNESTED_VECTOR;500;0;68
mmul_-DIKJ_OPT_-DNESTED_VECTOR;600;0;116
mmul_-DIKJ_OPT_-DNESTED_VECTOR;700;0;182
mmul_-DIKJ_OPT_-DNESTED_VECTOR;800;0;269
mmul_-DIKJ_OPT_-DNESTED_VECTOR;900;0;393
mmul_-DIKJ_OPT_-DNESTED_VECTOR;1000;0;557
mmul_-DIKJ_OPT_-DNESTED_VECTOR;1100;0;751
mmul_-DIKJ_OPT_-DNESTED_VECTOR;1200;0;992
mmul_-DIKJ_OPT_-DNESTED_VECTOR;1300;0;1288
mmul_-DIKJ_OPT_-DNESTED_VECTOR;1400;0;1602
mmul_-DIKJ_OPT_-DNESTED_VECTOR;1500;0;1961
mmul_-DIKJ_OPT_-DNESTED_VECTOR_openmp;100;0;1
mmul_-DIKJ_OPT_-DNESTED_VECTOR_openmp;200;0;4
mmul_-DIKJ_OPT_-DNESTED_VECTOR_openmp;300;0;7
mmul_-DIKJ_OPT_-DNESTED_VECTOR_openmp;400;0;13
mmul_-DIKJ_OPT_-DNESTED_VECTOR_openmp;500;0;25
mmul_-DIKJ_OPT_-DNESTED_VECTOR_openmp;600;0;37
mmul_-DIKJ_OPT_-DNESTED_VECTOR_openmp;700;0;59
mmul_-DIKJ_OPT_-DNESTED_VECTOR_openmp;800;0;86
mmul_-DIKJ_OPT_-DNESTED_VECTOR_openmp;900;0;121
mmul_-DIKJ_OPT_-DNESTED_VECTOR_openmp;1000;0;169
mmul_-DIKJ_OPT_-DNESTED_VECTOR_openmp;1100;0;226
mmul_-DIKJ_OPT_-DNESTED_VECTOR_openmp;1200;0;297
mmul_-DIKJ_OPT_-DNESTED_VECTOR_openmp;1300;0;379
mmul_-DIKJ_OPT_-DNESTED_VECTOR_openmp;1400;0;473
mmul_-DIKJ_OPT_-DNESTED_VECTOR_openmp;1500;0;581
