executable;matrix_size;Ret;Timer - Multiplication
mmul_-DIJK_-DNESTED_VECTOR;100;0;1
mmul_-DIJK_-DNESTED_VECTOR;200;0;12
mmul_-DIJK_-DNESTED_VECTOR;300;0;44
mmul_-DIJK_-DNESTED_VECTOR;400;0;126
mmul_-DIJK_-DNESTED_VECTOR;500;0;255
mmul_-DIJK_-DNESTED_VECTOR;600;0;587
mmul_-DIJK_-DNESTED_VECTOR;700;0;1100
mmul_-DIJK_-DNESTED_VECTOR;800;0;1711
mmul_-DIJK_-DNESTED_VECTOR;900;0;2599
mmul_-DIJK_-DNESTED_VECTOR;1000;0;4685
mmul_-DIJK_-DNESTED_VECTOR;1100;0;10387
mmul_-DIJK_-DNESTED_VECTOR;1200;0;16907
mmul_-DIJK_-DNESTED_VECTOR;1300;0;19869
mmul_-DIJK_-DNESTED_VECTOR;1400;0;28468
mmul_-DIJK_-DNESTED_VECTOR;1500;0;37774
mmul_-DIJK_-DNESTED_VECTOR_openmp;100;0;0
mmul_-DIJK_-DNESTED_VECTOR_openmp;200;0;6
mmul_-DIJK_-DNESTED_VECTOR_openmp;300;0;24
mmul_-DIJK_-DNESTED_VECTOR_openmp;400;0;64
mmul_-DIJK_-DNESTED_VECTOR_openmp;500;0;144
mmul_-DIJK_-DNESTED_VECTOR_openmp;600;0;434
mmul_-DIJK_-DNESTED_VECTOR_openmp;700;0;1701
mmul_-DIJK_-DNESTED_VECTOR_openmp;800;0;2671
mmul_-DIJK_-DNESTED_VECTOR_openmp;900;0;3871
mmul_-DIJK_-DNESTED_VECTOR_openmp;1000;0;5434
mmul_-DIJK_-DNESTED_VECTOR_openmp;1100;0;7572
mmul_-DIJK_-DNESTED_VECTOR_openmp;1200;0;10044
mmul_-DIJK_-DNESTED_VECTOR_openmp;1300;0;12903
mmul_-DIJK_-DNESTED_VECTOR_openmp;1400;0;16936
mmul_-DIJK_-DNESTED_VECTOR_openmp;1500;0;21420
mmul_-DIJK_OPT_-DNESTED_VECTOR;100;0;0
mmul_-DIJK_OPT_-DNESTED_VECTOR;200;0;6
mmul_-DIJK_OPT_-DNESTED_VECTOR;300;0;22
mmul_-DIJK_OPT_-DNESTED_VECTOR;400;0;55
mmul_-DIJK_OPT_-DNESTED_VECTOR;500;0;118
mmul_-DIJK_OPT_-DNESTED_VECTOR;600;0;228
mmul_-DIJK_OPT_-DNESTED_VECTOR;700;0;397
mmul_-DIJK_OPT_-DNESTED_VECTOR;800;0;642
mmul_-DIJK_OPT_-DNESTED_VECTOR;900;0;1150
mmul_-DIJK_OPT_-DNESTED_VECTOR;1000;0;1964
mmul_-DIJK_OPT_-DNESTED_VECTOR;1100;0;2882
mmul_-DIJK_OPT_-DNESTED_VECTOR;1200;0;4041
mmul_-DIJK_OPT_-DNESTED_VECTOR;1300;0;5070
mmul_-DIJK_OPT_-DNESTED_VECTOR;1400;0;8157
mmul_-DIJK_OPT_-DNESTED_VECTOR;1500;0;11731
mmul_-DIJK_OPT_-DNESTED_VECTOR_openmp;100;0;0
mmul_-DIJK_OPT_-DNESTED_VECTOR_openmp;200;0;3
mmul_-DIJK_OPT_-DNESTED_VECTOR_openmp;300;0;15
mmul_-DIJK_OPT_-DNESTED_VECTOR_openmp;400;0;29
mmul_-DIJK_OPT_-DNESTED_VECTOR_openmp;500;0;60
mmul_-DIJK_OPT_-DNESTED_VECTOR_openmp;600;0;155
mmul_-DIJK_OPT_-DNESTED_VECTOR_openmp;700;0;394
mmul_-DIJK_OPT_-DNESTED_VECTOR_openmp;800;0;787
mmul_-DIJK_OPT_-DNESTED_VECTOR_openmp;900;0;1315
mmul_-DIJK_OPT_-DNESTED_VECTOR_openmp;1000;0;1976
mmul_-DIJK_OPT_-DNESTED_VECTOR_openmp;1100;0;2767
mmul_-DIJK_OPT_-DNESTED_VECTOR_openmp;1200;0;3758
mmul_-DIJK_OPT_-DNESTED_VECTOR_openmp;1300;0;4880
mmul_-DIJK_OPT_-DNESTED_VECTOR_openmp;1400;0;6581
mmul_-DIJK_OPT_-DNESTED_VECTOR_openmp;1500;0;8322
mmul_-DIKJ_-DNESTED_VECTOR;100;0;0
mmul_-DIKJ_-DNESTED_VECTOR;200;0;4
mmul_-DIKJ_-DNESTED_VECTOR;300;0;18
mmul_-DIKJ_-DNESTED_VECTOR;400;0;40
mmul_-DIKJ_-DNESTED_VECTOR;500;0;69
mmul_-DIKJ_-DNESTED_VECTOR;600;0;136
mmul_-DIKJ_-DNESTED_VECTOR;700;0;224
mmul_-DIKJ_-DNESTED_VECTOR;800;0;344
mmul_-DIKJ_-DNESTED_VECTOR;900;0;496
mmul_-DIKJ_-DNESTED_VECTOR;1000;0;712
mmul_-DIKJ_-DNESTED_VECTOR;1100;0;912
mmul_-DIKJ_-DNESTED_VECTOR;1200;0;1189
mmul_-DIKJ_-DNESTED_VECTOR;1300;0;1513
mmul_-DIKJ_-DNESTED_VECTOR;1400;0;1899
mmul_-DIKJ_-DNESTED_VECTOR;1500;0;2336
mmul_-DIKJ_-DNESTED_VECTOR_openmp;100;0;0
mmul_-DIKJ_-DNESTED_VECTOR_openmp;200;0;2
mmul_-DIKJ_-DNESTED_VECTOR_openmp;300;0;11
mmul_-DIKJ_-DNESTED_VECTOR_openmp;400;0;21
mmul_-DIKJ_-DNESTED_VECTOR_openmp;500;0;45
mmul_-DIKJ_-DNESTED_VECTOR_openmp;600;0;64
mmul_-DIKJ_-DNESTED_VECTOR_openmp;700;0;128
mmul_-DIKJ_-DNESTED_VECTOR_openmp;800;0;173
mmul_-DIKJ_-DNESTED_VECTOR_openmp;900;0;267
mmul_-DIKJ_-DNESTED_VECTOR_openmp;1000;0;371
mmul_-DIKJ_-DNESTED_VECTOR_openmp;1100;0;474
mmul_-DIKJ_-DNESTED_VECTOR_openmp;1200;0;638
mmul_-DIKJ_-DNESTED_VECTOR_openmp;1300;0;788
mmul_-DIKJ_-DNESTED_VECTOR_openmp;1400;0;1012
mmul_-DIKJ_-DNESTED_VECTOR_openmp;1500;0;1290
mmul_-DIKJ_OPT_-DNESTED_VECTOR;100;0;0
mmul_-DIKJ_OPT_-DNESTED_VECTOR;200;0;4
mmul_-DIKJ_OPT_-DNESTED_VECTOR;300;0;17
mmul_-DIKJ_OPT_-DNESTED_VECTOR;400;0;33
mmul_-DIKJ_OPT_-DNESTED_VECTOR;500;0;68
mmul_-DIKJ_OPT_-DNESTED_VECTOR;600;0;114
mmul_-DIKJ_OPT_-DNESTED_VECTOR;700;0;192
mmul_-DIKJ_OPT_-DNESTED_VECTOR;800;0;298
mmul_-DIKJ_OPT_-DNESTED_VECTOR;900;0;438
mmul_-DIKJ_OPT_-DNESTED_VECTOR;1000;0;611
mmul_-DIKJ_OPT_-DNESTED_VECTOR;1100;0;811
mmul_-DIKJ_OPT_-DNESTED_VECTOR;1200;0;1041
mmul_-DIKJ_OPT_-DNESTED_VECTOR;1300;0;1301
mmul_-DIKJ_OPT_-DNESTED_VECTOR;1400;0;1605
mmul_-DIKJ_OPT_-DNESTED_VECTOR;1500;0;1951
mmul_-DIKJ_OPT_-DNESTED_VECTOR_openmp;100;0;0
mmul_-DIKJ_OPT_-DNESTED_VECTOR_openmp;200;0;2
mmul_-DIKJ_OPT_-DNESTED_VECTOR_openmp;300;0;12
mmul_-DIKJ_OPT_-DNESTED_VECTOR_openmp;400;0;26
mmul_-DIKJ_OPT_-DNESTED_VECTOR_openmp;500;0;41
mmul_-DIKJ_OPT_-DNESTED_VECTOR_openmp;600;0;68
mmul_-DIKJ_OPT_-DNESTED_VECTOR_openmp;700;0;109
mmul_-DIKJ_OPT_-DNESTED_VECTOR_openmp;800;0;161
mmul_-DIKJ_OPT_-DNESTED_VECTOR_openmp;900;0;242
mmul_-DIKJ_OPT_-DNESTED_VECTOR_openmp;1000;0;332
mmul_-DIKJ_OPT_-DNESTED_VECTOR_openmp;1100;0;442
mmul_-DIKJ_OPT_-DNESTED_VECTOR_openmp;1200;0;557
mmul_-DIKJ_OPT_-DNESTED_VECTOR_openmp;1300;0;705
mmul_-DIKJ_OPT_-DNESTED_VECTOR_openmp;1400;0;869
mmul_-DIKJ_OPT_-DNESTED_VECTOR_openmp;1500;0;1072
