Timer - Multiplication;Ret;executable;matrix_size
242;0;mmul_nested_vec;700
227;0;mmul_nested_vec;700
214;0;mmul_nested_vec;700
301;0;mmul_nested_vec;700
213;0;mmul_nested_vec;700
226;0;mmul_nested_vec;700
212;0;mmul_nested_vec;700
