Timer - Multiplication;Ret;executable;matrix_size
299;0;mmul_nested_vec;600
191;0;mmul_nested_vec;600
105;0;mmul_nested_vec;600
105;0;mmul_nested_vec;600
143;0;mmul_nested_vec;600
123;0;mmul_nested_vec;600
212;0;mmul_nested_vec;600
