Timer - Multiplication;Ret;executable;matrix_size
13;0;mmul_cont_with_indir;300
17;0;mmul_cont_with_indir;300
12;0;mmul_cont_with_indir;300
17;0;mmul_cont_with_indir;300
17;0;mmul_cont_with_indir;300
18;0;mmul_cont_with_indir;300
13;0;mmul_cont_with_indir;300
