cpu-clock:u;task-clock:u;context-switches:u;cpu-migrations:u;page-faults:u;cycles:u;stalled-cycles-frontend:u;instructions:u;branches:u;branch-misses:u;L1-dcache-loads:u;L1-dcache-load-misses:u;L1-dcache-stores:u;LLC-loads:u;LLC-load-misses:u;LLC-stores:u;LLC-prefetches:u;cache-references:u;cache-misses:u;bus-cycles:u;dTLB-loads:u;dTLB-load-misses:u;dTLB-prefetch-misses:u;executable;matrix_size
51,42;51,42;0;0;1061;136593531;<not supported>;186809680;19964002;153562;53142612;7331063;34732701;667959;21107;26;<not supported>;14503849;217503;5084065;71891979;3631;<not supported>;mmul_nested_vec;400
44,83;44,83;0;0;1062;60431640;<not supported>;136511144;26081266;174224;58858252;8295506;34615568;631047;9022;34;<not supported>;14163287;190656;4274567;67312232;8760;<not supported>;mmul_nested_vec;400
51,95;51,96;0;0;1063;117288987;<not supported>;208022777;28403404;177919;59871844;8730611;34065028;384607;14955;92;<not supported>;11553103;155791;5133342;68630256;5198;<not supported>;mmul_nested_vec;400
54,32;54,32;0;0;1062;148913409;<not supported>;223383820;29168248;170588;57956450;8164285;34957660;403567;14787;88;<not supported>;11060139;222508;5351969;70224021;4147;<not supported>;mmul_nested_vec;400
55,76;55,77;0;0;1063;161239444;<not supported>;230792942;28797220;168579;52546931;7254967;34351679;613532;49685;206;<not supported>;12609831;474893;5467388;71932182;2129;<not supported>;mmul_nested_vec;400
51,21;51,22;0;0;1062;122279881;<not supported>;210797038;27981339;172829;57859254;8698509;34786725;674079;21361;523;<not supported>;12300505;158198;5073951;66334118;6998;<not supported>;mmul_nested_vec;400
51,87;51,87;0;0;1062;118525184;<not supported>;200641581;27275030;177055;59839548;9036148;35532773;675420;20523;39;<not supported>;12083071;238754;5119505;68057162;6295;<not supported>;mmul_nested_vec;400
