cpu-clock:u;task-clock:u;context-switches:u;cpu-migrations:u;page-faults:u;cycles:u;stalled-cycles-frontend:u;instructions:u;branches:u;branch-misses:u;L1-dcache-loads:u;L1-dcache-load-misses:u;L1-dcache-stores:u;LLC-loads:u;LLC-load-misses:u;LLC-stores:u;LLC-prefetches:u;cache-references:u;cache-misses:u;bus-cycles:u;dTLB-loads:u;dTLB-load-misses:u;dTLB-prefetch-misses:u;executable;matrix_size
61,86;61,86;0;0;1583;188254079;<not supported>;447289897;57270010;245839;109096900;13591691;67176264;2862012;71493;23;<not supported>;23242947;383717;6135821;139683747;630;<not supported>;mmul_cont_with_indir;500
67,80;67,80;0;0;1581;207102520;<not supported>;479983346;60480694;243207;112280923;14363691;63059386;2905823;92374;127;<not supported>;23941486;640005;6711550;142580947;1411;<not supported>;mmul_cont_with_indir;500
62,00;62,00;0;0;1584;187016149;<not supported>;448266962;54030915;233716;103587839;13196943;70319006;2987290;25591;240;<not supported>;23774716;127609;6138787;140279284;817;<not supported>;mmul_cont_with_indir;500
64,79;64,79;0;0;1583;180808423;<not supported>;450230401;57123989;244058;108645901;15907893;72278787;3048743;33061;211;<not supported>;22792334;499219;6415547;129817637;1261;<not supported>;mmul_cont_with_indir;500
79,28;79,28;0;0;1583;227360162;<not supported>;440208543;59561716;270052;128364422;17190074;68645157;1507034;16762;10;<not supported>;25138856;106254;7782600;128784735;936;<not supported>;mmul_cont_with_indir;500
64,34;64,34;0;0;1582;186201679;<not supported>;471263149;59781569;242974;103197258;13825349;60322537;2761236;95619;153;<not supported>;24131656;199511;6375154;145115414;684;<not supported>;mmul_cont_with_indir;500
60,86;60,86;0;0;1583;181196234;<not supported>;437559714;56179839;243336;106681054;14005193;68177385;2874942;30960;479;<not supported>;23161474;145259;6036888;138370053;681;<not supported>;mmul_cont_with_indir;500
