cpu-clock:u;task-clock:u;context-switches:u;cpu-migrations:u;page-faults:u;cycles:u;stalled-cycles-frontend:u;instructions:u;branches:u;branch-misses:u;L1-dcache-loads:u;L1-dcache-load-misses:u;L1-dcache-stores:u;LLC-loads:u;LLC-load-misses:u;LLC-stores:u;LLC-prefetches:u;cache-references:u;cache-misses:u;bus-cycles:u;dTLB-loads:u;dTLB-load-misses:u;dTLB-prefetch-misses:u;executable;matrix_size
110,24;110,24;0;0;1590;303482835;<not supported>;467351088;60691101;263256;116259635;15849289;63567782;1683757;263256;256;<not supported>;25201405;4333358;10852198;135840743;20333;<not supported>;mmul_nested_vec;500
110,00;110,00;0;0;1593;298929432;<not supported>;459996316;57820903;271364;120442648;16756896;69107857;1415965;210801;227;<not supported>;24140840;3769286;10717040;129749216;30252;<not supported>;mmul_nested_vec;500
117,77;117,79;0;0;1591;310740552;<not supported>;456775150;59258780;271457;120862437;16645520;65193857;1451358;299114;169;<not supported>;23598813;6012288;11165843;130322498;21995;<not supported>;mmul_nested_vec;500
114,52;114,53;0;0;1592;343525186;<not supported>;496135476;60401594;260374;115136197;15029889;65249158;1772629;294314;217;<not supported>;25917170;4836351;11317818;135594422;30018;<not supported>;mmul_nested_vec;500
116,58;116,59;0;0;1592;322256638;<not supported>;464998823;59635292;258968;115925885;16476304;64915467;1237521;218140;226;<not supported>;23612434;4334066;11501714;135051165;15005;<not supported>;mmul_nested_vec;500
113,80;113,80;0;0;1592;316037609;<not supported>;442479466;58728900;264587;117161984;16451286;66970400;1334320;237442;185;<not supported>;23958286;4745251;11278522;127943461;14599;<not supported>;mmul_nested_vec;500
118,56;118,57;0;0;1592;356002071;<not supported>;483920127;60552383;261127;111299211;15188343;65780162;1788509;295053;361;<not supported>;24754789;6692817;11689701;135122369;31218;<not supported>;mmul_nested_vec;500
