cpu-clock:u;task-clock:u;context-switches:u;cpu-migrations:u;page-faults:u;cycles:u;stalled-cycles-frontend:u;instructions:u;branches:u;branch-misses:u;L1-dcache-loads:u;L1-dcache-load-misses:u;L1-dcache-stores:u;LLC-loads:u;LLC-load-misses:u;LLC-stores:u;LLC-prefetches:u;cache-references:u;cache-misses:u;bus-cycles:u;dTLB-loads:u;dTLB-load-misses:u;dTLB-prefetch-misses:u;executable;matrix_size
1461,66;1461,66;0;0;8558;4468258633;<not supported>;7033952831;878121400;1475127;1704647279;229791495;856323513;47310469;14159340;960;<not supported>;360473945;219561829;144325687;1768404189;312908;<not supported>;mmul_cont_with_indir;1200
1139,20;1139,20;0;0;8560;3459466528;<not supported>;7048932917;886664555;1462512;1705263576;220724775;871833133;61831470;18861863;1065;<not supported>;346317547;215605320;110533833;1764202620;192816;<not supported>;mmul_cont_with_indir;1200
1102,90;1102,90;0;0;8556;3400293885;<not supported>;7049585629;871456271;1452075;1682535360;214365874;843438441;61825666;19256904;1294;<not supported>;356325420;220433967;108006057;1798070573;155137;<not supported>;mmul_cont_with_indir;1200
1096,66;1096,66;0;0;8559;3361507079;<not supported>;6990190004;867263763;1459301;1687986962;216264063;847637611;62337706;19545919;1211;<not supported>;358498235;221920870;106546440;1786808376;140605;<not supported>;mmul_cont_with_indir;1200
1085,17;1085,17;0;0;8559;3320259199;<not supported>;6984847818;866003379;1441133;1664482141;215082359;849388292;58991202;16605078;3535;<not supported>;356412959;213824487;105953809;1819307689;156464;<not supported>;mmul_cont_with_indir;1200
1211,88;1211,88;0;0;8557;3695560828;<not supported>;7018628297;880910740;1453018;1700871412;215400238;859296222;58447300;17307218;4037;<not supported>;356418570;211873139;119705281;1773745845;161459;<not supported>;mmul_cont_with_indir;1200
1219,07;1219,07;0;0;8560;3739658911;<not supported>;7121816070;883828351;1475015;1711482394;214089473;839713420;55868445;16690477;3734;<not supported>;354700966;212294528;120754282;1789039766;139480;<not supported>;mmul_cont_with_indir;1200
