executable;matrix_size;L1-dcache-load-misses;L1-dcache-loads;L1-dcache-stores;LLC-load-misses;LLC-loads;LLC-prefetches;LLC-stores;branch-misses;branches;bus-cycles;cache-misses;cache-references;context-switches;cpu-clock;cpu-migrations;cycles;dTLB-load-misses;dTLB-loads;dTLB-prefetch-misses;instructions;page-faults;stalled-cycles-frontend;task-clock
mmul_cont_with_indir;100;0.0;0.0;0.0;0.0;0.0;0.0;0.0;27912.14285714286;1159150.2857142857;0.0;0.0;0.0;0.0;3.0214285714285714;0.0;5138339.857142857;0.0;0.0;0.0;7801448.285714285;176.0;2220000.0;3.0214285714285714
mmul_cont_with_indir;200;0.0;624640.7142857143;0.0;0.0;0.0;0.0;0.0;59773.0;5052906.428571428;0.0;0.0;0.0;0.0;11.261428571428569;0.0;17751301.0;0.0;0.0;0.0;37089245.85714286;355.85714285714283;6973634.714285715;11.261428571428569
mmul_cont_with_indir;300;4808310.142857143;40721312.28571428;9559601.857142856;0.0;0.0;0.0;0.0;103296.57142857143;11321645.285714285;0.0;0.0;0.0;0.42857142857142855;22.69857142857143;0.0;39668440.571428575;0.0;0.0;0.0;76844568.28571428;645.4285714285714;13925250.42857143;22.69857142857143
mmul_cont_with_indir;400;9941234.857142856;69844075.42857143;41012325.85714286;0.0;306550.28571428574;10016476.285714285;361.42857142857144;148903.14285714287;20585010.714285713;4386494.857142857;51620.28571428572;359543.0;0.0;44.462857142857146;0.0;78214721.0;0.0;0.0;0.0;139781795.14285713;1058.2857142857142;39400175.71428572;44.462857142857146
mmul_cont_with_indir;500;18067937.0;139056048.85714287;71671401.71428572;0.0;588556.2857142857;17836198.85714286;448.57142857142856;252309.85714285713;56802607.0;7682065.714285715;13619.857142857143;507292.71428571426;1.1428571428571428;77.53428571428572;0.0;210226680.42857143;42072.142857142855;145958730.42857143;0.0;431742775.4285714;1585.857142857143;32422689.0;77.53428571428572
mmul_cont_with_indir;600;29739706.85714286;234683347.14285713;118897861.57142857;0.0;882308.1428571428;29622223.14285714;732.7142857142857;356748.4285714286;94451853.57142857;12497694.42857143;67115.57142857143;802439.8571428572;3.5714285714285716;126.04571428571428;0.0;354308485.4285714;485455.71428571426;241540838.57142857;0.0;695190481.7142857;2231.4285714285716;63857629.571428575;126.04571428571428
mmul_cont_with_indir;700;46215608.28571428;366164411.85714287;182388813.0;0.0;2594736.1428571427;44501480.0;995.1428571428571;493351.4285714286;161079624.57142857;19468659.14285714;873264.4285714285;2435655.5714285714;5.0;197.15714285714287;0.0;587961661.5714285;745865.4285714285;369817098.14285713;0.0;1253650985.4285715;2994.1428571428573;76085225.57142857;197.15714285714287
mmul_cont_with_indir;800;68362670.14285715;538067020.8571428;272061840.14285713;0.0;7882583.571428572;62145749.85714286;2099.1428571428573;657297.1428571428;244136081.0;30499984.42857143;3120356.0;6365246.857142857;0.7142857142857143;308.4185714285714;0.0;922636311.0;1091267.2857142857;527412726.4285714;0.0;1947223132.142857;3873.285714285714;134670825.42857143;308.4185714285714
mmul_cont_with_indir;900;95563163.0;758506200.8571428;379759135.4285714;0.0;20445495.285714287;82004710.14285715;3125.714285714286;836780.7142857143;359286820.4285714;44469425.71428572;7146610.857142857;14309750.857142856;8.142857142857142;449.78571428571433;0.0;1365430639.7142856;1541541.857142857;762432574.0;0.0;2831184417.142857;4870.571428571428;260240641.14285713;449.78571428571433
mmul_cont_with_indir;1000;129883115.28571428;1018027028.0;517853403.71428573;0.0;42226190.0;103032474.71428572;5069.285714285715;1036654.7142857143;497572680.0;62625998.85714286;13708854.57142857;28311930.0;8.714285714285714;633.2114285714287;0.0;1914976361.5714285;2080555.857142857;1031082455.7142857;0.0;3967995201.142857;5984.142857142857;381199624.71428573;633.21
mmul_cont_with_indir;1100;170310102.0;1343930096.0;682744508.5714285;0.0;88265055.42857143;119698720.14285715;9813.42857142857;1255084.0;668791116.2857143;84116092.71428572;23863107.0;54067367.14285714;20.714285714285715;849.7757142857143;0.0;2603441384.714286;2765267.714285714;1376755395.5714285;0.0;5318179702.0;7214.428571428572;556992108.7142857;849.7757142857143
mmul_cont_with_indir;1200;217419040.2857143;1736288580.0;882476234.0;0.0;146262262.2857143;138287604.57142857;11126.857142857143;1495590.0;871461381.8571428;109503261.28571428;37181276.571428575;87155672.42857143;19.285714285714285;1107.9671428571428;0.0;3411995971.285714;3578647.5714285714;1781140640.5714285;0.0;6947083438.142858;8561.42857142857;742868408.8571428;1107.9685714285713
mmul_cont_with_indir;1300;275606183.5714286;2218555953.571429;1118982702.857143;0.0;212603302.0;160284958.0;11266.57142857143;1757635.4285714286;1109849585.0;140061804.2857143;52504348.0;125243550.42857143;22.142857142857142;1417.9542857142858;0.0;4351582689.142858;4533859.857142857;2251153860.0;0.0;8858796897.285715;10027.142857142857;972263264.4285715;1417.9514285714286
mmul_cont_with_indir;1400;345444750.5714286;2768793551.0;1389309431.7142856;0.0;285688273.28571427;188233019.14285713;209414.85714285713;2034885.7142857143;1385972458.5714285;174883103.0;70934997.28571428;168650308.42857143;27.428571428571427;1769.1971428571428;0.0;5445764358.857142;5652216.714285715;2804350262.571429;0.0;11059393459.0;11611.857142857143;1237016672.0;1769.1914285714283
mmul_cont_with_indir;1500;426800026.71428573;3411280538.571429;1709162383.0;0.0;361812921.85714287;222753862.2857143;1254172.2857142857;2331668.1428571427;1705154349.5714285;215499608.7142857;91453721.57142857;215440893.42857143;29.428571428571427;2181.6028571428574;0.0;6716949587.571428;6961344.142857143;3449440489.857143;0.0;13574979411.857143;13308.42857142857;1575194497.4285715;2181.598571428571
mmul_cont_with_mult;100;0.0;0.0;0.0;0.0;0.0;0.0;0.0;28530.285714285714;1648471.857142857;0.0;0.0;0.0;0.2857142857142857;3.8671428571428565;0.0;6903453.571428572;0.0;0.0;0.0;13654856.857142856;173.71428571428572;2286999.285714286;3.8671428571428565
mmul_cont_with_mult;200;563614.7142857143;24245694.0;0.0;0.0;0.0;0.0;0.0;59304.42857142857;7924841.285714285;0.0;0.0;0.0;0.5714285714285714;16.162857142857142;0.0;26532648.42857143;0.0;0.0;0.0;69243272.42857143;351.85714285714283;9416587.714285715;16.16142857142857
mmul_cont_with_mult;300;4416320.285714285;95330916.71428572;35372697.85714286;0.0;95094.42857142857;3872317.5714285714;1136.857142857143;100938.42857142857;18220393.714285713;2112786.285714286;99932.14285714286;293475.5714285714;0.0;37.24142857142857;0.0;62037317.28571428;0.0;0.0;0.0;143932140.0;642.4285714285714;23742653.0;37.24142857142857
mmul_cont_with_mult;400;8926833.42857143;200326625.2857143;72541233.85714285;0.0;183293.2857142857;9024569.714285715;336.85714285714283;183494.7142857143;58559960.14285714;7454358.142857143;6366.285714285715;182627.57142857142;0.5714285714285714;75.93857142857142;0.0;211064612.57142857;5492.714285714285;217644752.57142857;0.0;559279983.2857143;1054.4285714285713;26070242.85714286;75.93857142857142
mmul_cont_with_mult;500;16809843.42857143;386534286.28571427;133883814.71428572;0.0;359828.85714285716;16549054.714285715;694.1428571428571;286281.4285714286;119190316.85714285;13681369.0;15208.285714285714;348074.71428571426;1.2857142857142858;139.00142857142856;0.0;410098185.14285713;20640.14285714286;398780042.28571427;0.0;1150491661.857143;1582.5714285714287;41530874.428571425;139.00142857142856
mmul_cont_with_mult;600;28757603.714285713;679845752.4285715;228081601.0;0.0;626989.2857142857;28062477.285714287;1027.4285714285713;395613.4285714286;206217850.2857143;23338697.85714286;159313.57142857142;934132.8571428572;0.8571428571428571;236.57857142857145;0.0;695421316.7142857;448967.85714285716;653475720.2857143;0.0;1998443585.142857;2226.5714285714284;59279991.14285714;236.57857142857145
mmul_cont_with_mult;700;44702041.0;1065858719.2857143;356534711.85714287;0.0;1265133.2857142857;43135592.0;2566.714285714286;534444.1428571428;335361558.0;36482132.571428575;480202.0;1547346.7142857143;2.5714285714285716;368.68428571428564;0.0;1115969654.2857144;713416.2857142857;1053171827.7142857;0.0;3271454721.0;2989.8571428571427;80014827.85714285;368.68285714285713
mmul_cont_with_mult;800;66384065.14285714;1576578021.2857144;520697029.5714286;0.0;3403178.5714285714;63651461.428571425;3659.5714285714284;690468.2857142857;505465876.5714286;54071514.71428572;1153220.5714285714;2828404.8571428573;3.7142857142857144;546.66;0.0;1671780972.5714285;1053268.0;1574519182.0;0.0;4978844071.571428;3869.1428571428573;118286144.42857143;546.66
mmul_cont_with_mult;900;93652812.85714285;2203796274.857143;743073276.7142857;0.0;6689492.0;88778142.0;4522.285714285715;869523.7142857143;727004768.7142857;77819445.57142857;2745895.1428571427;5557141.142857143;9.285714285714286;786.6057142857143;0.0;2410225342.428571;1490441.2857142857;2242637630.0;0.0;7197928318.857142;4864.714285714285;188398514.42857143;786.6085714285715
mmul_cont_with_mult;1000;128217733.57142857;3012259834.571429;1021332769.4285715;0.0;14516422.0;117961252.71428572;7754.857142857143;1064730.142857143;996705341.4285715;106940269.42857143;5612918.857142857;11233878.57142857;8.285714285714286;1081.292857142857;0.14285714285714285;3319764388.428571;2041440.2857142857;3047460418.857143;0.0;9897792091.428572;5976.714285714285;283458237.0;1081.2914285714285
mmul_cont_with_mult;1100;170314118.85714287;4004283054.0;1350314041.4285715;0.0;28145236.42857143;151479158.57142857;12265.857142857143;1285598.4285714286;1333090436.5714285;141759202.85714287;9252161.285714285;19467684.714285713;3.5714285714285716;1433.7585714285713;0.14285714285714285;4403544182.428572;2695164.714285714;4054387279.0;0.0;13238454635.0;7208.0;369954102.4285714;1433.7571428571428
mmul_cont_with_mult;1200;220792598.57142857;5178976177.285714;1752529971.142857;0.0;46785826.0;191189910.42857143;10186.142857142857;1522218.857142857;1734711116.4285715;182753496.0;13695227.857142856;31112211.285714287;19.571428571428573;1850.3285714285714;0.5714285714285714;5683362241.857142;3489070.714285714;5255630413.0;0.0;17206472418.142857;8554.57142857143;458786839.4285714;1850.3271428571427
mmul_cont_with_mult;1300;279938996.85714287;6597140966.0;2219552826.428571;0.0;70770841.0;236216415.0;15474.57142857143;1776456.0;2206494697.714286;232798683.42857143;19064540.714285713;45670224.85714286;30.142857142857142;2353.2585714285715;0.2857142857142857;7214991826.428572;4442065.285714285;6679008135.714286;0.0;21919380547.42857;10017.857142857143;563380631.4285715;2353.2585714285715
mmul_cont_with_mult;1400;349730203.28571427;8245435682.285714;2769768370.0;0.0;99233618.85714285;289070729.4285714;361810.85714285716;2052549.2857142857;2756685244.428571;288752696.0;26191788.285714287;64169013.14285714;18.857142857142858;2920.844285714286;0.14285714285714285;8991108115.285715;5560910.857142857;8305635792.0;0.0;27460679688.285713;11602.714285714286;676543279.7142857;2920.838571428572
mmul_cont_with_mult;1500;431047933.71428573;10145925600.285715;3400719739.428571;0.0;133875792.28571428;348219172.28571427;2206255.714285714;2347497.8571428573;3388314377.857143;353540735.0;34326297.85714286;85556116.28571428;48.42857142857143;3576.4142857142856;0.0;11027387742.0;6809167.857142857;10222378780.285715;0.0;33790594882.714287;13301.0;804057472.7142857;3576.4085714285716
mmul_nested_vec;100;0.0;0.0;0.0;0.0;0.0;0.0;0.0;28209.85714285714;1192513.2857142857;0.0;0.0;0.0;0.0;2.7971428571428567;0.0;5358004.142857143;0.0;0.0;0.0;7970813.428571428;177.42857142857142;2323840.285714286;2.7971428571428567
mmul_nested_vec;200;0.0;0.0;0.0;0.0;0.0;0.0;0.0;59655.142857142855;5116197.571428572;0.0;0.0;0.0;0.0;10.685714285714285;0.0;19197427.0;0.0;0.0;0.0;37832982.428571425;356.2857142857143;6419652.714285715;10.684285714285716
mmul_nested_vec;300;3061230.714285714;33925413.571428575;7565010.285714285;0.0;0.0;0.0;0.0;105053.71428571429;13421740.142857144;0.0;0.0;0.0;1.2857142857142858;20.812857142857148;0.0;44264168.428571425;0.0;0.0;0.0;98597831.85714285;652.4285714285714;12880872.714285715;20.812857142857148
mmul_nested_vec;400;9445678.0;72220364.42857143;37408577.14285714;0.0;367956.14285714284;8938489.285714285;1100.857142857143;166439.42857142858;24161457.714285713;3398098.5714285714;78932.28571428571;454893.85714285716;0.5714285714285714;44.938571428571436;0.0;96714264.14285715;17227.714285714286;24903426.85714286;0.0;172612730.7142857;1066.4285714285713;44409477.85714286;44.938571428571436
mmul_nested_vec;500;17749103.14285714;136657790.57142857;69242218.71428572;0.0;577181.7142857143;16956557.57142857;592.0;266044.85714285716;59064932.0;7700494.0;68512.57142857143;580336.5714285715;0.8571428571428571;77.42714285714285;0.0;223143469.14285713;13323.142857142857;145894248.7142857;0.0;455932082.4285714;1594.5714285714287;38273696.428571425;77.42571428571429
mmul_nested_vec;600;29882526.285714287;228749407.14285713;120143447.28571428;0.0;1050821.142857143;29618581.57142857;801.4285714285714;355555.0;94820543.71428572;12455670.285714285;124342.85714285714;922122.1428571428;0.2857142857142857;126.06428571428572;0.0;373924829.5714286;495764.14285714284;247995433.0;0.0;724837475.0;2242.8571428571427;60644734.71428572;126.06428571428572
mmul_nested_vec;700;46459723.0;368181886.28571427;184622826.0;0.0;2467324.285714286;44126082.428571425;1079.2857142857142;511002.4285714286;165234021.0;19648140.285714287;880341.7142857143;2390017.5714285714;1.8571428571428572;198.76857142857145;0.0;595510319.4285715;753206.4285714285;358690049.14285713;0.0;1272347361.142857;3008.0;81322780.71428572;198.76857142857145
mmul_nested_vec;800;68591622.14285715;542888628.5714285;270461317.0;0.0;6332194.571428572;63336169.428571425;1991.7142857142858;665016.7142857143;245351249.7142857;30564047.57142857;2888822.714285714;5652020.428571428;0.2857142857142857;309.0214285714286;0.0;924987182.0;1107349.857142857;527445545.5714286;0.0;1956179241.142857;3889.5714285714284;137319944.7142857;309.0214285714286
mmul_nested_vec;900;96385819.42857143;761558339.7142857;377783153.0;0.0;19178872.85714286;82593530.71428572;3261.714285714286;844613.2857142857;359117196.4285714;44598655.71428572;6832038.857142857;13730151.714285715;5.285714285714286;450.61428571428576;0.0;1368424184.5714285;1575690.857142857;762029962.4285715;0.0;2855659756.714286;4888.571428571428;248424881.7142857;450.61428571428576
mmul_nested_vec;1000;131134511.42857143;1030326920.2857143;516682521.14285713;0.0;45018156.0;101788470.28571428;5039.285714285715;1043166.5714285715;497151002.4285714;62753991.85714286;13826190.857142856;29558731.14285714;5.0;634.1914285714286;0.0;1916217634.142857;2116933.4285714286;1032962289.4285715;0.0;3966324572.142857;6004.571428571428;374506480.71428573;634.1914285714286
mmul_nested_vec;1100;172146640.2857143;1356452300.7142856;679137256.2857143;0.0;88007314.71428572;119591636.57142857;7832.0;1267287.4285714286;668556151.7142857;85218796.0;24158506.714285713;54790693.71428572;5.428571428571429;861.4728571428572;0.14285714285714285;2609166260.285714;2775937.8571428573;1369824086.2857144;0.0;5323007739.0;7236.714285714285;571569661.8571428;861.4742857142857
mmul_nested_vec;1200;219752927.14285713;1743474010.857143;877487563.4285715;0.0;148155113.85714287;138402973.0;8701.714285714286;1499435.857142857;869043904.5714285;109730460.85714285;37159758.571428575;87659419.14285715;10.0;1109.8742857142856;0.0;3384181844.857143;3595775.714285714;1776032450.7142856;0.0;6926824777.714286;8588.42857142857;740799081.2857143;1109.8742857142856
mmul_nested_vec;1300;280213807.85714287;2220156879.285714;1120978110.857143;0.0;216665199.0;159110086.7142857;376918.71428571426;1767410.7142857143;1114265396.0;144490246.57142857;53254407.428571425;127217861.0;9.857142857142858;1465.7814285714287;0.0;4414639669.714286;4570125.0;2255119189.428571;0.0;8856489593.285715;10055.714285714286;1050471547.5714285;1465.7814285714287
mmul_nested_vec;1400;347983650.4285714;2771746317.142857;1391567998.142857;0.0;285337812.71428573;189143098.42857143;784450.2857142857;2039724.2857142857;1391743215.2857144;176167935.14285713;71089903.71428572;169103964.42857143;28.428571428571427;1779.062857142857;0.0;5461184652.428572;5686255.285714285;2808306281.142857;0.0;11051731035.0;11642.0;1268841514.857143;1779.0614285714285
mmul_nested_vec;1500;429742042.5714286;3410587344.428571;1708404392.142857;0.0;360558848.85714287;223701618.57142857;2375666.714285714;2334395.5714285714;1709034339.857143;216856135.57142857;91123669.14285715;215529922.7142857;13.285714285714286;2191.174285714286;0.14285714285714285;6698127570.571428;6942804.285714285;3444663280.857143;0.0;13597437009.428572;13343.285714285714;1550085295.857143;2191.1699999999996
