cpu-clock;task-clock;context-switches;cpu-migrations;page-faults;cycles;stalled-cycles-frontend;instructions;branches;branch-misses;L1-dcache-loads;L1-dcache-load-misses;L1-dcache-stores;LLC-loads;LLC-load-misses;LLC-stores;LLC-prefetches;cache-references;cache-misses;bus-cycles;dTLB-loads;dTLB-load-misses;dTLB-prefetch-misses;executable;matrix_size
437,58;437,58;9;0;6478;1228290859;181170510;2933249797;328937238;815210;1096964379;51694841;383019262;6097789;<not supported>;6962;56587513;5807223;1301821;43549132;1100649487;1398924;<not supported>;mmul_-DIKJ_OPT_-DNESTED_VECTOR;900
437,58;437,58;9;0;6478;1261892467;119126251;3454193220;384629258;832798;1146648400;51371511;389055563;5713613;<not supported>;2261;59113069;5596194;823798;43560126;1130989851;1344940;<not supported>;mmul_-DIKJ_OPT_-DNESTED_VECTOR;900
427,92;427,92;15;0;6479;1186670544;127504336;2927043546;325090463;802324;1047536466;51822845;389257436;5966413;<not supported>;2421;56088998;6828530;1574465;42550484;1126623675;1411653;<not supported>;mmul_-DIKJ_OPT_-DNESTED_VECTOR;900
427,92;427,92;15;0;6479;1254117740;88852515;3537380755;392146516;850699;1155416974;51570176;384641083;5787008;<not supported>;2803;57815153;5611826;914109;42600524;1154566620;1388468;<not supported>;mmul_-DIKJ_OPT_-DNESTED_VECTOR;900
412,14;412,14;0;0;6480;1211030476;126562089;2952662013;329854594;803017;1060670485;51762553;348039735;8039012;<not supported>;1873;56957790;5833567;1157571;40920877;1142865649;1379579;<not supported>;mmul_-DIKJ_OPT_-DNESTED_VECTOR;900
412,14;412,14;0;0;6480;1235752798;90469534;3469804690;385152392;834801;1138148288;51414029;385426886;6269565;<not supported>;1838;58801821;5860888;1095008;40887972;1174669041;1415351;<not supported>;mmul_-DIKJ_OPT_-DNESTED_VECTOR;900
409,71;409,71;0;0;6480;1244499352;132522642;3071084746;341312178;831881;1067467773;51188632;355173848;6318459;<not supported>;1929;58462590;5677073;1299407;40634820;1144732977;1380761;<not supported>;mmul_-DIKJ_OPT_-DNESTED_VECTOR;900
409,71;409,71;0;0;6480;1238988700;95607214;3461410648;385576016;842980;1172507730;52419726;391973856;6136703;<not supported>;1400;58625029;5725742;1064777;40662282;1165477205;1403703;<not supported>;mmul_-DIKJ_OPT_-DNESTED_VECTOR;900
402,18;402,18;1;0;6480;1194622162;129942379;2984223500;333319679;818973;1035430057;49129732;380874421;5824349;<not supported>;1692;57787126;5862877;1333750;39771404;1166457134;1405683;<not supported>;mmul_-DIKJ_OPT_-DNESTED_VECTOR;900
402,18;402,18;1;0;6480;1244332329;90282742;3461245646;384654581;835194;1148501761;51791532;385297049;5755894;<not supported>;1475;58074029;5543134;781447;39958270;1137021863;1359053;<not supported>;mmul_-DIKJ_OPT_-DNESTED_VECTOR;900
397,70;397,70;0;0;6478;1230081115;153742631;3001195147;337527126;817396;1045238168;51617177;382696304;5682600;<not supported>;1641;58243266;5555024;1071835;39183918;1110431680;1344420;<not supported>;mmul_-DIKJ_OPT_-DNESTED_VECTOR;900
397,70;397,70;0;0;6478;1244595443;105345843;3459872139;383716569;839390;1164139053;51641921;384672014;5656836;<not supported>;1591;58460558;5586341;884953;39492966;1168725327;1400060;<not supported>;mmul_-DIKJ_OPT_-DNESTED_VECTOR;900
405,44;405,43;6;0;6481;1216699248;140225902;2999261199;334872710;814214;1028860454;49906019;389781561;6052575;<not supported>;2111;56440391;5596375;1151761;39853333;1160365756;1409647;<not supported>;mmul_-DIKJ_OPT_-DNESTED_VECTOR;900
405,44;405,43;6;0;6481;1248319670;89700615;3506417720;388711406;843731;1155171933;51171072;390156622;6095182;<not supported>;1470;57534081;5652496;858043;40134380;1173177678;1407050;<not supported>;mmul_-DIKJ_OPT_-DNESTED_VECTOR;900
