cpu-clock;task-clock;context-switches;cpu-migrations;page-faults;cycles;stalled-cycles-frontend;instructions;branches;branch-misses;L1-dcache-loads;L1-dcache-load-misses;L1-dcache-stores;LLC-loads;LLC-load-misses;LLC-stores;LLC-prefetches;cache-references;cache-misses;bus-cycles;dTLB-loads;dTLB-load-misses;dTLB-prefetch-misses;executable;matrix_size
110,79;110,79;0;0;2087;164207015;96845550;264217302;39268803;256871;185911095;55168211;68895186;8944186;<not supported>;526;41402;9178719;50296;11009342;212750095;154537;<not supported>;mmul_-DIJK_OPT_-DNESTED_VECTOR;500
110,79;110,79;0;0;2087;328790636;125140666;692739915;69219060;264699;206215327;55627472;69723613;9010889;<not supported>;720;42164;9370815;225044;10922857;<not counted>;<not counted>;<not supported>;mmul_-DIJK_OPT_-DNESTED_VECTOR;500
111,37;111,37;0;0;2089;193539023;110197592;229747765;31162345;234459;204004429;54793435;69655484;8973401;<not supported>;752;38460;9333740;74307;10922937;212999220;150353;<not supported>;mmul_-DIJK_OPT_-DNESTED_VECTOR;500
111,37;111,37;0;0;2089;343562012;130752179;698046380;70231018;267614;214793478;58581728;72165103;9346249;<not supported>;501;37639;9263778;264797;11031249;<not counted>;<not counted>;<not supported>;mmul_-DIJK_OPT_-DNESTED_VECTOR;500
112,61;112,61;0;0;2089;193783053;105982262;210788706;29803903;236553;202283195;55528610;71402939;9282135;<not supported>;943;34899;9306808;48441;11171945;211715877;97061;<not supported>;mmul_-DIJK_OPT_-DNESTED_VECTOR;500
112,61;112,61;0;0;2089;343445021;126641097;707314500;71059397;272377;210431130;55553292;71026171;9364758;<not supported>;521;35929;9289262;204089;11084804;<not counted>;<not counted>;<not supported>;mmul_-DIJK_OPT_-DNESTED_VECTOR;500
116,48;116,48;2;0;2085;219482452;116433509;236990199;32078732;246078;207165452;49038976;40607491;5813661;<not supported>;1020;37337;9699416;75671;11530235;224345579;43699;<not supported>;mmul_-DIJK_OPT_-DNESTED_VECTOR;500
116,48;116,48;2;0;2085;371196934;138113696;758094595;76090376;273355;182505514;58305307;74003654;9848970;<not supported>;684;39683;9899316;74676;11530172;141528516;<not counted>;<not supported>;mmul_-DIJK_OPT_-DNESTED_VECTOR;500
107,48;107,48;0;0;2087;207146915;127523395;258033363;43677407;287715;192521834;52510153;68446994;8979913;<not supported>;484;34627;8956797;42056;10656684;205750263;210810;<not supported>;mmul_-DIJK_OPT_-DNESTED_VECTOR;500
107,48;107,48;0;0;2087;329066965;123972742;683498618;68525788;262491;204011670;54503122;68167920;9005065;<not supported>;484;37176;8582609;220397;10657194;<not counted>;<not counted>;<not supported>;mmul_-DIJK_OPT_-DNESTED_VECTOR;500
113,62;113,62;0;0;2090;156139211;88228137;147421265;24478011;229307;209611292;55939736;66843261;8567408;<not supported>;569;34872;9289514;72640;11239132;214609148;46083;<not supported>;mmul_-DIJK_OPT_-DNESTED_VECTOR;500
113,62;113,62;0;0;2090;349679468;131319797;721409620;72236444;273482;208776816;56311212;72204595;9504662;<not supported>;455;35244;9457762;215361;11300766;<not counted>;<not counted>;<not supported>;mmul_-DIJK_OPT_-DNESTED_VECTOR;500
114,41;114,41;0;0;2090;215355558;129794922;299544721;40103125;255107;172192103;53963387;68403056;8982749;<not supported>;801;30618;8652496;64682;11394546;205656080;40148;<not supported>;mmul_-DIJK_OPT_-DNESTED_VECTOR;500
114,41;114,41;0;0;2090;336447383;128019857;709980258;71343224;276988;218593088;57552419;66834437;8772987;<not supported>;529;36027;9536157;214640;11380290;<not counted>;<not counted>;<not supported>;mmul_-DIJK_OPT_-DNESTED_VECTOR;500
