cpu-clock;task-clock;context-switches;cpu-migrations;page-faults;cycles;stalled-cycles-frontend;instructions;branches;branch-misses;L1-dcache-loads;L1-dcache-load-misses;L1-dcache-stores;LLC-loads;LLC-load-misses;LLC-stores;LLC-prefetches;cache-references;cache-misses;bus-cycles;dTLB-loads;dTLB-load-misses;dTLB-prefetch-misses;executable;matrix_size
2016,16;2016,16;69;0;17754;6128438601;1017096006;15035539210;1671816008;2358385;5085433630;222044908;1693488068;56327271;<not supported>;10459779;207064595;48045149;32039630;199365054;5167650229;5332622;<not supported>;mmul_-DIKJ_OPT_-DNESTED_VECTOR;1500
2016,16;2016,16;69;0;17754;6151014251;985039613;15588620916;1731776473;2295886;5204477407;230400785;1680507568;62574535;<not supported>;45955;218086256;43814735;29777882;199240591;5199269840;5412274;<not supported>;mmul_-DIKJ_OPT_-DNESTED_VECTOR;1500
1983,79;1983,79;1;0;17754;6104007912;1042038563;14959133698;1664711641;2330220;5054790549;224551541;1711589607;57438211;<not supported>;10712871;206094575;49009017;32964082;195810482;5147806500;5771396;<not supported>;mmul_-DIKJ_OPT_-DNESTED_VECTOR;1500
1983,79;1983,79;1;0;17754;6154874782;1033745779;15473403385;1725478620;2300970;5201639029;227900237;1738074502;60731077;<not supported>;10994;216103200;44566985;30257823;195733332;5188721998;5381865;<not supported>;mmul_-DIKJ_OPT_-DNESTED_VECTOR;1500
2001,69;2001,69;3;1;17752;6149089344;1001282617;15133168382;1678517289;2345419;5067318251;224894929;1718114167;55401471;<not supported>;9373140;205607964;49206604;33592330;197255823;5209935884;5428603;<not supported>;mmul_-DIKJ_OPT_-DNESTED_VECTOR;1500
2001,69;2001,69;3;1;17752;6192938812;992065192;15655035484;1767838819;2284367;5094797355;226001621;1726761536;58560231;<not supported>;13080;212916443;42375705;29113845;197193931;5176667843;5360065;<not supported>;mmul_-DIKJ_OPT_-DNESTED_VECTOR;1500
2011,73;2011,73;2;0;17752;6137736453;985880255;15166928706;1682970538;2351713;5047455775;223686917;1715708406;55033367;<not supported>;9577575;204596816;48477137;32769561;198971981;5172811345;5380018;<not supported>;mmul_-DIKJ_OPT_-DNESTED_VECTOR;1500
2011,73;2011,73;2;0;17752;6102494323;947817236;15521882909;1726189931;2286629;5193246239;229101156;1660662000;59109711;<not supported>;11199;217527375;43385856;29527709;199418625;5229613025;5402364;<not supported>;mmul_-DIKJ_OPT_-DNESTED_VECTOR;1500
1977,20;1977,20;3;0;17754;6114435420;1038186123;14985541322;1666664418;2342637;5038291080;222047447;1693764654;58481005;<not supported>;8046102;208340452;48633618;32785900;194883583;5090164200;5545750;<not supported>;mmul_-DIKJ_OPT_-DNESTED_VECTOR;1500
1977,20;1977,20;3;0;17754;6157219081;960334328;15631801337;1738084508;2290260;5205518438;226962486;1733034408;61988662;<not supported>;10562;214650329;45557850;30710996;195162402;5217084774;5416513;<not supported>;mmul_-DIKJ_OPT_-DNESTED_VECTOR;1500
1985,17;1985,17;1;0;17753;6088754751;989922084;14923574602;1660795729;2312842;5026215419;223041583;1709988758;100271121;<not supported>;9512212;177374522;73287998;43317565;195863873;5240638231;5573403;<not supported>;mmul_-DIKJ_OPT_-DNESTED_VECTOR;1500
1985,17;1985,17;1;0;17753;6192178120;1068374481;15455319890;1755192045;2311204;5193856310;226819179;1733741116;105872895;<not supported>;7726;188464558;69295263;40141267;196074260;5194697721;5398755;<not supported>;mmul_-DIKJ_OPT_-DNESTED_VECTOR;1500
2001,57;2001,57;73;0;17752;6104259056;1014814170;15006970618;1668498599;2348680;5060742785;223104952;1700489994;55141312;<not supported>;9358543;207913034;48297796;32613631;197856291;5166201492;5373816;<not supported>;mmul_-DIKJ_OPT_-DNESTED_VECTOR;1500
2001,59;2001,57;73;0;17752;6151611145;1007014524;15452524661;1751621559;2303156;5127732273;225997157;1722642531;59520510;<not supported>;10842;215640657;43922576;29474151;197726341;5215947239;5405612;<not supported>;mmul_-DIKJ_OPT_-DNESTED_VECTOR;1500
