cpu-clock;task-clock;context-switches;cpu-migrations;page-faults;cycles;stalled-cycles-frontend;instructions;branches;branch-misses;L1-dcache-loads;L1-dcache-load-misses;L1-dcache-stores;LLC-loads;LLC-load-misses;LLC-stores;LLC-prefetches;cache-references;cache-misses;bus-cycles;dTLB-loads;dTLB-load-misses;dTLB-prefetch-misses;executable;matrix_size
298,30;298,29;30;1;2987;562017759;295152464;462162167;99977338;430465;244318222;27724547;119637937;926176;<not supported>;3079;29394667;998444;108064;29468138;<not counted>;<not counted>;<not supported>;mmul_-DIKJ_-DNESTED_VECTOR_openmp;600
298,29;298,29;30;1;2987;<not counted>;<not counted>;<not counted>;<not counted>;<not counted>;<not counted>;<not counted>;<not counted>;<not counted>;<not supported>;<not counted>;<not counted>;<not counted>;<not counted>;<not counted>;<not counted>;<not counted>;<not supported>;mmul_-DIKJ_-DNESTED_VECTOR_openmp;600
306,52;306,52;66;3;2986;608079803;367232985;540917752;111987764;444741;249580164;31123511;125134640;1758971;<not supported>;3804;25666978;1006941;182138;30134802;43508499;<not counted>;<not supported>;mmul_-DIKJ_-DNESTED_VECTOR_openmp;600
306,49;306,52;66;3;2986;<not counted>;<not counted>;<not counted>;<not counted>;<not counted>;<not counted>;<not counted>;<not counted>;<not counted>;<not supported>;<not counted>;<not counted>;<not counted>;<not counted>;<not counted>;<not counted>;<not counted>;<not supported>;mmul_-DIKJ_-DNESTED_VECTOR_openmp;600
299,67;299,67;36;0;2986;378840584;231177695;413939096;92369350;437542;228660738;30118665;119373764;994372;<not supported>;6352;28470782;852527;91864;29548723;<not counted>;<not counted>;<not supported>;mmul_-DIKJ_-DNESTED_VECTOR_openmp;600
299,67;299,67;36;0;2986;<not counted>;<not counted>;<not counted>;<not counted>;<not counted>;<not counted>;<not counted>;<not counted>;<not counted>;<not supported>;<not counted>;<not counted>;<not counted>;<not counted>;<not counted>;<not counted>;<not counted>;<not supported>;mmul_-DIKJ_-DNESTED_VECTOR_openmp;600
297,49;297,49;27;1;2985;589630374;312102733;477044430;104706233;441142;243548033;30079768;120282307;806427;<not supported>;3245;26804022;929631;115030;29347444;<not counted>;<not counted>;<not supported>;mmul_-DIKJ_-DNESTED_VECTOR_openmp;600
297,48;297,49;27;1;2985;<not counted>;<not counted>;<not counted>;<not counted>;<not counted>;<not counted>;<not counted>;<not counted>;<not counted>;<not supported>;<not counted>;<not counted>;<not counted>;<not counted>;<not counted>;<not counted>;<not counted>;<not supported>;mmul_-DIKJ_-DNESTED_VECTOR_openmp;600
319,85;319,86;57;2;2985;602344393;390517262;518762551;100147379;422761;249234570;32077342;125273363;942836;<not supported>;2423;25575407;913738;105127;31509871;43056250;<not counted>;<not supported>;mmul_-DIKJ_-DNESTED_VECTOR_openmp;600
319,84;319,86;57;2;2985;<not counted>;<not counted>;<not counted>;<not counted>;<not counted>;<not counted>;<not counted>;<not counted>;<not counted>;<not supported>;<not counted>;<not counted>;<not counted>;<not counted>;<not counted>;<not counted>;<not counted>;<not supported>;mmul_-DIKJ_-DNESTED_VECTOR_openmp;600
309,11;309,11;40;0;2985;545738321;291779511;412069731;93114499;451345;252735250;29562966;125900594;862984;<not supported>;3126;26993861;791557;86295;30497228;<not counted>;<not counted>;<not supported>;mmul_-DIKJ_-DNESTED_VECTOR_openmp;600
309,11;309,11;40;0;2985;<not counted>;<not counted>;<not counted>;<not counted>;<not counted>;<not counted>;<not counted>;<not counted>;<not counted>;<not supported>;<not counted>;<not counted>;<not counted>;<not counted>;<not counted>;<not counted>;<not counted>;<not supported>;mmul_-DIKJ_-DNESTED_VECTOR_openmp;600
300,40;300,40;41;2;2985;385275068;345152667;503620586;100128900;424494;241498308;31184338;121081471;928065;<not supported>;3909;21962167;811917;114593;29634057;<not counted>;<not counted>;<not supported>;mmul_-DIKJ_-DNESTED_VECTOR_openmp;600
300,40;300,40;41;2;2985;<not counted>;<not counted>;<not counted>;<not counted>;<not counted>;<not counted>;<not counted>;<not counted>;<not counted>;<not supported>;<not counted>;<not counted>;<not counted>;<not counted>;<not counted>;<not counted>;<not counted>;<not supported>;mmul_-DIKJ_-DNESTED_VECTOR_openmp;600
