cpu-clock;task-clock;context-switches;cpu-migrations;page-faults;cycles;stalled-cycles-frontend;instructions;branches;branch-misses;L1-dcache-loads;L1-dcache-load-misses;L1-dcache-stores;LLC-loads;LLC-load-misses;LLC-stores;LLC-prefetches;cache-references;cache-misses;bus-cycles;dTLB-loads;dTLB-load-misses;dTLB-prefetch-misses;executable;matrix_size
1907,84;1907,83;190;1;9644;4511757463;2607925201;4806007060;654225543;1299023;1191919047;164212869;685452712;46960464;<not supported>;20955;114507650;37214327;3580442;188048977;1341901476;2859158;<not supported>;mmul_-DIKJ_-DNESTED_VECTOR_openmp;1100
1907,79;1907,83;190;1;9644;4489370767;2434823486;5510259562;697331610;1297547;1398260693;215465263;694511321;75734580;<not supported>;18685;125961701;33592879;4348718;188080141;1407376877;2809493;<not supported>;mmul_-DIKJ_-DNESTED_VECTOR_openmp;1100
1906,36;1906,35;187;2;9644;4433468613;2433845900;5182401244;695787720;1502363;1261509846;177171447;603286480;39982806;<not supported>;22306;123560175;42965388;4438143;187884569;1261046118;3018229;<not supported>;mmul_-DIKJ_-DNESTED_VECTOR_openmp;1100
1906,34;1906,35;187;2;9644;4466635952;2389979780;5597774125;711007025;1314599;1409725128;209844568;709746238;52496965;<not supported>;20095;128286498;34327882;2188683;188041241;1442241506;2877139;<not supported>;mmul_-DIKJ_-DNESTED_VECTOR_openmp;1100
1880,26;1880,24;195;2;9645;4536287964;2389436694;5137060567;681917049;1541047;1248971763;166815954;708595719;48553032;<not supported>;17819;129603924;41685236;3597454;185558513;1402073164;3262252;<not supported>;mmul_-DIKJ_-DNESTED_VECTOR_openmp;1100
1880,27;1880,24;195;2;9645;4391552429;2330871377;5527079555;692649873;1271150;1369701693;225223868;695154667;62900195;<not supported>;14700;123641785;35391309;3202373;185719876;1267513307;2469317;<not supported>;mmul_-DIKJ_-DNESTED_VECTOR_openmp;1100
1896,11;1896,10;203;1;9646;4513729334;2603390610;5074306245;708000936;1577548;1340072842;191572418;667642484;38754557;<not supported>;19007;120231432;41555433;5019716;186922783;1302202806;3050176;<not supported>;mmul_-DIKJ_-DNESTED_VECTOR_openmp;1100
1896,11;1896,10;203;1;9646;4315777315;2339712946;5412602945;680634122;1491360;1369809872;218681481;689554181;48861444;<not supported>;14595;119883797;31667625;3302537;187106218;1441827693;2862744;<not supported>;mmul_-DIKJ_-DNESTED_VECTOR_openmp;1100
1887,04;1887,03;169;2;9645;4602925288;2565409044;5072006550;700887612;1649881;1295887411;162701569;663153319;52881807;<not supported>;14841;116505903;39713321;4202388;185792470;1373397383;2965987;<not supported>;mmul_-DIKJ_-DNESTED_VECTOR_openmp;1100
1887,04;1887,03;169;2;9645;4363801995;2267860461;5518271358;696330846;1284620;1395480359;200676397;698905380;65010586;<not supported>;253283;106503627;34476487;3541421;185893447;1374742276;2449127;<not supported>;mmul_-DIKJ_-DNESTED_VECTOR_openmp;1100
1909,40;1909,39;193;2;9648;4512305267;2539164337;5101004157;705069370;1391110;1356900969;165170886;640239995;50422681;<not supported>;14741;104295971;34334284;4269330;187983284;1335266752;2843127;<not supported>;mmul_-DIKJ_-DNESTED_VECTOR_openmp;1100
1909,40;1909,39;193;2;9648;4395920015;2411945840;5426112070;684280730;1259236;1379016514;196434005;696132515;70390542;<not supported>;12802;114535755;42946034;4091305;188370403;1424434370;3421936;<not supported>;mmul_-DIKJ_-DNESTED_VECTOR_openmp;1100
1876,49;1876,48;197;2;9645;4472282352;2493684034;4902208495;675295397;1455670;1283253989;170966037;632117167;53493231;<not supported>;17628;130033936;37743358;3149174;185203947;1369218722;2866339;<not supported>;mmul_-DIKJ_-DNESTED_VECTOR_openmp;1100
1876,49;1876,48;197;2;9645;4418631048;2351282013;5544680172;699982499;1286603;1404202397;175563859;692412387;36212049;<not supported>;11314;102876961;25355794;3902564;185497876;1383013198;2334429;<not supported>;mmul_-DIKJ_-DNESTED_VECTOR_openmp;1100
