cpu-clock;task-clock;context-switches;cpu-migrations;page-faults;cycles;stalled-cycles-frontend;instructions;branches;branch-misses;L1-dcache-loads;L1-dcache-load-misses;L1-dcache-stores;LLC-loads;LLC-load-misses;LLC-stores;LLC-prefetches;cache-references;cache-misses;bus-cycles;dTLB-loads;dTLB-load-misses;dTLB-prefetch-misses;executable;matrix_size
649,67;649,67;19;0;3972;1907440965;1344482337;1634366203;178634633;602191;530087439;213199685;177604632;23230585;<not supported>;2940;126208;22953381;329258;64507028;529754570;60440251;<not supported>;mmul_-DIJK_OPT_-DNESTED_VECTOR;700
649,67;649,67;19;0;3972;1966035345;1425776965;1782026841;177470042;494011;532985091;218793721;176931676;23633198;<not supported>;3737;127451;23234174;360270;64341942;533199781;61216995;<not supported>;mmul_-DIJK_OPT_-DNESTED_VECTOR;700
622,61;622,61;23;0;3973;1862042454;1292328503;1634787483;171537293;603130;521100855;216923414;180872701;23047662;<not supported>;3690;141112;23137751;332132;61633678;539345032;62280438;<not supported>;mmul_-DIJK_OPT_-DNESTED_VECTOR;700
622,61;622,61;23;0;3973;1953613873;1407109307;1768825128;177203299;492891;524822441;218861700;177644535;22884584;<not supported>;4568;149612;23430530;428946;61668142;533943918;61615517;<not supported>;mmul_-DIJK_OPT_-DNESTED_VECTOR;700
617,48;617,48;0;0;3971;1878863541;1303055827;1645026977;171980949;592134;522025419;217152127;175729399;23361644;<not supported>;3072;100703;22740902;335542;61073168;534730323;60179354;<not supported>;mmul_-DIJK_OPT_-DNESTED_VECTOR;700
617,48;617,48;0;0;3971;1927540379;1394952570;1769704137;176795512;488437;532879189;219831005;175411971;22865551;<not supported>;2269;1117553;23416322;456361;61118455;526816454;60712198;<not supported>;mmul_-DIJK_OPT_-DNESTED_VECTOR;700
635,04;635,04;2;0;3971;1911714738;1307756258;1672260019;181515257;597586;528257029;220280624;174335259;22910144;<not supported>;3191;134441;22879712;355553;63049054;531982943;60390747;<not supported>;mmul_-DIJK_OPT_-DNESTED_VECTOR;700
635,04;635,04;2;0;3971;1927459615;1393494678;1780431516;177404162;495494;536022416;216877345;175202272;23362037;<not supported>;3462;140954;23422198;182340;63033895;536429281;58876089;<not supported>;mmul_-DIJK_OPT_-DNESTED_VECTOR;700
633,74;633,74;2;0;3972;1872690354;1288688388;1639405683;169839604;588523;529028227;221024096;180449180;23193181;<not supported>;3232;134740;22675041;399069;62651165;532023357;62304472;<not supported>;mmul_-DIJK_OPT_-DNESTED_VECTOR;700
633,74;633,74;2;0;3972;1952602095;1393691509;1779684609;179366815;493711;532089448;218710268;178770626;23376801;<not supported>;3295;129205;22823304;153742;62831446;526636942;58144801;<not supported>;mmul_-DIJK_OPT_-DNESTED_VECTOR;700
629,22;629,22;0;0;3972;1910946207;1315615907;1654897080;170978274;587989;525943850;221531003;176309205;22824285;<not supported>;3083;126932;22593624;328492;62192868;531752487;62017240;<not supported>;mmul_-DIJK_OPT_-DNESTED_VECTOR;700
629,22;629,22;0;0;3972;1954779039;1402333900;1782557385;179671774;498799;530641387;218979238;178126104;22769727;<not supported>;2863;142099;23237524;125828;62452543;536538469;61657768;<not supported>;mmul_-DIJK_OPT_-DNESTED_VECTOR;700
624,00;624,00;2;0;3972;1890503296;1319614711;1667955538;174740262;601342;527384018;215547774;174906112;22365382;<not supported>;2980;154412;22629478;379588;61933696;530819983;61652104;<not supported>;mmul_-DIJK_OPT_-DNESTED_VECTOR;700
624,01;624,00;2;0;3972;1944472226;1400723551;1786644296;177633642;497802;529559569;216176460;176758223;22842115;<not supported>;3058;154226;23175093;425450;61931809;533510478;60561378;<not supported>;mmul_-DIJK_OPT_-DNESTED_VECTOR;700
