cpu-clock;task-clock;context-switches;cpu-migrations;page-faults;cycles;stalled-cycles-frontend;instructions;branches;branch-misses;L1-dcache-loads;L1-dcache-load-misses;L1-dcache-stores;LLC-loads;LLC-load-misses;LLC-stores;LLC-prefetches;cache-references;cache-misses;bus-cycles;dTLB-loads;dTLB-load-misses;dTLB-prefetch-misses;executable;matrix_size
1771,89;1771,87;177;0;9646;4279634435;2337057194;5697016429;635857696;1451058;1846024021;87835664;688383867;10545958;<not supported>;11388;69658957;7514451;1190940;174900042;1971996622;2265761;<not supported>;mmul_-DIKJ_OPT_-DNESTED_VECTOR_openmp;1100
1771,86;1771,87;177;0;9646;4243981218;2160648573;6276470392;709037846;1302090;2254968720;74052901;704190254;8774907;<not supported>;10181;72629283;6590387;1107594;175136898;1642490777;2480693;<not supported>;mmul_-DIKJ_OPT_-DNESTED_VECTOR_openmp;1100
1795,74;1795,74;155;0;9647;4511171461;2345856526;5985286264;662090040;1460332;1988429099;85478188;698185912;6400861;<not supported>;16207;74426255;7506846;1398845;177329093;2027468051;2520355;<not supported>;mmul_-DIKJ_OPT_-DNESTED_VECTOR_openmp;1100
1795,74;1795,74;155;0;9647;4383566517;2281868974;6255369017;692089104;1266367;2080989022;69712353;687137934;5932235;<not supported>;9944;70144392;5909659;877057;177378876;1762315001;2633077;<not supported>;mmul_-DIKJ_OPT_-DNESTED_VECTOR_openmp;1100
1790,46;1790,46;117;0;9646;4332850473;2280393852;5761806274;641806528;1411677;1900130746;63977840;695355226;6510774;<not supported>;9175;64521962;7211700;1736411;176668562;2097272548;2429840;<not supported>;mmul_-DIKJ_OPT_-DNESTED_VECTOR_openmp;1100
1790,45;1790,46;117;0;9646;4363883577;2310763521;6251467334;692358735;1237979;2035540888;62234050;691380228;5854850;<not supported>;6527;57629612;5894510;1040806;176590600;1633076992;2676128;<not supported>;mmul_-DIKJ_OPT_-DNESTED_VECTOR_openmp;1100
1803,16;1803,15;140;1;9644;4243033858;2242608149;5838600007;663858551;1473816;1914898271;61043047;690873505;6140365;<not supported>;14430;67977049;6459873;1393438;177635178;2062989077;2474868;<not supported>;mmul_-DIKJ_OPT_-DNESTED_VECTOR_openmp;1100
1803,15;1803,15;140;1;9644;4406315184;2303829864;6270112970;695687727;1263338;2083203807;75257353;692471463;5683514;<not supported>;39895;64279753;5645814;905926;177707542;1629134992;2527335;<not supported>;mmul_-DIKJ_OPT_-DNESTED_VECTOR_openmp;1100
1794,08;1794,07;192;0;9647;4372903845;2290774299;5889811903;667988970;1475919;1908322940;68858325;698858641;6232574;<not supported>;10074;60305858;6008269;1272590;176999430;2038069203;2484985;<not supported>;mmul_-DIKJ_OPT_-DNESTED_VECTOR_openmp;1100
1794,08;1794,07;192;0;9647;4436169473;2325664475;6379545070;706847156;1277909;2039254483;71196827;689593273;5775812;<not supported>;11689;68889183;5927710;1003187;176928584;1666095941;2206455;<not supported>;mmul_-DIKJ_OPT_-DNESTED_VECTOR_openmp;1100
1782,45;1782,45;206;0;9644;4185506769;2271712184;5922131129;659534804;1463858;1940759271;59763073;691659694;7191142;<not supported>;11073;65193046;6625649;1253618;175985148;2071364372;2546303;<not supported>;mmul_-DIKJ_OPT_-DNESTED_VECTOR_openmp;1100
1782,44;1782,45;206;0;9644;4275048034;2254616695;6177835256;689829375;1275799;2081380797;78677500;689941625;8801950;<not supported>;6858;79601391;7116440;1057438;175940263;1758127888;2316733;<not supported>;mmul_-DIKJ_OPT_-DNESTED_VECTOR_openmp;1100
1801,37;1801,35;166;2;9646;4386088477;2341380490;5864000406;661512776;1444047;1933559766;64539352;636211906;5588598;<not supported>;11909;78625415;7494427;1473715;177825297;2038139237;2582447;<not supported>;mmul_-DIKJ_OPT_-DNESTED_VECTOR_openmp;1100
1801,36;1801,35;166;2;9646;4331791151;2261047237;6224539525;698289652;1263697;2094620446;86336720;701014513;7041446;<not supported>;8333;74337567;6651771;1172282;178059084;1733079503;2303296;<not supported>;mmul_-DIKJ_OPT_-DNESTED_VECTOR_openmp;1100
