cpu-clock;task-clock;context-switches;cpu-migrations;page-faults;cycles;stalled-cycles-frontend;instructions;branches;branch-misses;L1-dcache-loads;L1-dcache-load-misses;L1-dcache-stores;LLC-loads;LLC-load-misses;LLC-stores;LLC-prefetches;cache-references;cache-misses;bus-cycles;dTLB-loads;dTLB-load-misses;dTLB-prefetch-misses;executable;matrix_size
189,53;189,53;33;5;2119;354816547;248931381;557762979;69692465;319441;228049640;8172701;43814550;1244692;<not supported>;19091;<not counted>;<not counted>;<not counted>;<not counted>;<not counted>;<not counted>;<not supported>;mmul_-DIKJ_OPT_-DNESTED_VECTOR_openmp;500
189,54;189,53;33;5;2119;<not counted>;<not counted>;<not counted>;<not counted>;<not counted>;<not counted>;<not counted>;<not counted>;<not counted>;<not supported>;<not counted>;<not counted>;<not counted>;<not counted>;<not counted>;<not counted>;<not counted>;<not supported>;mmul_-DIKJ_OPT_-DNESTED_VECTOR_openmp;500
184,00;184,00;49;0;2123;346888866;217664895;535076261;71439893;326790;227391104;10075220;52725705;494484;<not supported>;19661;<not counted>;<not counted>;<not counted>;<not counted>;<not counted>;<not counted>;<not supported>;mmul_-DIKJ_OPT_-DNESTED_VECTOR_openmp;500
183,99;184,00;49;0;2123;<not counted>;<not counted>;<not counted>;<not counted>;<not counted>;<not counted>;<not counted>;<not counted>;<not counted>;<not supported>;<not counted>;<not counted>;<not counted>;<not counted>;<not counted>;<not counted>;<not counted>;<not supported>;mmul_-DIKJ_OPT_-DNESTED_VECTOR_openmp;500
184,43;184,43;26;1;2121;345337883;188797239;507978394;62259970;258693;223733328;9327400;61417235;1103035;<not supported>;<not counted>;<not counted>;<not counted>;<not counted>;<not counted>;<not counted>;<not counted>;<not supported>;mmul_-DIKJ_OPT_-DNESTED_VECTOR_openmp;500
184,43;184,43;26;1;2121;<not counted>;<not counted>;<not counted>;<not counted>;<not counted>;<not counted>;<not counted>;<not counted>;<not counted>;<not supported>;<not counted>;<not counted>;<not counted>;<not counted>;<not counted>;<not counted>;<not counted>;<not supported>;mmul_-DIKJ_OPT_-DNESTED_VECTOR_openmp;500
175,27;175,27;23;1;2122;327248338;204969137;490804185;67501969;304785;210631170;9918309;59147476;1148447;<not supported>;186359;<not counted>;<not counted>;<not counted>;<not counted>;<not counted>;<not counted>;<not supported>;mmul_-DIKJ_OPT_-DNESTED_VECTOR_openmp;500
175,26;175,27;23;1;2122;<not counted>;<not counted>;<not counted>;<not counted>;<not counted>;<not counted>;<not counted>;<not counted>;<not counted>;<not supported>;<not counted>;<not counted>;<not counted>;<not counted>;<not counted>;<not counted>;<not counted>;<not supported>;mmul_-DIKJ_OPT_-DNESTED_VECTOR_openmp;500
184,04;184,04;29;4;2122;363703071;247672765;625473218;73562858;316517;220161431;8406251;37531594;68611;<not supported>;<not counted>;<not counted>;<not counted>;<not counted>;<not counted>;<not counted>;<not counted>;<not supported>;mmul_-DIKJ_OPT_-DNESTED_VECTOR_openmp;500
184,04;184,04;29;4;2122;<not counted>;<not counted>;<not counted>;<not counted>;<not counted>;<not counted>;<not counted>;<not counted>;<not counted>;<not supported>;<not counted>;<not counted>;<not counted>;<not counted>;<not counted>;<not counted>;<not counted>;<not supported>;mmul_-DIKJ_OPT_-DNESTED_VECTOR_openmp;500
193,94;193,94;36;1;2123;366492409;252985380;547550961;71664421;314052;237843948;9946876;45744377;1245908;<not supported>;112158;<not counted>;<not counted>;<not counted>;<not counted>;<not counted>;<not counted>;<not supported>;mmul_-DIKJ_OPT_-DNESTED_VECTOR_openmp;500
193,92;193,94;36;1;2123;<not counted>;<not counted>;<not counted>;<not counted>;<not counted>;<not counted>;<not counted>;<not counted>;<not counted>;<not supported>;<not counted>;<not counted>;<not counted>;<not counted>;<not counted>;<not counted>;<not counted>;<not supported>;mmul_-DIKJ_OPT_-DNESTED_VECTOR_openmp;500
205,83;205,83;38;2;2123;363264453;192148832;294104001;61291415;289998;245071210;10502293;75030801;998313;<not supported>;17821;2380942;2327219;1069349;<not counted>;<not counted>;<not counted>;<not supported>;mmul_-DIKJ_OPT_-DNESTED_VECTOR_openmp;500
205,81;205,83;38;2;2123;<not counted>;<not counted>;<not counted>;<not counted>;<not counted>;<not counted>;<not counted>;<not counted>;<not counted>;<not supported>;<not counted>;<not counted>;<not counted>;<not counted>;<not counted>;<not counted>;<not counted>;<not supported>;mmul_-DIKJ_OPT_-DNESTED_VECTOR_openmp;500
