cpu-clock;task-clock;context-switches;cpu-migrations;page-faults;cycles;stalled-cycles-frontend;instructions;branches;branch-misses;L1-dcache-loads;L1-dcache-load-misses;L1-dcache-stores;LLC-loads;LLC-load-misses;LLC-stores;LLC-prefetches;cache-references;cache-misses;bus-cycles;dTLB-loads;dTLB-load-misses;dTLB-prefetch-misses;executable;matrix_size
678,49;678,49;58;0;5182;1037683116;683012885;838156451;133494417;1214729;737611445;20367263;271093894;3102123;<not supported>;4258;35140129;3265566;123926;67004225;810403176;1010106;<not supported>;mmul_-DIKJ_OPT_-DNESTED_VECTOR_openmp;800
678,48;678,49;58;0;5182;1653251094;836857935;2396431973;267463184;657932;814928677;36392538;268627446;3769078;<not supported>;27894;8070828;4150525;1420357;<not counted>;<not counted>;<not counted>;<not supported>;mmul_-DIKJ_OPT_-DNESTED_VECTOR_openmp;800
691,18;691,18;125;2;5182;1350569777;878810455;1159483618;179743105;761783;679758118;34521423;276229529;3881921;<not supported>;5762;38822276;3764201;265620;68142584;833261036;1037931;<not supported>;mmul_-DIKJ_OPT_-DNESTED_VECTOR_openmp;800
691,15;691,18;125;2;5182;1626199373;850131556;2473033645;282418264;738249;986928271;38357496;274439601;2695438;<not supported>;36363;6806430;4650280;2028133;67890666;<not counted>;<not counted>;<not supported>;mmul_-DIKJ_OPT_-DNESTED_VECTOR_openmp;800
671,26;671,26;61;0;5178;1109045811;715722738;902832757;145012370;1224145;684576828;24191284;268386665;3045234;<not supported>;5271;30950775;2880385;122323;66349764;785835376;1010361;<not supported>;mmul_-DIKJ_OPT_-DNESTED_VECTOR_openmp;800
671,26;671,26;61;0;5178;1614712695;855134409;2465904142;273096987;671589;831293873;31725535;268573535;3273053;<not supported>;27532;12422336;4781427;1451924;<not counted>;<not counted>;<not counted>;<not supported>;mmul_-DIKJ_OPT_-DNESTED_VECTOR_openmp;800
675,95;675,95;79;3;5178;1199523666;652461461;889224642;140901829;1130643;772370432;28124908;269529180;3434577;<not supported>;3798;36273812;3733614;383133;66544436;796017835;1043653;<not supported>;mmul_-DIKJ_OPT_-DNESTED_VECTOR_openmp;800
675,96;675,95;79;3;5178;1762506165;884822455;2511789202;277910147;666603;813394422;33096723;286094370;3283381;<not supported>;16234;5175221;5500739;1779815;65255898;<not counted>;<not counted>;<not supported>;mmul_-DIKJ_OPT_-DNESTED_VECTOR_openmp;800
672,74;672,74;38;0;5179;1201435859;754097621;1167136461;230581529;902411;823968736;28122715;262186095;3331557;<not supported>;3459;35531848;3198115;142956;66567150;806583225;998286;<not supported>;mmul_-DIKJ_OPT_-DNESTED_VECTOR_openmp;800
672,75;672,74;38;0;5179;1664571476;852713994;2437431901;271102564;665420;793021417;35322197;192574863;4601688;<not supported>;248286;<not counted>;<not counted>;<not counted>;<not counted>;<not counted>;<not counted>;<not supported>;mmul_-DIKJ_OPT_-DNESTED_VECTOR_openmp;800
697,23;697,23;82;2;5179;1382420429;760424528;1032106818;159824788;865456;672932847;31750850;280828735;3127521;<not supported>;5816;35681515;3323573;233255;68883685;799937399;1000932;<not supported>;mmul_-DIKJ_OPT_-DNESTED_VECTOR_openmp;800
697,21;697,23;82;2;5179;1636574016;854268416;2465473681;274893647;684223;836286685;34244784;285549642;4005949;<not supported>;11385;9323759;3498710;1324485;67095559;<not counted>;<not counted>;<not supported>;mmul_-DIKJ_OPT_-DNESTED_VECTOR_openmp;800
690,09;690,09;60;2;5180;1222790911;698574135;965153613;149251294;793250;575894470;27358378;285604482;3260116;<not supported>;5095;36669194;3362463;122016;68274780;829950988;1030836;<not supported>;mmul_-DIKJ_OPT_-DNESTED_VECTOR_openmp;800
690,07;690,09;60;2;5180;1687041019;868573936;2497106697;281072284;687796;826978851;33348108;269080023;3758229;<not supported>;28399;8595960;4546545;1756981;<not counted>;<not counted>;<not counted>;<not supported>;mmul_-DIKJ_OPT_-DNESTED_VECTOR_openmp;800
