cpu-clock;task-clock;context-switches;cpu-migrations;page-faults;cycles;stalled-cycles-frontend;instructions;branches;branch-misses;L1-dcache-loads;L1-dcache-load-misses;L1-dcache-stores;LLC-loads;LLC-load-misses;LLC-stores;LLC-prefetches;cache-references;cache-misses;bus-cycles;dTLB-loads;dTLB-load-misses;dTLB-prefetch-misses;executable;matrix_size
323,91;323,91;1;0;5147;941719440;162925088;1856366925;228002075;656602;513795480;69188820;265701859;7436060;<not supported>;1970;63417113;5705593;2892554;32019756;572687640;1086759;<not supported>;mmul_-DIKJ_-DNESTED_VECTOR;800
323,91;323,91;1;0;5147;970099453;194533704;2084674977;273700317;671996;525194663;68796059;279664978;6517023;<not supported>;1437;68260460;5016414;2552942;32053805;487770564;1016035;<not supported>;mmul_-DIKJ_-DNESTED_VECTOR;800
304,05;304,05;1;0;5146;898646111;156865043;1779782531;222711364;649753;533369573;68554234;271143450;12728332;<not supported>;1178;58567284;9935843;4494035;30117879;528995115;1103645;<not supported>;mmul_-DIKJ_-DNESTED_VECTOR;800
304,05;304,05;1;0;5146;946100723;109612481;2224322647;277900672;690837;561587486;69827525;271811968;12591588;<not supported>;1425;61118437;8373514;3906011;30109781;555553883;1104788;<not supported>;mmul_-DIKJ_-DNESTED_VECTOR;800
309,91;309,91;1;0;5148;887697813;173629704;1754422305;225485610;666844;552725426;69311037;269848544;6401656;<not supported>;2221;61406351;5785649;2824907;30717262;535684354;1111915;<not supported>;mmul_-DIKJ_-DNESTED_VECTOR;800
309,91;309,91;1;0;5148;953289623;116409684;2229989684;278188654;686841;545662073;68672062;267044484;5771475;<not supported>;1511;64866145;4642912;2251884;30619683;553378504;1099778;<not supported>;mmul_-DIKJ_-DNESTED_VECTOR;800
307,96;307,95;1;0;5149;916005036;146680520;1824212498;227268405;644677;505396719;68661628;270885685;6740117;<not supported>;2708;65556732;5429889;2864625;30414898;522488758;1094821;<not supported>;mmul_-DIKJ_-DNESTED_VECTOR;800
307,96;307,95;1;0;5149;941595978;115078493;2219619407;277784147;692408;559610587;70397985;272135111;6626359;<not supported>;1501;65963270;4990338;2346980;30553120;564572390;1117990;<not supported>;mmul_-DIKJ_-DNESTED_VECTOR;800
315,66;315,65;10;1;5149;931305969;166386488;1853954949;234948926;690798;559604016;70352207;277374701;6003255;<not supported>;1907;67572584;4649971;2329653;31160924;546780551;1181214;<not supported>;mmul_-DIKJ_-DNESTED_VECTOR;800
315,66;315,65;10;1;5149;935508692;157996581;2129989099;275402352;686570;554008081;69762300;271964430;5160119;<not supported>;1562;56242205;3456935;1848869;31185128;569860084;1138096;<not supported>;mmul_-DIKJ_-DNESTED_VECTOR;800
315,02;315,02;0;0;5148;891115198;158040103;1750781486;220380641;640549;533942294;68867525;271718408;9378018;<not supported>;1733;60342193;8230377;3834342;31244964;537940052;1216689;<not supported>;mmul_-DIKJ_-DNESTED_VECTOR;800
315,02;315,02;0;0;5148;946309511;103393805;2224303575;279693851;692431;552113990;69130905;274731784;9295797;<not supported>;1536;63018045;6775951;2990216;31311561;554453434;1118851;<not supported>;mmul_-DIKJ_-DNESTED_VECTOR;800
314,60;314,60;16;0;5147;913054827;155858030;1820058341;227870147;658393;526478106;70163320;270140120;7392202;<not supported>;2365;65591641;5362811;2520117;31152959;540247231;1196177;<not supported>;mmul_-DIKJ_-DNESTED_VECTOR;800
314,61;314,60;16;0;5147;951289751;142284495;2174024357;275499416;695203;552877541;69153725;274109060;6301999;<not supported>;1947;65152890;4899975;2377449;31192121;539102886;1094535;<not supported>;mmul_-DIKJ_-DNESTED_VECTOR;800
