cpu-clock;task-clock;context-switches;cpu-migrations;page-faults;cycles;stalled-cycles-frontend;instructions;branches;branch-misses;L1-dcache-loads;L1-dcache-load-misses;L1-dcache-stores;LLC-loads;LLC-load-misses;LLC-stores;LLC-prefetches;cache-references;cache-misses;bus-cycles;dTLB-loads;dTLB-load-misses;dTLB-prefetch-misses;executable;matrix_size
8170,11;8170,11;5;0;7966;25329936145;22279912620;9092519354;1019258435;1243793;3018409203;1753498028;1006544011;150344379;<not supported>;39303;4839323;149568107;104564234;809280764;3018703815;1015417692;<not supported>;mmul_-DIJK_-DNESTED_VECTOR;1000
8170,11;8170,11;5;0;7966;25322665541;22279996585;9024094351;1003193139;1043711;3005180218;1753321392;1001887751;150381977;<not supported>;39078;7369350;152119386;104748627;809658614;3020475695;1012581439;<not supported>;mmul_-DIJK_-DNESTED_VECTOR;1000
8134,49;8134,48;9;0;7968;25343080088;22241650482;9041531342;1007417387;1200516;3001146753;1745269258;1032111695;152981516;<not supported>;40608;1542212;153419523;112669924;805657189;3011744300;1014738361;<not supported>;mmul_-DIJK_-DNESTED_VECTOR;1000
8134,49;8134,48;9;0;7968;25343172176;22348019444;9152157227;1031560072;1084239;3028714438;1759924580;1007963972;152643129;<not supported>;40930;1679631;153812088;112581718;804978732;3013072000;1014258128;<not supported>;mmul_-DIJK_-DNESTED_VECTOR;1000
8732,26;8732,26;17;1;7966;25260816811;22189434855;9072949784;1015837591;1247018;3013818518;1755533406;1014676467;149987060;<not supported>;40901;2954554;149433044;104458417;868144203;3015657253;1015554798;<not supported>;mmul_-DIJK_-DNESTED_VECTOR;1000
8732,27;8732,26;17;1;7966;25318851803;22308820028;9048534712;1005989544;1050277;3014857301;1760097960;1005456550;149229090;<not supported>;42169;2931278;149460892;104235536;868023535;3006844378;1013121588;<not supported>;mmul_-DIJK_-DNESTED_VECTOR;1000
8277,05;8277,05;10;0;7966;25267849602;22242220238;9073618134;1016293769;1237348;3009130854;1749520024;1003221354;155622246;<not supported>;47641;1245757;155494975;118871364;817556035;3016350708;1014292072;<not supported>;mmul_-DIJK_-DNESTED_VECTOR;1000
8277,06;8277,05;10;0;7966;25334881539;22277745091;9029437731;1005321280;1052257;3039370424;1750924490;1003616940;156636217;<not supported>;46688;1279425;157300026;118762709;818071013;3017766528;1012276227;<not supported>;mmul_-DIJK_-DNESTED_VECTOR;1000
8098,38;8098,38;36;1;7967;25228045780;22044794231;8996697947;1004036934;1214567;3009237067;1739779039;1009618505;157795907;<not supported>;64135;6709607;154448754;105146365;801785225;3020363843;1017940608;<not supported>;mmul_-DIJK_-DNESTED_VECTOR;1000
8098,38;8098,38;36;1;7967;25365251905;22334085648;9063434024;1007271508;1051859;3019842755;1762992338;1006331095;150822845;<not supported>;35852;6736130;153527876;104475336;801922694;3022164332;1015481439;<not supported>;mmul_-DIJK_-DNESTED_VECTOR;1000
8234,58;8234,57;8;0;7964;25331970375;22261100144;9066287652;1013409645;1229359;3009736350;1752867981;1004759982;159629007;<not supported>;45862;5869773;162859117;117133166;814047319;3020067320;1009907641;<not supported>;mmul_-DIJK_-DNESTED_VECTOR;1000
8234,58;8234,57;8;0;7964;25288399202;22326274111;9043462825;1005786528;1046402;3008464014;1752122958;1005791312;160273352;<not supported>;42990;3740593;162128511;116750035;813433322;3009573589;1014127654;<not supported>;mmul_-DIJK_-DNESTED_VECTOR;1000
8541,44;8541,43;41;0;7969;25313632963;22259629297;9084230879;1014721227;1249063;3014906847;1752181953;1003821384;148163254;<not supported>;51717;2803962;149095829;107013307;847957160;3015220285;1017238667;<not supported>;mmul_-DIJK_-DNESTED_VECTOR;1000
8541,46;8541,43;41;0;7969;25372370752;22357388547;9056150453;1006477255;1066993;3009645613;1758305922;1008332215;152775657;<not supported>;49589;2179948;148417285;107478475;847673566;3009605373;1012587650;<not supported>;mmul_-DIJK_-DNESTED_VECTOR;1000
