cpu-clock:u;task-clock:u;context-switches:u;cpu-migrations:u;page-faults:u;cycles:u;stalled-cycles-frontend:u;instructions:u;branches:u;branch-misses:u;L1-dcache-loads:u;L1-dcache-load-misses:u;L1-dcache-stores:u;LLC-loads:u;LLC-load-misses:u;LLC-stores:u;LLC-prefetches:u;cache-references:u;cache-misses:u;bus-cycles:u;dTLB-loads:u;dTLB-load-misses:u;dTLB-prefetch-misses:u;executable;matrix_size
1249,57;1249,68;0;0;9634;3674939058;<not supported>;5894588257;645321950;1312007;1826107161;81506893;645725309;4320919;2088619;739;<not supported>;124232813;63557808;123039968;2081581736;1249345;<not supported>;mmul_-DIKJ_OPT_-DNESTED_VECTOR_openmp;1100
1249,44;1249,68;0;0;9634;3684016832;<not supported>;6231047164;701638470;1305554;2063690358;85945292;656007205;5163457;2503575;635;<not supported>;129498885;71824417;121451364;1973378078;1205492;<not supported>;mmul_-DIKJ_OPT_-DNESTED_VECTOR_openmp;1100
1188,77;1188,89;0;0;9633;3378657230;<not supported>;5945948233;653360086;1281270;1867190897;89015929;617519781;5444188;2719123;1561;<not supported>;141599821;62863346;117084257;2086610118;1150599;<not supported>;mmul_-DIKJ_OPT_-DNESTED_VECTOR_openmp;1100
1188,61;1188,89;0;0;9633;3483116041;<not supported>;6083624008;673118755;1276858;2039781354;94984534;669481329;5735133;2772206;1325;<not supported>;142671833;61686113;117072103;2099879232;1119073;<not supported>;mmul_-DIKJ_OPT_-DNESTED_VECTOR_openmp;1100
1228,33;1228,51;0;0;9635;3540638140;<not supported>;5838442932;643800641;1288756;1828218729;89572521;626598999;5155444;2432578;887;<not supported>;143090245;76798598;120652812;2092059358;1200763;<not supported>;mmul_-DIKJ_OPT_-DNESTED_VECTOR_openmp;1100
1228,06;1228,51;0;0;9635;3613601894;<not supported>;6273740116;695084660;1298295;2042895590;95891106;687199414;6091573;2776553;1997;<not supported>;132896950;70494283;117946448;1919628244;1141615;<not supported>;mmul_-DIKJ_OPT_-DNESTED_VECTOR_openmp;1100
1193,64;1193,72;0;0;9634;3398416674;<not supported>;5883336309;646542726;1278335;1849227303;82010044;621605254;4540729;2244659;678;<not supported>;140768793;77582100;117409985;2108507968;1216459;<not supported>;mmul_-DIKJ_OPT_-DNESTED_VECTOR_openmp;1100
1193,52;1193,72;0;0;9634;3490048270;<not supported>;6266086363;710122310;1286014;2072536305;91252642;687583042;5454454;2345012;477;<not supported>;128596893;75435426;117529715;2033745418;1227734;<not supported>;mmul_-DIKJ_OPT_-DNESTED_VECTOR_openmp;1100
1192,10;1192,22;0;0;9631;3496898116;<not supported>;6200481997;706551601;1339980;1977755146;88613665;639209939;5218488;2504661;984;<not supported>;145871698;78510101;115428446;2022673832;1226880;<not supported>;mmul_-DIKJ_OPT_-DNESTED_VECTOR_openmp;1100
1191,95;1192,22;0;0;9631;3506373908;<not supported>;6089943892;676761538;1262130;2022470324;91389653;673691239;5956609;2581888;516;<not supported>;144036599;74573349;117045175;2027459009;1186743;<not supported>;mmul_-DIKJ_OPT_-DNESTED_VECTOR_openmp;1100
1225,87;1226,14;0;0;9631;3522531805;<not supported>;5927703005;649538006;1272204;1826524049;88333514;634320423;5339866;2810854;1412;<not supported>;154269158;65244854;119692488;2067156594;1161458;<not supported>;mmul_-DIKJ_OPT_-DNESTED_VECTOR_openmp;1100
1225,52;1226,14;0;0;9631;3597548270;<not supported>;6135771173;695315411;1262307;2000120313;93323039;673268255;5782887;2753887;1413;<not supported>;137756108;62430049;120220207;2037445477;1189921;<not supported>;mmul_-DIKJ_OPT_-DNESTED_VECTOR_openmp;1100
1208,08;1208,20;0;0;9633;3484602296;<not supported>;5786639700;647437071;1245358;1762057389;86773384;612060349;4777156;2442671;1285;<not supported>;137914930;60666525;116556361;2128871373;1185922;<not supported>;mmul_-DIKJ_OPT_-DNESTED_VECTOR_openmp;1100
1207,83;1208,20;0;0;9633;3516825238;<not supported>;6398117790;710253445;1322377;2124906252;97586067;708079600;5485696;2598879;1095;<not supported>;130863222;55653520;119031351;1980577860;1179542;<not supported>;mmul_-DIKJ_OPT_-DNESTED_VECTOR_openmp;1100
