cpu-clock:u;task-clock:u;context-switches:u;cpu-migrations:u;page-faults:u;cycles:u;stalled-cycles-frontend:u;instructions:u;branches:u;branch-misses:u;L1-dcache-loads:u;L1-dcache-load-misses:u;L1-dcache-stores:u;LLC-loads:u;LLC-load-misses:u;LLC-stores:u;LLC-prefetches:u;cache-references:u;cache-misses:u;bus-cycles:u;dTLB-loads:u;dTLB-load-misses:u;dTLB-prefetch-misses:u;executable;matrix_size
780,42;780,52;0;0;6502;2302630019;<not supported>;2632417595;337121750;824848;647859172;82125069;362101626;12860718;2372847;1624;<not supported>;142494835;62627145;77145712;807686263;158205;<not supported>;mmul_-DIKJ_-DNESTED_VECTOR_openmp;900
780,28;780,52;0;0;6502;2382154956;<not supported>;3085295295;386042495;825663;739338083;90029222;363047460;14175429;2743147;1701;<not supported>;142739696;66932362;76514027;694799123;200735;<not supported>;mmul_-DIKJ_-DNESTED_VECTOR_openmp;900
771,46;771,53;0;0;6499;2282676798;<not supported>;2807439235;364460131;845449;635155857;86294066;362525429;14482935;3270347;2420;<not supported>;156564896;63533614;75945094;780251102;139796;<not supported>;mmul_-DIKJ_-DNESTED_VECTOR_openmp;900
771,36;771,53;0;0;6499;2319805595;<not supported>;3074089884;381099944;829840;743674637;94943970;355347093;12331660;2158035;1597;<not supported>;146779333;60778188;76192300;739325066;126634;<not supported>;mmul_-DIKJ_-DNESTED_VECTOR_openmp;900
747,96;748,02;0;0;6500;2251040602;<not supported>;3059644145;375917429;890971;682916800;86099742;363091273;14800582;3092738;1566;<not supported>;144593194;59968373;73735632;761048794;209432;<not supported>;mmul_-DIKJ_-DNESTED_VECTOR_openmp;900
747,90;748,02;0;0;6500;2280923663;<not supported>;2995944059;373182449;822954;744165003;93560238;361535131;14530208;2883397;1915;<not supported>;156338176;58913435;73823026;770784997;75002;<not supported>;mmul_-DIKJ_-DNESTED_VECTOR_openmp;900
752,84;752,89;0;0;6499;2213593332;<not supported>;2839448273;344916926;844552;662238358;80312090;366778305;12819696;2790839;2231;<not supported>;124115314;57905119;74174727;763768898;380163;<not supported>;mmul_-DIKJ_-DNESTED_VECTOR_openmp;900
752,80;752,89;0;0;6499;2288259664;<not supported>;3010634030;379490202;820025;745968732;75393053;368062695;13213009;2342897;1264;<not supported>;134360671;56024196;74129374;760416400;335853;<not supported>;mmul_-DIKJ_-DNESTED_VECTOR_openmp;900
754,88;754,92;0;0;6503;2269824437;<not supported>;2788229257;334898118;826978;607462539;86937258;351371329;12524467;2780040;1543;<not supported>;160633521;67817541;74354559;778251766;130132;<not supported>;mmul_-DIKJ_-DNESTED_VECTOR_openmp;900
754,82;754,92;0;0;6503;2305695550;<not supported>;3122705227;396808823;861063;775073133;99823280;352368538;13656703;2310559;1636;<not supported>;134566704;54163553;74435250;756389550;77683;<not supported>;mmul_-DIKJ_-DNESTED_VECTOR_openmp;900
757,57;757,64;0;0;6503;2297945424;<not supported>;3002333724;375461832;917507;675139302;89451289;362985898;14533100;3033405;2161;<not supported>;144057455;59116190;73206156;741937827;116744;<not supported>;mmul_-DIKJ_-DNESTED_VECTOR_openmp;900
757,43;757,64;0;0;6503;2311663718;<not supported>;3018045913;378465797;832745;742378389;94292485;360089434;11634483;2152744;1631;<not supported>;153600582;61827320;74389232;742645661;155512;<not supported>;mmul_-DIKJ_-DNESTED_VECTOR_openmp;900
771,92;771,99;0;0;6502;2314021376;<not supported>;3112706828;401363807;928675;719244147;93998174;378934255;14217151;2744834;1803;<not supported>;144072585;56875360;75888295;722487767;170456;<not supported>;mmul_-DIKJ_-DNESTED_VECTOR_openmp;900
771,80;771,99;0;0;6502;2349597091;<not supported>;2944091463;375007748;834716;751868878;97632485;368302860;14668199;2407839;1832;<not supported>;155245858;61820055;76147002;761512965;137774;<not supported>;mmul_-DIKJ_-DNESTED_VECTOR_openmp;900
