cpu-clock:u;task-clock:u;context-switches:u;cpu-migrations:u;page-faults:u;cycles:u;stalled-cycles-frontend:u;instructions:u;branches:u;branch-misses:u;L1-dcache-loads:u;L1-dcache-load-misses:u;L1-dcache-stores:u;LLC-loads:u;LLC-load-misses:u;LLC-stores:u;LLC-prefetches:u;cache-references:u;cache-misses:u;bus-cycles:u;dTLB-loads:u;dTLB-load-misses:u;dTLB-prefetch-misses:u;executable;matrix_size
3272,16;3272,17;0;0;7962;9998564071;<not supported>;8905381776;981707505;1059046;2876045442;1460972617;976947682;132251371;69393190;3522;<not supported>;240092852;127735354;321854407;2997539779;7986578;<not supported>;mmul_-DIJK_-DNESTED_VECTOR;1000
3272,16;3272,17;0;0;7962;10040559128;<not supported>;9158859449;1029951140;1045515;3156300715;1583762417;1041175177;132775834;70378614;2774;<not supported>;237702424;130210161;323913180;3015649105;8544507;<not supported>;mmul_-DIJK_-DNESTED_VECTOR;1000
3066,97;3066,98;0;0;7965;9374642661;<not supported>;9007070515;1007328203;1092859;2985841041;1512447503;1021726631;127425908;70403662;1483;<not supported>;220359706;130796791;303079533;3016228376;6119764;<not supported>;mmul_-DIJK_-DNESTED_VECTOR;1000
3066,97;3066,98;0;0;7965;9426650785;<not supported>;8978720551;1012059390;1008904;2972666961;1491367066;989733005;126350146;67775919;1488;<not supported>;225277319;126043178;303001084;2980665479;5739514;<not supported>;mmul_-DIJK_-DNESTED_VECTOR;1000
2709,97;2709,97;0;0;7964;8287028926;<not supported>;8899244784;990954083;1073284;2943390795;1490014291;1004823069;125133717;67671892;929;<not supported>;225774958;128758340;267694521;3041808129;4436091;<not supported>;mmul_-DIJK_-DNESTED_VECTOR;1000
2709,97;2709,97;0;0;7964;8323452180;<not supported>;9086029075;1020589406;1014139;3020720608;1509309176;1006012130;125448960;67760577;878;<not supported>;226394636;127016468;267701338;2987035134;4725979;<not supported>;mmul_-DIJK_-DNESTED_VECTOR;1000
3281,18;3281,18;0;0;7966;9975636390;<not supported>;9104260538;1003886393;1081877;2930767332;1475725625;997139513;171317795;123721155;17457;<not supported>;273552757;190102355;322247966;3022185095;4138876;<not supported>;mmul_-DIJK_-DNESTED_VECTOR;1000
3281,18;3281,18;0;0;7966;9982899659;<not supported>;9133800454;1010236459;1009179;3024013570;1504008523;987700499;172147245;125161528;17954;<not supported>;276784150;189898413;323416015;3056269850;4091890;<not supported>;mmul_-DIJK_-DNESTED_VECTOR;1000
2678,75;2678,75;0;0;7964;8284694701;<not supported>;8983018655;1001130686;1079678;2938432749;1481292153;996690407;117007692;68184734;1398;<not supported>;210241564;129566136;261746546;3011012754;3623065;<not supported>;mmul_-DIJK_-DNESTED_VECTOR;1000
2678,75;2678,75;0;0;7964;8312858360;<not supported>;9089652071;1008536429;1011414;3016523618;1513430098;1001016324;119277242;70451012;1309;<not supported>;205864318;129010682;262930935;3017895722;3583108;<not supported>;mmul_-DIJK_-DNESTED_VECTOR;1000
2671,10;2671,10;0;0;7965;8248826171;<not supported>;8979341535;994177839;1072092;2921043896;1476107801;997743293;132017320;67645183;1106;<not supported>;250522570;126020722;262328626;3006296577;4214291;<not supported>;mmul_-DIJK_-DNESTED_VECTOR;1000
2671,10;2671,10;0;0;7965;8303864219;<not supported>;9079562362;1010255662;1012226;3020284906;1519066254;1006022654;133254518;67456969;941;<not supported>;247434854;127240621;262287179;3030795316;3989441;<not supported>;mmul_-DIJK_-DNESTED_VECTOR;1000
2693,08;2693,08;0;0;7962;8322925225;<not supported>;8966456427;991802087;1071515;2915020217;1466909819;997579255;126053974;67758643;761;<not supported>;234179345;127431332;264410167;3035031506;3707528;<not supported>;mmul_-DIJK_-DNESTED_VECTOR;1000
2693,08;2693,08;0;0;7962;8289108229;<not supported>;9150954087;1027801703;1014580;3046715252;1528907098;1011837170;128372383;67382326;765;<not supported>;242212260;125990065;264437289;3009588636;3857985;<not supported>;mmul_-DIJK_-DNESTED_VECTOR;1000
