cpu-clock:u;task-clock:u;context-switches:u;cpu-migrations:u;page-faults:u;cycles:u;stalled-cycles-frontend:u;instructions:u;branches:u;branch-misses:u;L1-dcache-loads:u;L1-dcache-load-misses:u;L1-dcache-stores:u;LLC-loads:u;LLC-load-misses:u;LLC-stores:u;LLC-prefetches:u;cache-references:u;cache-misses:u;bus-cycles:u;dTLB-loads:u;dTLB-load-misses:u;dTLB-prefetch-misses:u;executable;matrix_size
4,97;4,97;0;0;433;7117622;<not supported>;36770537;4860960;53286;8938687;1420173;<not counted>;<not counted>;<not counted>;<not counted>;<not supported>;<not counted>;<not counted>;<not counted>;<not counted>;<not counted>;<not supported>;mmul_-DIKJ_-DNESTED_VECTOR;200
4,97;4,97;0;0;433;<not counted>;<not supported>;<not counted>;<not counted>;<not counted>;<not counted>;<not counted>;<not counted>;<not counted>;<not counted>;<not counted>;<not supported>;<not counted>;<not counted>;<not counted>;<not counted>;<not counted>;<not supported>;mmul_-DIKJ_-DNESTED_VECTOR;200
4,95;4,95;0;0;434;8223448;<not supported>;36770537;4860458;53333;8938696;1339082;<not counted>;<not counted>;<not counted>;<not counted>;<not supported>;<not counted>;<not counted>;<not counted>;<not counted>;<not counted>;<not supported>;mmul_-DIKJ_-DNESTED_VECTOR;200
4,95;4,95;0;0;434;<not counted>;<not supported>;<not counted>;<not counted>;<not counted>;<not counted>;<not counted>;<not counted>;<not counted>;<not counted>;<not counted>;<not supported>;<not counted>;<not counted>;<not counted>;<not counted>;<not counted>;<not supported>;mmul_-DIKJ_-DNESTED_VECTOR;200
5,41;5,40;0;0;435;8242028;<not supported>;37103510;4860458;53430;8938537;1394187;<not counted>;<not counted>;<not counted>;<not counted>;<not supported>;<not counted>;<not counted>;<not counted>;<not counted>;<not counted>;<not supported>;mmul_-DIKJ_-DNESTED_VECTOR;200
5,41;5,40;0;0;435;<not counted>;<not supported>;<not counted>;<not counted>;<not counted>;<not counted>;<not counted>;<not counted>;<not counted>;<not counted>;<not counted>;<not supported>;<not counted>;<not counted>;<not counted>;<not counted>;<not counted>;<not supported>;mmul_-DIKJ_-DNESTED_VECTOR;200
5,11;5,11;0;0;434;11545599;<not supported>;36770540;4860963;53342;8938704;1389744;<not counted>;<not counted>;<not counted>;<not counted>;<not supported>;<not counted>;<not counted>;<not counted>;<not counted>;<not counted>;<not supported>;mmul_-DIKJ_-DNESTED_VECTOR;200
5,11;5,11;0;0;434;<not counted>;<not supported>;<not counted>;<not counted>;<not counted>;<not counted>;<not counted>;<not counted>;<not counted>;<not counted>;<not counted>;<not supported>;<not counted>;<not counted>;<not counted>;<not counted>;<not counted>;<not supported>;mmul_-DIKJ_-DNESTED_VECTOR;200
4,96;4,96;0;0;433;11822473;<not supported>;36770537;4860960;53405;8938644;1344075;<not counted>;<not counted>;<not counted>;<not counted>;<not supported>;<not counted>;<not counted>;<not counted>;<not counted>;<not counted>;<not supported>;mmul_-DIKJ_-DNESTED_VECTOR;200
4,96;4,96;0;0;433;<not counted>;<not supported>;<not counted>;<not counted>;<not counted>;<not counted>;<not counted>;<not counted>;<not counted>;<not counted>;<not counted>;<not supported>;<not counted>;<not counted>;<not counted>;<not counted>;<not counted>;<not supported>;mmul_-DIKJ_-DNESTED_VECTOR;200
5,00;5,00;0;0;434;9531867;<not supported>;36770538;4860961;53198;8938647;1395124;<not counted>;<not counted>;<not counted>;<not counted>;<not supported>;<not counted>;<not counted>;<not counted>;<not counted>;<not counted>;<not supported>;mmul_-DIKJ_-DNESTED_VECTOR;200
5,00;5,00;0;0;434;<not counted>;<not supported>;<not counted>;<not counted>;<not counted>;<not counted>;<not counted>;<not counted>;<not counted>;<not counted>;<not counted>;<not supported>;<not counted>;<not counted>;<not counted>;<not counted>;<not counted>;<not supported>;mmul_-DIKJ_-DNESTED_VECTOR;200
6,53;6,53;0;0;433;13365671;<not supported>;36511839;4860961;53442;8938754;1252993;<not counted>;<not counted>;<not counted>;<not counted>;<not supported>;<not counted>;<not counted>;<not counted>;<not counted>;<not counted>;<not supported>;mmul_-DIKJ_-DNESTED_VECTOR;200
6,53;6,53;0;0;433;<not counted>;<not supported>;<not counted>;<not counted>;<not counted>;<not counted>;<not counted>;<not counted>;<not counted>;<not counted>;<not counted>;<not supported>;<not counted>;<not counted>;<not counted>;<not counted>;<not counted>;<not supported>;mmul_-DIKJ_-DNESTED_VECTOR;200
