cpu-clock:u;task-clock:u;context-switches:u;cpu-migrations:u;page-faults:u;cycles:u;stalled-cycles-frontend:u;instructions:u;branches:u;branch-misses:u;L1-dcache-loads:u;L1-dcache-load-misses:u;L1-dcache-stores:u;LLC-loads:u;LLC-load-misses:u;LLC-stores:u;LLC-prefetches:u;cache-references:u;cache-misses:u;bus-cycles:u;dTLB-loads:u;dTLB-load-misses:u;dTLB-prefetch-misses:u;executable;matrix_size
23,33;23,34;0;0;456;39974294;<not supported>;94604514;10635027;55176;25680621;1995131;0;<not counted>;<not counted>;<not counted>;<not supported>;<not counted>;<not counted>;<not counted>;<not counted>;<not counted>;<not supported>;mmul_-DIJK_-DNESTED_VECTOR_openmp;200
23,33;23,34;0;0;456;<not counted>;<not supported>;<not counted>;<not counted>;<not counted>;<not counted>;<not counted>;<not counted>;<not counted>;<not counted>;<not counted>;<not supported>;<not counted>;<not counted>;<not counted>;<not counted>;<not counted>;<not supported>;mmul_-DIJK_-DNESTED_VECTOR_openmp;200
25,37;25,38;0;0;457;12125143;<not supported>;91116119;11280724;55142;25935448;2144298;258016;<not counted>;<not counted>;<not counted>;<not supported>;<not counted>;<not counted>;<not counted>;<not counted>;<not counted>;<not supported>;mmul_-DIJK_-DNESTED_VECTOR_openmp;200
25,36;25,38;0;0;457;<not counted>;<not supported>;<not counted>;<not counted>;<not counted>;<not counted>;<not counted>;<not counted>;<not counted>;<not counted>;<not counted>;<not supported>;<not counted>;<not counted>;<not counted>;<not counted>;<not counted>;<not supported>;mmul_-DIJK_-DNESTED_VECTOR_openmp;200
20,73;20,73;0;0;459;57538222;<not supported>;77843569;9281195;55270;25030852;1435935;<not counted>;<not counted>;<not counted>;<not counted>;<not supported>;<not counted>;<not counted>;<not counted>;<not counted>;<not counted>;<not supported>;mmul_-DIJK_-DNESTED_VECTOR_openmp;200
20,73;20,73;0;0;459;<not counted>;<not supported>;<not counted>;<not counted>;<not counted>;<not counted>;<not counted>;<not counted>;<not counted>;<not counted>;<not counted>;<not supported>;<not counted>;<not counted>;<not counted>;<not counted>;<not counted>;<not supported>;mmul_-DIJK_-DNESTED_VECTOR_openmp;200
23,66;23,66;0;0;459;64737359;<not supported>;84507448;10187148;55119;25484103;5191559;<not counted>;<not counted>;<not counted>;<not counted>;<not supported>;<not counted>;<not counted>;<not counted>;<not counted>;<not counted>;<not supported>;mmul_-DIJK_-DNESTED_VECTOR_openmp;200
23,66;23,66;0;0;459;<not counted>;<not supported>;<not counted>;<not counted>;<not counted>;<not counted>;<not counted>;<not counted>;<not counted>;<not counted>;<not counted>;<not supported>;<not counted>;<not counted>;<not counted>;<not counted>;<not counted>;<not supported>;mmul_-DIJK_-DNESTED_VECTOR_openmp;200
33,26;33,26;0;0;456;91467173;<not supported>;114931581;13739194;55397;27259947;2853842;<not counted>;<not counted>;<not counted>;<not counted>;<not supported>;<not counted>;<not counted>;<not counted>;<not counted>;<not counted>;<not supported>;mmul_-DIJK_-DNESTED_VECTOR_openmp;200
33,25;33,26;0;0;456;<not counted>;<not supported>;<not counted>;<not counted>;<not counted>;<not counted>;<not counted>;<not counted>;<not counted>;<not counted>;<not counted>;<not supported>;<not counted>;<not counted>;<not counted>;<not counted>;<not counted>;<not supported>;mmul_-DIJK_-DNESTED_VECTOR_openmp;200
21,11;21,11;0;0;458;9320234;<not supported>;79544813;9307426;55199;25044361;2470411;<not counted>;<not counted>;<not counted>;<not counted>;<not supported>;<not counted>;<not counted>;<not counted>;<not counted>;<not counted>;<not supported>;mmul_-DIJK_-DNESTED_VECTOR_openmp;200
21,11;21,11;0;0;458;<not counted>;<not supported>;<not counted>;<not counted>;<not counted>;<not counted>;<not counted>;<not counted>;<not counted>;<not counted>;<not counted>;<not supported>;<not counted>;<not counted>;<not counted>;<not counted>;<not counted>;<not supported>;mmul_-DIJK_-DNESTED_VECTOR_openmp;200
24,47;24,48;0;0;456;23954219;<not supported>;68917997;10907356;55372;25844285;1601892;<not counted>;<not counted>;<not counted>;<not counted>;<not supported>;<not counted>;<not counted>;<not counted>;<not counted>;<not counted>;<not supported>;mmul_-DIJK_-DNESTED_VECTOR_openmp;200
24,47;24,48;0;0;456;<not counted>;<not supported>;<not counted>;<not counted>;<not counted>;<not counted>;<not counted>;<not counted>;<not counted>;<not counted>;<not counted>;<not supported>;<not counted>;<not counted>;<not counted>;<not counted>;<not counted>;<not supported>;mmul_-DIJK_-DNESTED_VECTOR_openmp;200
