cpu-clock:u;task-clock:u;context-switches:u;cpu-migrations:u;page-faults:u;cycles:u;stalled-cycles-frontend:u;instructions:u;branches:u;branch-misses:u;L1-dcache-loads:u;L1-dcache-load-misses:u;L1-dcache-stores:u;LLC-loads:u;LLC-load-misses:u;LLC-stores:u;LLC-prefetches:u;cache-references:u;cache-misses:u;bus-cycles:u;dTLB-loads:u;dTLB-load-misses:u;dTLB-prefetch-misses:u;executable;matrix_size
3687,41;3687,42;0;0;9608;11378811276;<not supported>;12116610701;1334259761;1283282;3846210955;1944555839;1297302987;196620379;90480771;2664;<not supported>;369335807;170272012;362137854;4015792252;12344705;<not supported>;mmul_-DIJK_-DNESTED_VECTOR;1100
3687,38;3687,42;0;0;9608;11422272088;<not supported>;12084259077;1351690294;1232734;4075726468;2046545551;1341261626;196136845;90963342;1795;<not supported>;383013874;169945958;361964337;4074044869;11759451;<not supported>;mmul_-DIJK_-DNESTED_VECTOR;1100
3683,96;3683,96;0;0;9610;11315135932;<not supported>;11980438763;1332272520;1288965;3922167351;1978456554;1332033348;212704714;93679829;1694;<not supported>;408167718;171872126;363993701;4036072972;12683978;<not supported>;mmul_-DIJK_-DNESTED_VECTOR;1100
3683,96;3683,96;0;0;9610;11304913969;<not supported>;11961554573;1335020024;1217839;4019116709;2038347717;1340189826;210137258;93403449;1306;<not supported>;398504582;169782934;364199078;3972110800;13191335;<not supported>;mmul_-DIJK_-DNESTED_VECTOR;1100
4074,42;4074,43;0;0;9611;12450353113;<not supported>;11981932524;1331188069;1292528;3931303773;1992587354;1343374865;202095572;96079027;2353;<not supported>;392147381;173890035;403439929;4019013590;18970505;<not supported>;mmul_-DIJK_-DNESTED_VECTOR;1100
4074,41;4074,43;0;0;9611;12507922036;<not supported>;12153866911;1358155846;1238255;4043393901;2040705329;1330224721;208895347;94926781;3012;<not supported>;389337272;172166434;403565453;4022243441;18490425;<not supported>;mmul_-DIJK_-DNESTED_VECTOR;1100
4039,19;4039,19;0;0;9609;12371041148;<not supported>;12027758249;1329788890;1295271;3960250903;1993652552;1343298670;188550524;91336023;1195;<not supported>;338511600;169201599;399769124;4011010072;12178739;<not supported>;mmul_-DIJK_-DNESTED_VECTOR;1100
4039,19;4039,19;0;0;9609;12398238747;<not supported>;12106662831;1341901479;1224249;4001400994;2003351392;1325627364;188801789;92225304;751;<not supported>;333386345;173038000;399947558;4045733184;11822401;<not supported>;mmul_-DIJK_-DNESTED_VECTOR;1100
4038,42;4038,42;0;0;9611;12382446513;<not supported>;12024119368;1325396799;1281980;3897160022;1949243595;1315415897;207570033;93306364;2197;<not supported>;396927380;172368496;399716584;4037021285;12433642;<not supported>;mmul_-DIJK_-DNESTED_VECTOR;1100
4038,42;4038,42;0;0;9611;12390967752;<not supported>;12115805638;1345788108;1228848;4039773689;2026858804;1343020417;207382241;94725782;2187;<not supported>;398934871;173208576;399629082;4032905989;12854714;<not supported>;mmul_-DIJK_-DNESTED_VECTOR;1100
4016,93;4016,94;0;0;9607;12297645577;<not supported>;12058272662;1328006857;1287867;3926482528;1984457401;1340212961;193568331;92543917;2055;<not supported>;340128913;170361606;397686633;3977966000;12881602;<not supported>;mmul_-DIJK_-DNESTED_VECTOR;1100
4016,92;4016,94;0;0;9607;12280821375;<not supported>;11933432559;1340299179;1214675;3994168172;2016286917;1336291215;194936516;92432288;2222;<not supported>;342891784;174342113;397857074;4080018971;12379005;<not supported>;mmul_-DIJK_-DNESTED_VECTOR;1100
4062,26;4062,29;0;0;9609;12391073123;<not supported>;12126296035;1340923975;1308503;3983626777;1999624385;1337194510;192823783;91845489;2314;<not supported>;352205175;171549448;401453130;4015706352;14716112;<not supported>;mmul_-DIJK_-DNESTED_VECTOR;1100
4062,22;4062,29;0;0;9609;12441095115;<not supported>;11994506754;1325299325;1211590;3987080331;2019542775;1350708394;197157562;94281535;2211;<not supported>;348790878;173263780;401104564;4027441448;14408991;<not supported>;mmul_-DIJK_-DNESTED_VECTOR;1100
