cpu-clock:u;task-clock:u;context-switches:u;cpu-migrations:u;page-faults:u;cycles:u;stalled-cycles-frontend:u;instructions:u;branches:u;branch-misses:u;L1-dcache-loads:u;L1-dcache-load-misses:u;L1-dcache-stores:u;LLC-loads:u;LLC-load-misses:u;LLC-stores:u;LLC-prefetches:u;cache-references:u;cache-misses:u;bus-cycles:u;dTLB-loads:u;dTLB-load-misses:u;dTLB-prefetch-misses:u;executable;matrix_size
1314,41;1314,41;0;0;7965;3977034509;<not supported>;4909555108;499809316;1012920;1386601274;624815646;493557603;47599212;18645292;6110;<not supported>;87222632;30447242;129995231;1524208945;810140;<not supported>;mmul_-DIJK_OPT_-DNESTED_VECTOR;1000
1314,41;1314,41;0;0;7965;4034817480;<not supported>;5127034258;519589440;1015976;1551598265;689731904;509374710;48399240;18142026;9769;<not supported>;87389579;32350152;129976669;1540426858;852991;<not supported>;mmul_-DIJK_OPT_-DNESTED_VECTOR;1000
1924,83;1924,84;0;0;7963;5621516911;<not supported>;5025180584;518734929;1061240;1466555643;653328483;495592355;73294098;54476347;25901;<not supported>;114738514;78187578;190126844;1477619422;1266910;<not supported>;mmul_-DIJK_OPT_-DNESTED_VECTOR;1000
1924,81;1924,84;0;0;7963;5623796088;<not supported>;5036903550;504250495;1001267;1527322891;668973579;500739968;71867741;50130451;25546;<not supported>;115123860;76577923;190014838;1523310832;1244371;<not supported>;mmul_-DIJK_OPT_-DNESTED_VECTOR;1000
1588,22;1588,22;0;0;7965;4797838560;<not supported>;5068853261;500126778;1032985;1420688921;636914559;488730966;50109853;30695045;3720;<not supported>;92977099;55656507;157031911;1532657424;1004661;<not supported>;mmul_-DIJK_OPT_-DNESTED_VECTOR;1000
1588,22;1588,22;0;0;7965;4849164573;<not supported>;5193466794;514235497;1018452;1556364102;685124400;509343757;51432983;31153163;2782;<not supported>;98000554;58828675;157151222;1573694225;1007632;<not supported>;mmul_-DIJK_OPT_-DNESTED_VECTOR;1000
1632,64;1632,65;0;0;7966;4993655625;<not supported>;4928580389;486352673;1022165;1421230419;634015818;509951174;43969179;35265834;467;<not supported>;82959472;68374131;161498034;1541535622;1240746;<not supported>;mmul_-DIJK_OPT_-DNESTED_VECTOR;1000
1632,65;1632,65;0;0;7966;5001649192;<not supported>;4926864576;494446792;979901;1504249275;670986819;497556022;44071386;34464241;817;<not supported>;82775197;66784917;161540527;1540750607;1265865;<not supported>;mmul_-DIJK_OPT_-DNESTED_VECTOR;1000
1841,97;1841,98;0;0;7966;5558958999;<not supported>;5150993227;499924463;1039761;1440105629;639963027;494086020;57023812;40469946;11546;<not supported>;108643274;70518178;180708778;1484121683;1509539;<not supported>;mmul_-DIJK_OPT_-DNESTED_VECTOR;1000
1841,96;1841,98;0;0;7966;5594153826;<not supported>;4913600004;492083508;970798;1499684698;676150345;521131578;61438395;44764331;9014;<not supported>;109098629;73345020;182314939;1570970121;1319293;<not supported>;mmul_-DIJK_OPT_-DNESTED_VECTOR;1000
1690,75;1690,75;0;0;7964;5032114873;<not supported>;5060423988;503472307;1033603;1422185711;632470853;491452342;52218873;39284940;11595;<not supported>;90516762;66515929;167001619;1462355650;1221026;<not supported>;mmul_-DIJK_OPT_-DNESTED_VECTOR;1000
1690,76;1690,75;0;0;7964;5049602072;<not supported>;4971731795;505669516;1020306;1579833926;699661718;530271532;53035673;39370445;9679;<not supported>;92263113;67895108;167112115;1544469648;1000587;<not supported>;mmul_-DIJK_OPT_-DNESTED_VECTOR;1000
1561,83;1561,83;0;0;7964;4705589512;<not supported>;5137784827;526108740;1063976;1467514028;655196635;507173547;43009166;34560488;736;<not supported>;80360239;65534624;154434852;1501263357;1085030;<not supported>;mmul_-DIJK_OPT_-DNESTED_VECTOR;1000
1561,84;1561,83;0;0;7964;4789887352;<not supported>;4980117848;497347341;982674;1486928268;664113816;497881983;43457480;34337349;991;<not supported>;79572378;66881124;154544858;1553245500;872025;<not supported>;mmul_-DIJK_OPT_-DNESTED_VECTOR;1000
