cpu-clock:u;task-clock:u;context-switches:u;cpu-migrations:u;page-faults:u;cycles:u;stalled-cycles-frontend:u;instructions:u;branches:u;branch-misses:u;L1-dcache-loads:u;L1-dcache-load-misses:u;L1-dcache-stores:u;LLC-loads:u;LLC-load-misses:u;LLC-stores:u;LLC-prefetches:u;cache-references:u;cache-misses:u;bus-cycles:u;dTLB-loads:u;dTLB-load-misses:u;dTLB-prefetch-misses:u;executable;matrix_size
1612,17;1612,25;0;0;6500;4898728562;<not supported>;3679964392;367247514;904298;1067943709;383770373;369551152;32200029;7830284;807;<not supported>;50584245;17129126;159367661;1066090607;22023664;<not supported>;mmul_-DIJK_OPT_-DNESTED_VECTOR_openmp;900
1612,10;1612,25;0;0;6500;4922033953;<not supported>;3605561985;371219091;825794;1117812384;405489076;371306519;28883394;8655261;811;<not supported>;55923875;14943252;159540421;1123285422;27678659;<not supported>;mmul_-DIJK_OPT_-DNESTED_VECTOR_openmp;900
1477,17;1477,23;0;0;6503;4498202552;<not supported>;3639893402;364955931;901229;1057290491;374737414;377432257;30933639;6359154;5845;<not supported>;62249997;12991936;145949869;1123029786;27870892;<not supported>;mmul_-DIJK_OPT_-DNESTED_VECTOR_openmp;900
1477,08;1477,23;0;0;6503;4528099231;<not supported>;3626255176;363523255;799887;1081661924;377532061;370016163;27787677;5361602;6438;<not supported>;47622778;10796869;145960670;1103646414;27394915;<not supported>;mmul_-DIJK_OPT_-DNESTED_VECTOR_openmp;900
1485,05;1485,10;0;0;6501;4496690369;<not supported>;3464313087;365291050;869577;1016808056;389612762;361881142;32129782;7136191;935;<not supported>;57284470;12138249;146835717;1163085071;24614054;<not supported>;mmul_-DIJK_OPT_-DNESTED_VECTOR_openmp;900
1485,00;1485,10;0;0;6501;4553576865;<not supported>;3826340713;375586099;844060;1101646524;401817452;367933082;31827843;5893836;759;<not supported>;54686262;9999570;147007259;1094312174;25736651;<not supported>;mmul_-DIJK_OPT_-DNESTED_VECTOR_openmp;900
1412,84;1412,90;0;0;6502;4298420222;<not supported>;3717092976;371023685;883277;1047730587;355238582;353189525;27612737;6042656;5103;<not supported>;54388168;11033129;138413977;1052104487;27236298;<not supported>;mmul_-DIJK_OPT_-DNESTED_VECTOR_openmp;900
1412,74;1412,90;0;0;6502;4313469171;<not supported>;3638255513;367168050;811789;1105636786;396110914;364256455;28934562;6518295;8705;<not supported>;54143466;10743528;139894510;1152727090;23046338;<not supported>;mmul_-DIJK_OPT_-DNESTED_VECTOR_openmp;900
1587,89;1587,94;0;0;6500;4794388180;<not supported>;3542187861;374039601;892806;1019655132;348964636;354038524;28995160;7095013;978;<not supported>;50932925;13945669;156912194;1079678286;33579231;<not supported>;mmul_-DIJK_OPT_-DNESTED_VECTOR_openmp;900
1587,84;1587,94;0;0;6500;4870304604;<not supported>;3745837639;383646150;875162;1185254188;419611851;386362487;31572583;9532753;899;<not supported>;53880501;17179146;155739981;1051144243;30376780;<not supported>;mmul_-DIJK_OPT_-DNESTED_VECTOR_openmp;900
1471,68;1471,74;0;0;6502;4483671958;<not supported>;3503300031;354107729;845317;1010606567;327039395;346453648;29330277;8396354;11977;<not supported>;56221292;14901281;144673110;1155293212;25143738;<not supported>;mmul_-DIJK_OPT_-DNESTED_VECTOR_openmp;900
1471,57;1471,74;0;0;6502;4451431035;<not supported>;3857749170;392146434;865560;1144796316;386408297;363835442;27446544;6561712;13270;<not supported>;46660436;10750579;145371739;1038092954;31220298;<not supported>;mmul_-DIJK_OPT_-DNESTED_VECTOR_openmp;900
1630,24;1630,32;0;0;6502;4936999133;<not supported>;3538763627;350322002;874444;1012188037;357905893;356072183;26609918;9080049;634;<not supported>;47130843;17943945;160366278;1048454578;21356643;<not supported>;mmul_-DIJK_OPT_-DNESTED_VECTOR_openmp;900
1630,18;1630,32;0;0;6502;4993950443;<not supported>;3691530650;381405490;857927;1147382939;445922840;400933402;34735723;11124785;3305;<not supported>;60738326;22963046;160728637;1109494774;22657946;<not supported>;mmul_-DIJK_OPT_-DNESTED_VECTOR_openmp;900
