cpu-clock:u;task-clock:u;context-switches:u;cpu-migrations:u;page-faults:u;cycles:u;stalled-cycles-frontend:u;instructions:u;branches:u;branch-misses:u;L1-dcache-loads:u;L1-dcache-load-misses:u;L1-dcache-stores:u;LLC-loads:u;LLC-load-misses:u;LLC-stores:u;LLC-prefetches:u;cache-references:u;cache-misses:u;bus-cycles:u;dTLB-loads:u;dTLB-load-misses:u;dTLB-prefetch-misses:u;executable;matrix_size
102,13;102,13;0;0;2950;154051285;<not supported>;210563252;63593519;304451;149774783;23429513;107628864;5252010;170174;13;<not supported>;40903781;1388639;10064559;237850029;818;<not supported>;mmul_-DIKJ_-DNESTED_VECTOR;600
102,13;102,13;0;0;2950;316388601;<not supported>;951210870;119530031;391296;236559387;29680894;116391686;5351929;185865;13;<not supported>;37706446;2157638;9220975;180884409;<not counted>;<not supported>;mmul_-DIKJ_-DNESTED_VECTOR;600
128,25;128,25;0;0;2949;363963007;<not supported>;903026696;101666672;336562;148075445;18773007;72952861;1364348;255284;129;<not supported>;26491474;5348083;12449991;182826092;7459;<not supported>;mmul_-DIKJ_-DNESTED_VECTOR;600
128,25;128,25;0;0;2949;382808686;<not supported>;932661296;132512357;431070;269387954;35749214;140628878;6720495;315864;112;<not supported>;50345943;2013952;12699286;293220650;1107;<not supported>;mmul_-DIKJ_-DNESTED_VECTOR;600
106,69;106,69;0;0;2949;208876733;<not supported>;279791150;41525082;264669;111772905;18127609;98235592;4937518;280206;107;<not supported>;41644193;1265028;10480889;243448483;914;<not supported>;mmul_-DIKJ_-DNESTED_VECTOR;600
106,69;106,69;0;0;2949;327621015;<not supported>;973708056;122483452;403332;243987723;30611101;119948956;5408114;182096;27;<not supported>;41356651;1265876;9965409;220768329;42256;<not supported>;mmul_-DIKJ_-DNESTED_VECTOR;600
105,33;105,33;0;0;2949;147669726;<not supported>;140598028;38834821;267347;134025333;22914040;117264146;5250059;127965;79;<not supported>;41270609;815398;10405261;243691786;973;<not supported>;mmul_-DIKJ_-DNESTED_VECTOR;600
105,33;105,33;0;0;2949;324568305;<not supported>;944667854;118604865;388646;243627163;30629293;120430471;5409100;117369;132;<not supported>;41263520;1710775;9782406;210248044;124590;<not supported>;mmul_-DIKJ_-DNESTED_VECTOR;600
102,36;102,36;0;0;2949;137732575;<not supported>;326269450;69549774;332133;166481025;26304114;113368348;5400466;248938;64;<not supported>;40160935;1879098;10125407;234748265;832;<not supported>;mmul_-DIKJ_-DNESTED_VECTOR;600
102,36;102,36;0;0;2949;316900222;<not supported>;943486067;118481232;387871;233993252;29280533;115585189;5353151;243210;51;<not supported>;37762194;2576845;9303463;171466423;<not counted>;<not supported>;mmul_-DIKJ_-DNESTED_VECTOR;600
110,30;110,30;0;0;2949;216035707;<not supported>;431788780;49532988;270339;133305001;22483395;104928532;5441205;327920;69;<not supported>;42600542;2217489;10898308;243484485;903;<not supported>;mmul_-DIKJ_-DNESTED_VECTOR;600
110,30;110,30;0;0;2949;339769927;<not supported>;905554289;113315657;378305;221456787;28569500;117925421;5543835;300025;28;<not supported>;42899859;2074130;10442975;231184703;34867;<not supported>;mmul_-DIKJ_-DNESTED_VECTOR;600
104,05;104,05;0;0;2949;159062269;<not supported>;210482660;65067613;329509;154522934;22940414;104473381;4974370;332310;65;<not supported>;41063043;1955705;10259228;235499139;1178;<not supported>;mmul_-DIKJ_-DNESTED_VECTOR;600
104,05;104,05;0;0;2949;321639845;<not supported>;952668194;119771274;393347;237825750;29830187;117884893;5434005;222352;39;<not supported>;40963798;2206711;9646273;207872493;120035;<not supported>;mmul_-DIKJ_-DNESTED_VECTOR;600
