cpu-clock:u;task-clock:u;context-switches:u;cpu-migrations:u;page-faults:u;cycles:u;stalled-cycles-frontend:u;instructions:u;branches:u;branch-misses:u;L1-dcache-loads:u;L1-dcache-load-misses:u;L1-dcache-stores:u;LLC-loads:u;LLC-load-misses:u;LLC-stores:u;LLC-prefetches:u;cache-references:u;cache-misses:u;bus-cycles:u;dTLB-loads:u;dTLB-load-misses:u;dTLB-prefetch-misses:u;executable;matrix_size
20341,28;20342,50;0;0;13390;61290871972;<not supported>;16904952886;2093993159;1872957;7402846255;3236421601;2394097984;952806219;102634657;21629;<not supported>;2291246860;181353154;2007289797;5118923895;1209587326;<not supported>;mmul_-DIJK_-DNESTED_VECTOR_openmp;1300
20339,73;20342,50;0;0;13390;61318576395;<not supported>;16941563328;2109808077;1823865;7481868383;3320501199;2391673279;980893366;106309852;18583;<not supported>;2323585489;184687105;2006240408;5185909204;1210814066;<not supported>;mmul_-DIJK_-DNESTED_VECTOR_openmp;1300
19095,13;19095,90;0;0;13389;57193015507;<not supported>;17055576005;2138481381;1908361;7454767838;3469254000;2361152034;1038976352;123512800;3176276;<not supported>;2426791653;213622749;1885797268;5335236047;1108902371;<not supported>;mmul_-DIJK_-DNESTED_VECTOR_openmp;1300
19094,23;19095,90;0;0;13389;57178009939;<not supported>;17177342765;2124461929;1820446;7362172124;3421694133;2298722943;1039542980;127629918;25964;<not supported>;2405788226;215621050;1883806992;5217538017;1110033155;<not supported>;mmul_-DIJK_-DNESTED_VECTOR_openmp;1300
16489,26;16489,55;0;0;13391;50308444953;<not supported>;17951059640;2136266648;1855273;7139786396;3638483876;2389633652;1027156643;144085535;12728;<not supported>;2070985502;224640111;1630548049;5586327978;922158707;<not supported>;mmul_-DIJK_-DNESTED_VECTOR_openmp;1300
16488,95;16489,55;0;0;13391;50299740894;<not supported>;17588836898;2088624076;1737549;7070836487;3591197963;2385642262;1069965290;144151175;10521;<not supported>;2088798410;225171523;1630453321;5678377376;919529861;<not supported>;mmul_-DIJK_-DNESTED_VECTOR_openmp;1300
16371,41;16371,99;0;0;13392;50046670830;<not supported>;17850678707;2122903221;1844767;7101726952;3755112574;2414036747;1082791976;149068292;9986;<not supported>;2110137803;236141088;1616696384;5677051645;925921901;<not supported>;mmul_-DIJK_-DNESTED_VECTOR_openmp;1300
16370,73;16371,99;0;0;13392;50055486021;<not supported>;17865977230;2141325716;1779375;7109861951;3739919884;2395981354;1075975075;152074139;11142;<not supported>;2115927780;239187719;1617971150;5695568635;926280069;<not supported>;mmul_-DIJK_-DNESTED_VECTOR_openmp;1300
15445,16;15446,33;0;0;13393;46428693791;<not supported>;18347024215;2132523032;1824222;6947225749;3845770661;2351150823;1160128534;164024597;3186127;<not supported>;2269382203;257543211;1521318999;5931648903;820050884;<not supported>;mmul_-DIJK_-DNESTED_VECTOR_openmp;1300
15443,51;15446,33;0;0;13393;46456218183;<not supported>;18464315706;2154619570;1777548;6967205012;3831548000;2323925057;1153329625;165825062;21283;<not supported>;2280163069;256656522;1520540310;5967478720;814635895;<not supported>;mmul_-DIJK_-DNESTED_VECTOR_openmp;1300
20095,78;20096,89;0;0;13389;60152348526;<not supported>;17002187102;2091595114;1901828;7428498818;3701554188;2442324807;1276250695;128427286;28749;<not supported>;2642133317;225639966;1979398832;5177790463;1166481716;<not supported>;mmul_-DIJK_-DNESTED_VECTOR_openmp;1300
20094,02;20096,89;0;0;13389;60063986728;<not supported>;16796512988;2080782004;1780362;7396921124;3750656420;2450937024;1333065300;125921784;24225;<not supported>;2692733717;218932729;1980599806;5171176315;1170605885;<not supported>;mmul_-DIJK_-DNESTED_VECTOR_openmp;1300
19819,82;19821,66;0;0;13389;59182773824;<not supported>;16505107180;2064284567;1869374;7408811008;3570706489;2506148790;1167260105;108806445;17729;<not supported>;2324860415;185291185;1951772640;5205768730;1157788239;<not supported>;mmul_-DIJK_-DNESTED_VECTOR_openmp;1300
19817,39;19821,66;0;0;13389;59132817803;<not supported>;16990573091;2115680077;1794759;7455820003;3535277953;2451570220;1122877628;107901603;18524;<not supported>;2282694259;177191528;1948634557;5013313821;1159476960;<not supported>;mmul_-DIJK_-DNESTED_VECTOR_openmp;1300
