cpu-clock:u;task-clock:u;context-switches:u;cpu-migrations:u;page-faults:u;cycles:u;stalled-cycles-frontend:u;instructions:u;branches:u;branch-misses:u;L1-dcache-loads:u;L1-dcache-load-misses:u;L1-dcache-stores:u;LLC-loads:u;LLC-load-misses:u;LLC-stores:u;LLC-prefetches:u;cache-references:u;cache-misses:u;bus-cycles:u;dTLB-loads:u;dTLB-load-misses:u;dTLB-prefetch-misses:u;executable;matrix_size
1515,70;1515,71;0;0;13367;4620573549;<not supported>;8757508882;1083480486;1715889;2094691653;272304906;1072168461;73202142;21708068;4013;<not supported>;442853111;272236035;149308571;2227816904;200595;<not supported>;mmul_-DIKJ_-DNESTED_VECTOR;1300
1515,70;1515,71;0;0;13367;4682405862;<not supported>;8992349669;1137614443;1718274;2235140964;287545859;1098708948;79274350;23364762;4358;<not supported>;467821677;283846805;149638643;2296033791;196581;<not supported>;mmul_-DIKJ_-DNESTED_VECTOR;1300
1681,80;1681,80;0;0;13367;5130482268;<not supported>;8794718708;1108855446;1706079;2104451993;274155855;1055838272;66517629;21149927;3293405;<not supported>;456793285;282178362;166413389;2253533694;250652;<not supported>;mmul_-DIKJ_-DNESTED_VECTOR;1300
1681,79;1681,80;0;0;13367;5157085326;<not supported>;9085686940;1140934135;1733586;2260677933;292235945;1125650767;73657101;23031003;4415;<not supported>;467873632;286537555;166376096;2267991644;224748;<not supported>;mmul_-DIKJ_-DNESTED_VECTOR;1300
1587,74;1587,74;0;0;13366;4845932386;<not supported>;8850610991;1091888058;1721575;2113924845;270113131;1043447477;72403947;23175153;5481;<not supported>;461432836;282440314;157153934;2264148888;171901;<not supported>;mmul_-DIKJ_-DNESTED_VECTOR;1300
1587,74;1587,74;0;0;13366;4870962837;<not supported>;9021118578;1132808648;1731017;2260425078;287275055;1125832919;81369323;25521703;6686;<not supported>;464566565;284162293;157172434;2272631743;171829;<not supported>;mmul_-DIKJ_-DNESTED_VECTOR;1300
1560,89;1560,90;0;0;13366;4674765495;<not supported>;8723757771;1099426110;1693372;2082344383;270082945;1067828670;75445953;23734390;2627;<not supported>;459184152;282430709;154504359;2254468686;149034;<not supported>;mmul_-DIKJ_-DNESTED_VECTOR;1300
1560,89;1560,90;0;0;13366;4790088711;<not supported>;9065870339;1139128001;1740844;2263492549;286325791;1125605911;80457649;25144984;2851;<not supported>;460727857;283911210;154571236;2259402790;197504;<not supported>;mmul_-DIKJ_-DNESTED_VECTOR;1300
1591,51;1591,51;0;0;13368;4850484038;<not supported>;8904655419;1107926991;1748414;2143499829;272574517;1062666215;71842737;21866538;4518;<not supported>;448993348;273908204;157385005;2243908167;154729;<not supported>;mmul_-DIKJ_-DNESTED_VECTOR;1300
1591,51;1591,51;0;0;13368;4875021251;<not supported>;9002497230;1127541437;1724890;2259481046;289173013;1132378737;79959070;24055162;4239;<not supported>;458673024;279829672;157546904;2271768800;168957;<not supported>;mmul_-DIKJ_-DNESTED_VECTOR;1300
1600,03;1600,03;0;0;13366;4891669587;<not supported>;8830758724;1098303736;1727719;2136801601;273703464;1075883144;72293318;22114769;2459423;<not supported>;457605752;275589893;156200714;2248214451;159906;<not supported>;mmul_-DIKJ_-DNESTED_VECTOR;1300
1600,03;1600,03;0;0;13366;4917617675;<not supported>;9206186898;1152124208;1753196;2274402604;288895301;1114300414;69858199;20517274;4050;<not supported>;447543624;269418672;158247315;2209148830;180675;<not supported>;mmul_-DIKJ_-DNESTED_VECTOR;1300
1576,24;1576,24;0;0;13366;4789038161;<not supported>;8877868492;1098317950;1710896;2091329631;268560721;1044635131;74773767;23357825;4450;<not supported>;456137499;277677037;155920752;2238113170;155778;<not supported>;mmul_-DIKJ_-DNESTED_VECTOR;1300
1576,23;1576,24;0;0;13366;4842022354;<not supported>;9055793595;1133228459;1734427;2261133699;286631565;1126176766;79938287;24667567;4431;<not supported>;464398385;282694540;156076105;2267440763;149245;<not supported>;mmul_-DIKJ_-DNESTED_VECTOR;1300
